"-qp 30"
svt-av1/preset-0-qp-30.mkv;Matroska;AV1;Main;37584430;36836500;99.950761;90.321665;1920;1080;50.000;500;4:2:0;8;46980538;Lavc58.136.101 libsvtav1;0;0;30;0
svt-av1/preset-1-qp-30.mkv;Matroska;AV1;Main;37688534;36938532;99.950468;90.273044;1920;1080;50.000;500;4:2:0;8;47110667;Lavc58.136.101 libsvtav1;1;1;30;0
svt-av1/preset-2-qp-30.mkv;Matroska;AV1;Main;37721679;36971018;99.943741;90.287288;1920;1080;50.000;500;4:2:0;8;47152099;Lavc58.136.101 libsvtav1;2;2;30;0
svt-av1/preset-3-qp-30.mkv;Matroska;AV1;Main;38102443;37344204;99.935496;90.24802;1920;1080;50.000;500;4:2:0;8;47628054;Lavc58.136.101 libsvtav1;3;3;30;0
svt-av1/preset-4-qp-30.mkv;Matroska;AV1;Main;39692031;38902160;99.901199;90.238995;1920;1080;50.000;500;4:2:0;8;49615039;Lavc58.136.101 libsvtav1;4;4;30;0
svt-av1/preset-5-qp-30.mkv;Matroska;AV1;Main;40213873;39413617;99.891927;92.403366;1920;1080;50.000;500;4:2:0;8;50267341;Lavc58.136.101 libsvtav1;5;5;30;0
svt-av1/preset-6-qp-30.mkv;Matroska;AV1;Main;40734877;39924253;99.838821;92.373574;1920;1080;50.000;500;4:2:0;8;50918596;Lavc58.136.101 libsvtav1;6;6;30;0
svt-av1/preset-7-qp-30.mkv;Matroska;AV1;Main;42578523;41731210;99.749981;92.389586;1920;1080;50.000;500;4:2:0;8;53223154;Lavc58.136.101 libsvtav1;7;7;30;0
svt-av1/preset-8-qp-30.mkv;Matroska;AV1;Main;42536262;41689790;99.744403;92.271529;1920;1080;50.000;500;4:2:0;8;53170327;Lavc58.136.101 libsvtav1;8;8;30;0


"-qp 35"
svt-av1/preset-0-qp-35.mkv;Matroska;AV1;Main;26876420;26341579;99.291111;89.618548;1920;1080;50.000;500;4:2:0;8;33595525;Lavc58.136.101 libsvtav1;0;0;35;1
svt-av1/preset-1-qp-35.mkv;Matroska;AV1;Main;26899892;26364584;99.262305;89.428065;1920;1080;50.000;500;4:2:0;8;33624865;Lavc58.136.101 libsvtav1;1;1;35;1
svt-av1/preset-2-qp-35.mkv;Matroska;AV1;Main;26897877;26362609;99.2024;89.33836;1920;1080;50.000;500;4:2:0;8;33622346;Lavc58.136.101 libsvtav1;2;2;35;1
svt-av1/preset-3-qp-35.mkv;Matroska;AV1;Main;27148434;26608180;99.142846;89.43128;1920;1080;50.000;500;4:2:0;8;33935542;Lavc58.136.101 libsvtav1;3;3;35;1
svt-av1/preset-4-qp-35.mkv;Matroska;AV1;Main;28183953;27623092;98.890508;89.316534;1920;1080;50.000;500;4:2:0;8;35229941;Lavc58.136.101 libsvtav1;4;4;35;1
svt-av1/preset-5-qp-35.mkv;Matroska;AV1;Main;28439264;27873323;98.758803;91.389223;1920;1080;50.000;500;4:2:0;8;35549080;Lavc58.136.101 libsvtav1;5;5;35;1
svt-av1/preset-6-qp-35.mkv;Matroska;AV1;Main;28826282;28252639;98.641432;91.303659;1920;1080;50.000;500;4:2:0;8;36032852;Lavc58.136.101 libsvtav1;6;6;35;1
svt-av1/preset-7-qp-35.mkv;Matroska;AV1;Main;29898313;29303337;98.287714;91.369866;1920;1080;50.000;500;4:2:0;8;37372891;Lavc58.136.101 libsvtav1;7;7;35;1
svt-av1/preset-8-qp-35.mkv;Matroska;AV1;Main;29910425;29315208;98.263592;91.355425;1920;1080;50.000;500;4:2:0;8;37388031;Lavc58.136.101 libsvtav1;8;8;35;1


"-qp 40"
svt-av1/preset-0-qp-40.mkv;Matroska;AV1;Main;19875994;19480462;97.163197;88.58538;1920;1080;50.000;500;4:2:0;8;24844993;Lavc58.136.101 libsvtav1;0;0;40;2
svt-av1/preset-1-qp-40.mkv;Matroska;AV1;Main;19865481;19470158;97.098998;88.665356;1920;1080;50.000;500;4:2:0;8;24831851;Lavc58.136.101 libsvtav1;1;1;40;2
svt-av1/preset-2-qp-40.mkv;Matroska;AV1;Main;19849604;19454597;96.988988;88.606034;1920;1080;50.000;500;4:2:0;8;24812005;Lavc58.136.101 libsvtav1;2;2;40;2
svt-av1/preset-3-qp-40.mkv;Matroska;AV1;Main;19983049;19585386;96.850607;88.583858;1920;1080;50.000;500;4:2:0;8;24978811;Lavc58.136.101 libsvtav1;3;3;40;2
svt-av1/preset-4-qp-40.mkv;Matroska;AV1;Main;20623072;20212673;96.526846;88.512686;1920;1080;50.000;500;4:2:0;8;25778840;Lavc58.136.101 libsvtav1;4;4;40;2
svt-av1/preset-5-qp-40.mkv;Matroska;AV1;Main;20666005;20254752;96.263959;90.466291;1920;1080;50.000;500;4:2:0;8;25832506;Lavc58.136.101 libsvtav1;5;5;40;2
svt-av1/preset-6-qp-40.mkv;Matroska;AV1;Main;20939873;20523170;96.137962;90.36638;1920;1080;50.000;500;4:2:0;8;26174841;Lavc58.136.101 libsvtav1;6;6;40;2
svt-av1/preset-7-qp-40.mkv;Matroska;AV1;Main;21578577;21149163;95.433888;89.684161;1920;1080;50.000;500;4:2:0;8;26973221;Lavc58.136.101 libsvtav1;7;7;40;2
svt-av1/preset-8-qp-40.mkv;Matroska;AV1;Main;21623381;21193076;95.388474;89.87622;1920;1080;50.000;500;4:2:0;8;27029226;Lavc58.136.101 libsvtav1;8;8;40;2


"-qp 45"
svt-av1/preset-0-qp-45.mkv;Matroska;AV1;Main;14625308;14334264;93.532992;87.464881;1920;1080;50.000;500;4:2:0;8;18281635;Lavc58.136.101 libsvtav1;0;0;45;3
svt-av1/preset-1-qp-45.mkv;Matroska;AV1;Main;14578151;14288046;93.409749;87.569767;1920;1080;50.000;500;4:2:0;8;18222689;Lavc58.136.101 libsvtav1;1;1;45;3
svt-av1/preset-2-qp-45.mkv;Matroska;AV1;Main;14555475;14265821;93.219671;86.868886;1920;1080;50.000;500;4:2:0;8;18194344;Lavc58.136.101 libsvtav1;2;2;45;3
svt-av1/preset-3-qp-45.mkv;Matroska;AV1;Main;14644247;14352826;93.003012;86.929299;1920;1080;50.000;500;4:2:0;8;18305309;Lavc58.136.101 libsvtav1;3;3;45;3
svt-av1/preset-4-qp-45.mkv;Matroska;AV1;Main;15008724;14710050;92.613211;86.500399;1920;1080;50.000;500;4:2:0;8;18760905;Lavc58.136.101 libsvtav1;4;4;45;3
svt-av1/preset-5-qp-45.mkv;Matroska;AV1;Main;15042038;14742701;92.213151;86.113709;1920;1080;50.000;500;4:2:0;8;18802547;Lavc58.136.101 libsvtav1;5;5;45;3
svt-av1/preset-6-qp-45.mkv;Matroska;AV1;Main;15156473;14854859;91.992513;86.016733;1920;1080;50.000;500;4:2:0;8;18945591;Lavc58.136.101 libsvtav1;6;6;45;3
svt-av1/preset-7-qp-45.mkv;Matroska;AV1;Main;15572933;15263032;91.013269;84.391569;1920;1080;50.000;500;4:2:0;8;19466166;Lavc58.136.101 libsvtav1;7;7;45;3
svt-av1/preset-8-qp-45.mkv;Matroska;AV1;Main;15621623;15310753;90.982142;84.28693;1920;1080;50.000;500;4:2:0;8;19527029;Lavc58.136.101 libsvtav1;8;8;45;3


"-qp 50"
svt-av1/preset-0-qp-50.mkv;Matroska;AV1;Main;10821825;10606471;88.551625;81.441052;1920;1080;50.000;500;4:2:0;8;13527281;Lavc58.136.101 libsvtav1;0;0;50;4
svt-av1/preset-1-qp-50.mkv;Matroska;AV1;Main;10772138;10557772;88.379879;81.178013;1920;1080;50.000;500;4:2:0;8;13465173;Lavc58.136.101 libsvtav1;1;1;50;4
svt-av1/preset-2-qp-50.mkv;Matroska;AV1;Main;10752284;10538314;88.146894;80.835637;1920;1080;50.000;500;4:2:0;8;13440355;Lavc58.136.101 libsvtav1;2;2;50;4
svt-av1/preset-3-qp-50.mkv;Matroska;AV1;Main;10786935;10572275;87.837044;80.721005;1920;1080;50.000;500;4:2:0;8;13483669;Lavc58.136.101 libsvtav1;3;3;50;4
svt-av1/preset-4-qp-50.mkv;Matroska;AV1;Main;10974839;10756440;87.429517;80.272546;1920;1080;50.000;500;4:2:0;8;13718549;Lavc58.136.101 libsvtav1;4;4;50;4
svt-av1/preset-5-qp-50.mkv;Matroska;AV1;Main;10988002;10769341;86.85586;79.616112;1920;1080;50.000;500;4:2:0;8;13735003;Lavc58.136.101 libsvtav1;5;5;50;4
svt-av1/preset-6-qp-50.mkv;Matroska;AV1;Main;11088378;10867719;86.655872;79.720591;1920;1080;50.000;500;4:2:0;8;13860472;Lavc58.136.101 libsvtav1;6;6;50;4
svt-av1/preset-7-qp-50.mkv;Matroska;AV1;Main;11322994;11097666;85.314492;77.482587;1920;1080;50.000;500;4:2:0;8;14153742;Lavc58.136.101 libsvtav1;7;7;50;4
svt-av1/preset-8-qp-50.mkv;Matroska;AV1;Main;11362865;11136744;85.279944;77.446129;1920;1080;50.000;500;4:2:0;8;14203581;Lavc58.136.101 libsvtav1;8;8;50;4


"-qp 55"
svt-av1/preset-0-qp-55.mkv;Matroska;AV1;Main;7516120;7366549;81.477395;73.182435;1920;1080;50.000;500;4:2:0;8;9395150;Lavc58.136.101 libsvtav1;0;0;55;5
svt-av1/preset-1-qp-55.mkv;Matroska;AV1;Main;7474791;7326043;81.213722;72.805316;1920;1080;50.000;500;4:2:0;8;9343489;Lavc58.136.101 libsvtav1;1;1;55;5
svt-av1/preset-2-qp-55.mkv;Matroska;AV1;Main;7449060;7300824;80.923567;72.112476;1920;1080;50.000;500;4:2:0;8;9311325;Lavc58.136.101 libsvtav1;2;2;55;5
svt-av1/preset-3-qp-55.mkv;Matroska;AV1;Main;7453532;7305207;80.490513;71.909042;1920;1080;50.000;500;4:2:0;8;9316915;Lavc58.136.101 libsvtav1;3;3;55;5
svt-av1/preset-4-qp-55.mkv;Matroska;AV1;Main;7528313;7378500;79.95132;71.562395;1920;1080;50.000;500;4:2:0;8;9410391;Lavc58.136.101 libsvtav1;4;4;55;5
svt-av1/preset-5-qp-55.mkv;Matroska;AV1;Main;7507910;7358503;79.14679;70.373068;1920;1080;50.000;500;4:2:0;8;9384887;Lavc58.136.101 libsvtav1;5;5;55;5
svt-av1/preset-6-qp-55.mkv;Matroska;AV1;Main;7443723;7295593;78.483784;70.146017;1920;1080;50.000;500;4:2:0;8;9304654;Lavc58.136.101 libsvtav1;6;6;55;5
svt-av1/preset-7-qp-55.mkv;Matroska;AV1;Main;7562645;7412148;76.917055;67.700444;1920;1080;50.000;500;4:2:0;8;9453306;Lavc58.136.101 libsvtav1;7;7;55;5
svt-av1/preset-8-qp-55.mkv;Matroska;AV1;Main;7597318;7446131;76.878274;67.479924;1920;1080;50.000;500;4:2:0;8;9496647;Lavc58.136.101 libsvtav1;8;8;55;5


"default"
svt-av1/default.mkv;Matroska;AV1;Main;11364173;11138026;85.282171;77.446129;1920;1080;50.000;500;4:2:0;8;14205216;Lavc58.136.101 libsvtav1
