<?xml version="1.0" encoding="utf-8"  standalone="no"?>
<svg 
 viewBox="0 0 600 480"
 xmlns="http://www.w3.org/2000/svg"
 xmlns:xlink="http://www.w3.org/1999/xlink"
>

<title>Gnuplot</title>
<desc>Produced by GNUPLOT 5.4 patchlevel 1 </desc>

<g id="gnuplot_canvas">

<rect x="0" y="0" width="600" height="480" fill="none"/>
<defs>

	<circle id='gpDot' r='0.5' stroke-width='0.5' stroke='currentColor'/>
	<path id='gpPt0' stroke-width='0.222' stroke='currentColor' d='M-1,0 h2 M0,-1 v2'/>
	<path id='gpPt1' stroke-width='0.222' stroke='currentColor' d='M-1,-1 L1,1 M1,-1 L-1,1'/>
	<path id='gpPt2' stroke-width='0.222' stroke='currentColor' d='M-1,0 L1,0 M0,-1 L0,1 M-1,-1 L1,1 M-1,1 L1,-1'/>
	<rect id='gpPt3' stroke-width='0.222' stroke='currentColor' x='-1' y='-1' width='2' height='2'/>
	<rect id='gpPt4' stroke-width='0.222' stroke='currentColor' fill='currentColor' x='-1' y='-1' width='2' height='2'/>
	<circle id='gpPt5' stroke-width='0.222' stroke='currentColor' cx='0' cy='0' r='1'/>
	<use xlink:href='#gpPt5' id='gpPt6' fill='currentColor' stroke='none'/>
	<path id='gpPt7' stroke-width='0.222' stroke='currentColor' d='M0,-1.33 L-1.33,0.67 L1.33,0.67 z'/>
	<use xlink:href='#gpPt7' id='gpPt8' fill='currentColor' stroke='none'/>
	<use xlink:href='#gpPt7' id='gpPt9' stroke='currentColor' transform='rotate(180)'/>
	<use xlink:href='#gpPt9' id='gpPt10' fill='currentColor' stroke='none'/>
	<use xlink:href='#gpPt3' id='gpPt11' stroke='currentColor' transform='rotate(45)'/>
	<use xlink:href='#gpPt11' id='gpPt12' fill='currentColor' stroke='none'/>
	<path id='gpPt13' stroke-width='0.222' stroke='currentColor' d='M0,1.330 L1.265,0.411 L0.782,-1.067 L-0.782,-1.076 L-1.265,0.411 z'/>
	<use xlink:href='#gpPt13' id='gpPt14' fill='currentColor' stroke='none'/>
	<filter id='textbox' filterUnits='objectBoundingBox' x='0' y='0' height='1' width='1'>
	  <feFlood flood-color='white' flood-opacity='1' result='bgnd'/>
	  <feComposite in='SourceGraphic' in2='bgnd' operator='atop'/>
	</filter>
	<filter id='greybox' filterUnits='objectBoundingBox' x='0' y='0' height='1' width='1'>
	  <feFlood flood-color='lightgrey' flood-opacity='1' result='grey'/>
	  <feComposite in='SourceGraphic' in2='grey' operator='atop'/>
	</filter>
</defs>
<g fill="none" color="white" stroke="currentColor" stroke-width="1.00" stroke-linecap="butt" stroke-linejoin="miter">
</g>
<g fill="none" color="black" stroke="currentColor" stroke-width="1.00" stroke-linecap="butt" stroke-linejoin="miter">
</g>
<g fill="none" color="black" stroke="black" stroke-width="0.50" stroke-linecap="butt" stroke-linejoin="miter">
</g>
<g fill="none" color="black" stroke="currentColor" stroke-width="0.50" stroke-linecap="butt" stroke-linejoin="miter">
	<path stroke='rgb(221, 221, 221)' class="gridline"  d='M72.53,404.40 L456.75,404.40  '/></g>
<g fill="none" color="black" stroke="rgb(221, 221, 221)" stroke-width="1.00" stroke-linecap="butt" stroke-linejoin="miter">
</g>
<g fill="none" color="black" stroke="currentColor" stroke-width="1.00" stroke-linecap="butt" stroke-linejoin="miter">
	<path stroke='black'  d='M72.53,404.40 L81.53,404.40 M456.75,404.40 L447.75,404.40  '/>	<g transform="translate(64.14,408.30)" stroke="none" fill="black" font-family="Arial" font-size="12.00"  text-anchor="end">
		<text><tspan font-family="Arial" > 40</tspan></text>
	</g>
</g>
<g fill="none" color="black" stroke="currentColor" stroke-width="1.00" stroke-linecap="butt" stroke-linejoin="miter">
</g>
<g fill="none" color="black" stroke="black" stroke-width="0.50" stroke-linecap="butt" stroke-linejoin="miter">
</g>
<g fill="none" color="black" stroke="currentColor" stroke-width="0.50" stroke-linecap="butt" stroke-linejoin="miter">
	<path stroke='rgb(221, 221, 221)' class="gridline"  d='M72.53,392.72 L456.75,392.72  '/></g>
<g fill="none" color="black" stroke="rgb(221, 221, 221)" stroke-width="1.00" stroke-linecap="butt" stroke-linejoin="miter">
</g>
<g fill="none" color="black" stroke="currentColor" stroke-width="1.00" stroke-linecap="butt" stroke-linejoin="miter">
	<path stroke='black'  d='M72.53,392.72 L77.03,392.72 M456.75,392.72 L452.25,392.72  '/></g>
<g fill="none" color="black" stroke="black" stroke-width="0.50" stroke-linecap="butt" stroke-linejoin="miter">
</g>
<g fill="none" color="black" stroke="currentColor" stroke-width="0.50" stroke-linecap="butt" stroke-linejoin="miter">
	<path stroke='rgb(221, 221, 221)' class="gridline"  d='M72.53,381.04 L456.75,381.04  '/></g>
<g fill="none" color="black" stroke="rgb(221, 221, 221)" stroke-width="1.00" stroke-linecap="butt" stroke-linejoin="miter">
</g>
<g fill="none" color="black" stroke="currentColor" stroke-width="1.00" stroke-linecap="butt" stroke-linejoin="miter">
	<path stroke='black'  d='M72.53,381.04 L77.03,381.04 M456.75,381.04 L452.25,381.04  '/></g>
<g fill="none" color="black" stroke="black" stroke-width="0.50" stroke-linecap="butt" stroke-linejoin="miter">
</g>
<g fill="none" color="black" stroke="currentColor" stroke-width="0.50" stroke-linecap="butt" stroke-linejoin="miter">
	<path stroke='rgb(221, 221, 221)' class="gridline"  d='M72.53,369.36 L456.75,369.36  '/></g>
<g fill="none" color="black" stroke="rgb(221, 221, 221)" stroke-width="1.00" stroke-linecap="butt" stroke-linejoin="miter">
</g>
<g fill="none" color="black" stroke="currentColor" stroke-width="1.00" stroke-linecap="butt" stroke-linejoin="miter">
	<path stroke='black'  d='M72.53,369.36 L77.03,369.36 M456.75,369.36 L452.25,369.36  '/></g>
<g fill="none" color="black" stroke="black" stroke-width="0.50" stroke-linecap="butt" stroke-linejoin="miter">
</g>
<g fill="none" color="black" stroke="currentColor" stroke-width="0.50" stroke-linecap="butt" stroke-linejoin="miter">
	<path stroke='rgb(221, 221, 221)' class="gridline"  d='M72.53,357.68 L456.75,357.68  '/></g>
<g fill="none" color="black" stroke="rgb(221, 221, 221)" stroke-width="1.00" stroke-linecap="butt" stroke-linejoin="miter">
</g>
<g fill="none" color="black" stroke="currentColor" stroke-width="1.00" stroke-linecap="butt" stroke-linejoin="miter">
	<path stroke='black'  d='M72.53,357.68 L77.03,357.68 M456.75,357.68 L452.25,357.68  '/></g>
<g fill="none" color="black" stroke="black" stroke-width="0.50" stroke-linecap="butt" stroke-linejoin="miter">
</g>
<g fill="none" color="black" stroke="currentColor" stroke-width="0.50" stroke-linecap="butt" stroke-linejoin="miter">
	<path stroke='rgb(221, 221, 221)' class="gridline"  d='M72.53,346.00 L456.75,346.00  '/></g>
<g fill="none" color="black" stroke="rgb(221, 221, 221)" stroke-width="1.00" stroke-linecap="butt" stroke-linejoin="miter">
</g>
<g fill="none" color="black" stroke="currentColor" stroke-width="1.00" stroke-linecap="butt" stroke-linejoin="miter">
	<path stroke='black'  d='M72.53,346.00 L81.53,346.00 M456.75,346.00 L447.75,346.00  '/>	<g transform="translate(64.14,349.90)" stroke="none" fill="black" font-family="Arial" font-size="12.00"  text-anchor="end">
		<text><tspan font-family="Arial" > 50</tspan></text>
	</g>
</g>
<g fill="none" color="black" stroke="currentColor" stroke-width="1.00" stroke-linecap="butt" stroke-linejoin="miter">
</g>
<g fill="none" color="black" stroke="black" stroke-width="0.50" stroke-linecap="butt" stroke-linejoin="miter">
</g>
<g fill="none" color="black" stroke="currentColor" stroke-width="0.50" stroke-linecap="butt" stroke-linejoin="miter">
	<path stroke='rgb(221, 221, 221)' class="gridline"  d='M72.53,334.32 L456.75,334.32  '/></g>
<g fill="none" color="black" stroke="rgb(221, 221, 221)" stroke-width="1.00" stroke-linecap="butt" stroke-linejoin="miter">
</g>
<g fill="none" color="black" stroke="currentColor" stroke-width="1.00" stroke-linecap="butt" stroke-linejoin="miter">
	<path stroke='black'  d='M72.53,334.32 L77.03,334.32 M456.75,334.32 L452.25,334.32  '/></g>
<g fill="none" color="black" stroke="black" stroke-width="0.50" stroke-linecap="butt" stroke-linejoin="miter">
</g>
<g fill="none" color="black" stroke="currentColor" stroke-width="0.50" stroke-linecap="butt" stroke-linejoin="miter">
	<path stroke='rgb(221, 221, 221)' class="gridline"  d='M72.53,322.64 L456.75,322.64  '/></g>
<g fill="none" color="black" stroke="rgb(221, 221, 221)" stroke-width="1.00" stroke-linecap="butt" stroke-linejoin="miter">
</g>
<g fill="none" color="black" stroke="currentColor" stroke-width="1.00" stroke-linecap="butt" stroke-linejoin="miter">
	<path stroke='black'  d='M72.53,322.64 L77.03,322.64 M456.75,322.64 L452.25,322.64  '/></g>
<g fill="none" color="black" stroke="black" stroke-width="0.50" stroke-linecap="butt" stroke-linejoin="miter">
</g>
<g fill="none" color="black" stroke="currentColor" stroke-width="0.50" stroke-linecap="butt" stroke-linejoin="miter">
	<path stroke='rgb(221, 221, 221)' class="gridline"  d='M72.53,310.96 L456.75,310.96  '/></g>
<g fill="none" color="black" stroke="rgb(221, 221, 221)" stroke-width="1.00" stroke-linecap="butt" stroke-linejoin="miter">
</g>
<g fill="none" color="black" stroke="currentColor" stroke-width="1.00" stroke-linecap="butt" stroke-linejoin="miter">
	<path stroke='black'  d='M72.53,310.96 L77.03,310.96 M456.75,310.96 L452.25,310.96  '/></g>
<g fill="none" color="black" stroke="black" stroke-width="0.50" stroke-linecap="butt" stroke-linejoin="miter">
</g>
<g fill="none" color="black" stroke="currentColor" stroke-width="0.50" stroke-linecap="butt" stroke-linejoin="miter">
	<path stroke='rgb(221, 221, 221)' class="gridline"  d='M72.53,299.28 L456.75,299.28  '/></g>
<g fill="none" color="black" stroke="rgb(221, 221, 221)" stroke-width="1.00" stroke-linecap="butt" stroke-linejoin="miter">
</g>
<g fill="none" color="black" stroke="currentColor" stroke-width="1.00" stroke-linecap="butt" stroke-linejoin="miter">
	<path stroke='black'  d='M72.53,299.28 L77.03,299.28 M456.75,299.28 L452.25,299.28  '/></g>
<g fill="none" color="black" stroke="black" stroke-width="0.50" stroke-linecap="butt" stroke-linejoin="miter">
</g>
<g fill="none" color="black" stroke="currentColor" stroke-width="0.50" stroke-linecap="butt" stroke-linejoin="miter">
	<path stroke='rgb(221, 221, 221)' class="gridline"  d='M72.53,287.60 L456.75,287.60  '/></g>
<g fill="none" color="black" stroke="rgb(221, 221, 221)" stroke-width="1.00" stroke-linecap="butt" stroke-linejoin="miter">
</g>
<g fill="none" color="black" stroke="currentColor" stroke-width="1.00" stroke-linecap="butt" stroke-linejoin="miter">
	<path stroke='black'  d='M72.53,287.60 L81.53,287.60 M456.75,287.60 L447.75,287.60  '/>	<g transform="translate(64.14,291.50)" stroke="none" fill="black" font-family="Arial" font-size="12.00"  text-anchor="end">
		<text><tspan font-family="Arial" > 60</tspan></text>
	</g>
</g>
<g fill="none" color="black" stroke="currentColor" stroke-width="1.00" stroke-linecap="butt" stroke-linejoin="miter">
</g>
<g fill="none" color="black" stroke="black" stroke-width="0.50" stroke-linecap="butt" stroke-linejoin="miter">
</g>
<g fill="none" color="black" stroke="currentColor" stroke-width="0.50" stroke-linecap="butt" stroke-linejoin="miter">
	<path stroke='rgb(221, 221, 221)' class="gridline"  d='M72.53,275.92 L456.75,275.92  '/></g>
<g fill="none" color="black" stroke="rgb(221, 221, 221)" stroke-width="1.00" stroke-linecap="butt" stroke-linejoin="miter">
</g>
<g fill="none" color="black" stroke="currentColor" stroke-width="1.00" stroke-linecap="butt" stroke-linejoin="miter">
	<path stroke='black'  d='M72.53,275.92 L77.03,275.92 M456.75,275.92 L452.25,275.92  '/></g>
<g fill="none" color="black" stroke="black" stroke-width="0.50" stroke-linecap="butt" stroke-linejoin="miter">
</g>
<g fill="none" color="black" stroke="currentColor" stroke-width="0.50" stroke-linecap="butt" stroke-linejoin="miter">
	<path stroke='rgb(221, 221, 221)' class="gridline"  d='M72.53,264.24 L456.75,264.24  '/></g>
<g fill="none" color="black" stroke="rgb(221, 221, 221)" stroke-width="1.00" stroke-linecap="butt" stroke-linejoin="miter">
</g>
<g fill="none" color="black" stroke="currentColor" stroke-width="1.00" stroke-linecap="butt" stroke-linejoin="miter">
	<path stroke='black'  d='M72.53,264.24 L77.03,264.24 M456.75,264.24 L452.25,264.24  '/></g>
<g fill="none" color="black" stroke="black" stroke-width="0.50" stroke-linecap="butt" stroke-linejoin="miter">
</g>
<g fill="none" color="black" stroke="currentColor" stroke-width="0.50" stroke-linecap="butt" stroke-linejoin="miter">
	<path stroke='rgb(221, 221, 221)' class="gridline"  d='M72.53,252.56 L456.75,252.56  '/></g>
<g fill="none" color="black" stroke="rgb(221, 221, 221)" stroke-width="1.00" stroke-linecap="butt" stroke-linejoin="miter">
</g>
<g fill="none" color="black" stroke="currentColor" stroke-width="1.00" stroke-linecap="butt" stroke-linejoin="miter">
	<path stroke='black'  d='M72.53,252.56 L77.03,252.56 M456.75,252.56 L452.25,252.56  '/></g>
<g fill="none" color="black" stroke="black" stroke-width="0.50" stroke-linecap="butt" stroke-linejoin="miter">
</g>
<g fill="none" color="black" stroke="currentColor" stroke-width="0.50" stroke-linecap="butt" stroke-linejoin="miter">
	<path stroke='rgb(221, 221, 221)' class="gridline"  d='M72.53,240.88 L456.75,240.88  '/></g>
<g fill="none" color="black" stroke="rgb(221, 221, 221)" stroke-width="1.00" stroke-linecap="butt" stroke-linejoin="miter">
</g>
<g fill="none" color="black" stroke="currentColor" stroke-width="1.00" stroke-linecap="butt" stroke-linejoin="miter">
	<path stroke='black'  d='M72.53,240.88 L77.03,240.88 M456.75,240.88 L452.25,240.88  '/></g>
<g fill="none" color="black" stroke="black" stroke-width="0.50" stroke-linecap="butt" stroke-linejoin="miter">
</g>
<g fill="none" color="black" stroke="currentColor" stroke-width="0.50" stroke-linecap="butt" stroke-linejoin="miter">
	<path stroke='rgb(221, 221, 221)' class="gridline"  d='M72.53,229.20 L456.75,229.20  '/></g>
<g fill="none" color="black" stroke="rgb(221, 221, 221)" stroke-width="1.00" stroke-linecap="butt" stroke-linejoin="miter">
</g>
<g fill="none" color="black" stroke="currentColor" stroke-width="1.00" stroke-linecap="butt" stroke-linejoin="miter">
	<path stroke='black'  d='M72.53,229.20 L81.53,229.20 M456.75,229.20 L447.75,229.20  '/>	<g transform="translate(64.14,233.10)" stroke="none" fill="black" font-family="Arial" font-size="12.00"  text-anchor="end">
		<text><tspan font-family="Arial" > 70</tspan></text>
	</g>
</g>
<g fill="none" color="black" stroke="currentColor" stroke-width="1.00" stroke-linecap="butt" stroke-linejoin="miter">
</g>
<g fill="none" color="black" stroke="black" stroke-width="0.50" stroke-linecap="butt" stroke-linejoin="miter">
</g>
<g fill="none" color="black" stroke="currentColor" stroke-width="0.50" stroke-linecap="butt" stroke-linejoin="miter">
	<path stroke='rgb(221, 221, 221)' class="gridline"  d='M72.53,217.53 L456.75,217.53  '/></g>
<g fill="none" color="black" stroke="rgb(221, 221, 221)" stroke-width="1.00" stroke-linecap="butt" stroke-linejoin="miter">
</g>
<g fill="none" color="black" stroke="currentColor" stroke-width="1.00" stroke-linecap="butt" stroke-linejoin="miter">
	<path stroke='black'  d='M72.53,217.53 L77.03,217.53 M456.75,217.53 L452.25,217.53  '/></g>
<g fill="none" color="black" stroke="black" stroke-width="0.50" stroke-linecap="butt" stroke-linejoin="miter">
</g>
<g fill="none" color="black" stroke="currentColor" stroke-width="0.50" stroke-linecap="butt" stroke-linejoin="miter">
	<path stroke='rgb(221, 221, 221)' class="gridline"  d='M72.53,205.85 L456.75,205.85  '/></g>
<g fill="none" color="black" stroke="rgb(221, 221, 221)" stroke-width="1.00" stroke-linecap="butt" stroke-linejoin="miter">
</g>
<g fill="none" color="black" stroke="currentColor" stroke-width="1.00" stroke-linecap="butt" stroke-linejoin="miter">
	<path stroke='black'  d='M72.53,205.85 L77.03,205.85 M456.75,205.85 L452.25,205.85  '/></g>
<g fill="none" color="black" stroke="black" stroke-width="0.50" stroke-linecap="butt" stroke-linejoin="miter">
</g>
<g fill="none" color="black" stroke="currentColor" stroke-width="0.50" stroke-linecap="butt" stroke-linejoin="miter">
	<path stroke='rgb(221, 221, 221)' class="gridline"  d='M72.53,194.17 L456.75,194.17  '/></g>
<g fill="none" color="black" stroke="rgb(221, 221, 221)" stroke-width="1.00" stroke-linecap="butt" stroke-linejoin="miter">
</g>
<g fill="none" color="black" stroke="currentColor" stroke-width="1.00" stroke-linecap="butt" stroke-linejoin="miter">
	<path stroke='black'  d='M72.53,194.17 L77.03,194.17 M456.75,194.17 L452.25,194.17  '/></g>
<g fill="none" color="black" stroke="black" stroke-width="0.50" stroke-linecap="butt" stroke-linejoin="miter">
</g>
<g fill="none" color="black" stroke="currentColor" stroke-width="0.50" stroke-linecap="butt" stroke-linejoin="miter">
	<path stroke='rgb(221, 221, 221)' class="gridline"  d='M72.53,182.49 L456.75,182.49  '/></g>
<g fill="none" color="black" stroke="rgb(221, 221, 221)" stroke-width="1.00" stroke-linecap="butt" stroke-linejoin="miter">
</g>
<g fill="none" color="black" stroke="currentColor" stroke-width="1.00" stroke-linecap="butt" stroke-linejoin="miter">
	<path stroke='black'  d='M72.53,182.49 L77.03,182.49 M456.75,182.49 L452.25,182.49  '/></g>
<g fill="none" color="black" stroke="black" stroke-width="0.50" stroke-linecap="butt" stroke-linejoin="miter">
</g>
<g fill="none" color="black" stroke="currentColor" stroke-width="0.50" stroke-linecap="butt" stroke-linejoin="miter">
	<path stroke='rgb(221, 221, 221)' class="gridline"  d='M72.53,170.81 L456.75,170.81  '/></g>
<g fill="none" color="black" stroke="rgb(221, 221, 221)" stroke-width="1.00" stroke-linecap="butt" stroke-linejoin="miter">
</g>
<g fill="none" color="black" stroke="currentColor" stroke-width="1.00" stroke-linecap="butt" stroke-linejoin="miter">
	<path stroke='black'  d='M72.53,170.81 L81.53,170.81 M456.75,170.81 L447.75,170.81  '/>	<g transform="translate(64.14,174.71)" stroke="none" fill="black" font-family="Arial" font-size="12.00"  text-anchor="end">
		<text><tspan font-family="Arial" > 80</tspan></text>
	</g>
</g>
<g fill="none" color="black" stroke="currentColor" stroke-width="1.00" stroke-linecap="butt" stroke-linejoin="miter">
</g>
<g fill="none" color="black" stroke="black" stroke-width="0.50" stroke-linecap="butt" stroke-linejoin="miter">
</g>
<g fill="none" color="black" stroke="currentColor" stroke-width="0.50" stroke-linecap="butt" stroke-linejoin="miter">
	<path stroke='rgb(221, 221, 221)' class="gridline"  d='M72.53,159.13 L456.75,159.13  '/></g>
<g fill="none" color="black" stroke="rgb(221, 221, 221)" stroke-width="1.00" stroke-linecap="butt" stroke-linejoin="miter">
</g>
<g fill="none" color="black" stroke="currentColor" stroke-width="1.00" stroke-linecap="butt" stroke-linejoin="miter">
	<path stroke='black'  d='M72.53,159.13 L77.03,159.13 M456.75,159.13 L452.25,159.13  '/></g>
<g fill="none" color="black" stroke="black" stroke-width="0.50" stroke-linecap="butt" stroke-linejoin="miter">
</g>
<g fill="none" color="black" stroke="currentColor" stroke-width="0.50" stroke-linecap="butt" stroke-linejoin="miter">
	<path stroke='rgb(221, 221, 221)' class="gridline"  d='M72.53,147.45 L456.75,147.45  '/></g>
<g fill="none" color="black" stroke="rgb(221, 221, 221)" stroke-width="1.00" stroke-linecap="butt" stroke-linejoin="miter">
</g>
<g fill="none" color="black" stroke="currentColor" stroke-width="1.00" stroke-linecap="butt" stroke-linejoin="miter">
	<path stroke='black'  d='M72.53,147.45 L77.03,147.45 M456.75,147.45 L452.25,147.45  '/></g>
<g fill="none" color="black" stroke="black" stroke-width="0.50" stroke-linecap="butt" stroke-linejoin="miter">
</g>
<g fill="none" color="black" stroke="currentColor" stroke-width="0.50" stroke-linecap="butt" stroke-linejoin="miter">
	<path stroke='rgb(221, 221, 221)' class="gridline"  d='M72.53,135.77 L456.75,135.77  '/></g>
<g fill="none" color="black" stroke="rgb(221, 221, 221)" stroke-width="1.00" stroke-linecap="butt" stroke-linejoin="miter">
</g>
<g fill="none" color="black" stroke="currentColor" stroke-width="1.00" stroke-linecap="butt" stroke-linejoin="miter">
	<path stroke='black'  d='M72.53,135.77 L77.03,135.77 M456.75,135.77 L452.25,135.77  '/></g>
<g fill="none" color="black" stroke="black" stroke-width="0.50" stroke-linecap="butt" stroke-linejoin="miter">
</g>
<g fill="none" color="black" stroke="currentColor" stroke-width="0.50" stroke-linecap="butt" stroke-linejoin="miter">
	<path stroke='rgb(221, 221, 221)' class="gridline"  d='M72.53,124.09 L456.75,124.09  '/></g>
<g fill="none" color="black" stroke="rgb(221, 221, 221)" stroke-width="1.00" stroke-linecap="butt" stroke-linejoin="miter">
</g>
<g fill="none" color="black" stroke="currentColor" stroke-width="1.00" stroke-linecap="butt" stroke-linejoin="miter">
	<path stroke='black'  d='M72.53,124.09 L77.03,124.09 M456.75,124.09 L452.25,124.09  '/></g>
<g fill="none" color="black" stroke="black" stroke-width="0.50" stroke-linecap="butt" stroke-linejoin="miter">
</g>
<g fill="none" color="black" stroke="currentColor" stroke-width="0.50" stroke-linecap="butt" stroke-linejoin="miter">
	<path stroke='rgb(221, 221, 221)' class="gridline"  d='M72.53,112.41 L456.75,112.41  '/></g>
<g fill="none" color="black" stroke="rgb(221, 221, 221)" stroke-width="1.00" stroke-linecap="butt" stroke-linejoin="miter">
</g>
<g fill="none" color="black" stroke="currentColor" stroke-width="1.00" stroke-linecap="butt" stroke-linejoin="miter">
	<path stroke='black'  d='M72.53,112.41 L81.53,112.41 M456.75,112.41 L447.75,112.41  '/>	<g transform="translate(64.14,116.31)" stroke="none" fill="black" font-family="Arial" font-size="12.00"  text-anchor="end">
		<text><tspan font-family="Arial" > 90</tspan></text>
	</g>
</g>
<g fill="none" color="black" stroke="currentColor" stroke-width="1.00" stroke-linecap="butt" stroke-linejoin="miter">
</g>
<g fill="none" color="black" stroke="black" stroke-width="0.50" stroke-linecap="butt" stroke-linejoin="miter">
</g>
<g fill="none" color="black" stroke="currentColor" stroke-width="0.50" stroke-linecap="butt" stroke-linejoin="miter">
	<path stroke='rgb(221, 221, 221)' class="gridline"  d='M72.53,100.73 L456.75,100.73  '/></g>
<g fill="none" color="black" stroke="rgb(221, 221, 221)" stroke-width="1.00" stroke-linecap="butt" stroke-linejoin="miter">
</g>
<g fill="none" color="black" stroke="currentColor" stroke-width="1.00" stroke-linecap="butt" stroke-linejoin="miter">
	<path stroke='black'  d='M72.53,100.73 L77.03,100.73 M456.75,100.73 L452.25,100.73  '/></g>
<g fill="none" color="black" stroke="black" stroke-width="0.50" stroke-linecap="butt" stroke-linejoin="miter">
</g>
<g fill="none" color="black" stroke="currentColor" stroke-width="0.50" stroke-linecap="butt" stroke-linejoin="miter">
	<path stroke='rgb(221, 221, 221)' class="gridline"  d='M72.53,89.05 L456.75,89.05  '/></g>
<g fill="none" color="black" stroke="rgb(221, 221, 221)" stroke-width="1.00" stroke-linecap="butt" stroke-linejoin="miter">
</g>
<g fill="none" color="black" stroke="currentColor" stroke-width="1.00" stroke-linecap="butt" stroke-linejoin="miter">
	<path stroke='black'  d='M72.53,89.05 L77.03,89.05 M456.75,89.05 L452.25,89.05  '/></g>
<g fill="none" color="black" stroke="black" stroke-width="0.50" stroke-linecap="butt" stroke-linejoin="miter">
</g>
<g fill="none" color="black" stroke="currentColor" stroke-width="0.50" stroke-linecap="butt" stroke-linejoin="miter">
	<path stroke='rgb(221, 221, 221)' class="gridline"  d='M72.53,77.37 L456.75,77.37  '/></g>
<g fill="none" color="black" stroke="rgb(221, 221, 221)" stroke-width="1.00" stroke-linecap="butt" stroke-linejoin="miter">
</g>
<g fill="none" color="black" stroke="currentColor" stroke-width="1.00" stroke-linecap="butt" stroke-linejoin="miter">
	<path stroke='black'  d='M72.53,77.37 L77.03,77.37 M456.75,77.37 L452.25,77.37  '/></g>
<g fill="none" color="black" stroke="black" stroke-width="0.50" stroke-linecap="butt" stroke-linejoin="miter">
</g>
<g fill="none" color="black" stroke="currentColor" stroke-width="0.50" stroke-linecap="butt" stroke-linejoin="miter">
	<path stroke='rgb(221, 221, 221)' class="gridline"  d='M72.53,65.69 L456.75,65.69  '/></g>
<g fill="none" color="black" stroke="rgb(221, 221, 221)" stroke-width="1.00" stroke-linecap="butt" stroke-linejoin="miter">
</g>
<g fill="none" color="black" stroke="currentColor" stroke-width="1.00" stroke-linecap="butt" stroke-linejoin="miter">
	<path stroke='black'  d='M72.53,65.69 L77.03,65.69 M456.75,65.69 L452.25,65.69  '/></g>
<g fill="none" color="black" stroke="black" stroke-width="0.50" stroke-linecap="butt" stroke-linejoin="miter">
</g>
<g fill="none" color="black" stroke="currentColor" stroke-width="0.50" stroke-linecap="butt" stroke-linejoin="miter">
	<path stroke='rgb(221, 221, 221)' class="gridline"  d='M72.53,54.01 L456.75,54.01  '/></g>
<g fill="none" color="black" stroke="rgb(221, 221, 221)" stroke-width="1.00" stroke-linecap="butt" stroke-linejoin="miter">
</g>
<g fill="none" color="black" stroke="currentColor" stroke-width="1.00" stroke-linecap="butt" stroke-linejoin="miter">
	<path stroke='black'  d='M72.53,54.01 L81.53,54.01 M456.75,54.01 L447.75,54.01  '/>	<g transform="translate(64.14,57.91)" stroke="none" fill="black" font-family="Arial" font-size="12.00"  text-anchor="end">
		<text><tspan font-family="Arial" > 100</tspan></text>
	</g>
</g>
<g fill="none" color="black" stroke="currentColor" stroke-width="1.00" stroke-linecap="butt" stroke-linejoin="miter">
</g>
<g fill="none" color="black" stroke="black" stroke-width="0.50" stroke-linecap="butt" stroke-linejoin="miter">
</g>
<g fill="none" color="black" stroke="currentColor" stroke-width="0.50" stroke-linecap="butt" stroke-linejoin="miter">
	<path stroke='rgb(221, 221, 221)' class="gridline"  d='M72.53,404.40 L72.53,54.01  '/></g>
<g fill="none" color="black" stroke="rgb(221, 221, 221)" stroke-width="1.00" stroke-linecap="butt" stroke-linejoin="miter">
</g>
<g fill="none" color="black" stroke="currentColor" stroke-width="1.00" stroke-linecap="butt" stroke-linejoin="miter">
	<path stroke='black'  d='M72.53,404.40 L72.53,395.40 M72.53,54.01 L72.53,63.01  '/>	<g transform="translate(75.28,433.55) rotate(-45)" stroke="none" fill="black" font-family="Arial" font-size="12.00"  text-anchor="middle">
		<text><tspan font-family="Arial" >placebo</tspan></text>
	</g>
</g>
<g fill="none" color="black" stroke="currentColor" stroke-width="1.00" stroke-linecap="butt" stroke-linejoin="miter">
</g>
<g fill="none" color="black" stroke="black" stroke-width="0.50" stroke-linecap="butt" stroke-linejoin="miter">
</g>
<g fill="none" color="black" stroke="currentColor" stroke-width="0.50" stroke-linecap="butt" stroke-linejoin="miter">
	<path stroke='rgb(221, 221, 221)' class="gridline"  d='M115.22,404.40 L115.22,54.01  '/></g>
<g fill="none" color="black" stroke="rgb(221, 221, 221)" stroke-width="1.00" stroke-linecap="butt" stroke-linejoin="miter">
</g>
<g fill="none" color="black" stroke="currentColor" stroke-width="1.00" stroke-linecap="butt" stroke-linejoin="miter">
	<path stroke='black'  d='M115.22,404.40 L115.22,395.40 M115.22,54.01 L115.22,63.01  '/>	<g transform="translate(117.97,433.55) rotate(-45)" stroke="none" fill="black" font-family="Arial" font-size="12.00"  text-anchor="middle">
		<text><tspan font-family="Arial" >veryslow</tspan></text>
	</g>
</g>
<g fill="none" color="black" stroke="currentColor" stroke-width="1.00" stroke-linecap="butt" stroke-linejoin="miter">
</g>
<g fill="none" color="black" stroke="black" stroke-width="0.50" stroke-linecap="butt" stroke-linejoin="miter">
</g>
<g fill="none" color="black" stroke="currentColor" stroke-width="0.50" stroke-linecap="butt" stroke-linejoin="miter">
	<path stroke='rgb(221, 221, 221)' class="gridline"  d='M157.91,404.40 L157.91,54.01  '/></g>
<g fill="none" color="black" stroke="rgb(221, 221, 221)" stroke-width="1.00" stroke-linecap="butt" stroke-linejoin="miter">
</g>
<g fill="none" color="black" stroke="currentColor" stroke-width="1.00" stroke-linecap="butt" stroke-linejoin="miter">
	<path stroke='black'  d='M157.91,404.40 L157.91,395.40 M157.91,54.01 L157.91,63.01  '/>	<g transform="translate(160.66,433.55) rotate(-45)" stroke="none" fill="black" font-family="Arial" font-size="12.00"  text-anchor="middle">
		<text><tspan font-family="Arial" >slower</tspan></text>
	</g>
</g>
<g fill="none" color="black" stroke="currentColor" stroke-width="1.00" stroke-linecap="butt" stroke-linejoin="miter">
</g>
<g fill="none" color="black" stroke="black" stroke-width="0.50" stroke-linecap="butt" stroke-linejoin="miter">
</g>
<g fill="none" color="black" stroke="currentColor" stroke-width="0.50" stroke-linecap="butt" stroke-linejoin="miter">
	<path stroke='rgb(221, 221, 221)' class="gridline"  d='M200.60,404.40 L200.60,54.01  '/></g>
<g fill="none" color="black" stroke="rgb(221, 221, 221)" stroke-width="1.00" stroke-linecap="butt" stroke-linejoin="miter">
</g>
<g fill="none" color="black" stroke="currentColor" stroke-width="1.00" stroke-linecap="butt" stroke-linejoin="miter">
	<path stroke='black'  d='M200.60,404.40 L200.60,395.40 M200.60,54.01 L200.60,63.01  '/>	<g transform="translate(203.35,433.55) rotate(-45)" stroke="none" fill="black" font-family="Arial" font-size="12.00"  text-anchor="middle">
		<text><tspan font-family="Arial" >slow</tspan></text>
	</g>
</g>
<g fill="none" color="black" stroke="currentColor" stroke-width="1.00" stroke-linecap="butt" stroke-linejoin="miter">
</g>
<g fill="none" color="black" stroke="black" stroke-width="0.50" stroke-linecap="butt" stroke-linejoin="miter">
</g>
<g fill="none" color="black" stroke="currentColor" stroke-width="0.50" stroke-linecap="butt" stroke-linejoin="miter">
	<path stroke='rgb(221, 221, 221)' class="gridline"  d='M243.29,404.40 L243.29,54.01  '/></g>
<g fill="none" color="black" stroke="rgb(221, 221, 221)" stroke-width="1.00" stroke-linecap="butt" stroke-linejoin="miter">
</g>
<g fill="none" color="black" stroke="currentColor" stroke-width="1.00" stroke-linecap="butt" stroke-linejoin="miter">
	<path stroke='black'  d='M243.29,404.40 L243.29,395.40 M243.29,54.01 L243.29,63.01  '/>	<g transform="translate(246.04,433.55) rotate(-45)" stroke="none" fill="black" font-family="Arial" font-size="12.00"  text-anchor="middle">
		<text><tspan font-family="Arial" >medium</tspan></text>
	</g>
</g>
<g fill="none" color="black" stroke="currentColor" stroke-width="1.00" stroke-linecap="butt" stroke-linejoin="miter">
</g>
<g fill="none" color="black" stroke="black" stroke-width="0.50" stroke-linecap="butt" stroke-linejoin="miter">
</g>
<g fill="none" color="black" stroke="currentColor" stroke-width="0.50" stroke-linecap="butt" stroke-linejoin="miter">
	<path stroke='rgb(221, 221, 221)' class="gridline"  d='M285.99,404.40 L285.99,54.01  '/></g>
<g fill="none" color="black" stroke="rgb(221, 221, 221)" stroke-width="1.00" stroke-linecap="butt" stroke-linejoin="miter">
</g>
<g fill="none" color="black" stroke="currentColor" stroke-width="1.00" stroke-linecap="butt" stroke-linejoin="miter">
	<path stroke='black'  d='M285.99,404.40 L285.99,395.40 M285.99,54.01 L285.99,63.01  '/>	<g transform="translate(288.74,433.55) rotate(-45)" stroke="none" fill="black" font-family="Arial" font-size="12.00"  text-anchor="middle">
		<text><tspan font-family="Arial" >fast</tspan></text>
	</g>
</g>
<g fill="none" color="black" stroke="currentColor" stroke-width="1.00" stroke-linecap="butt" stroke-linejoin="miter">
</g>
<g fill="none" color="black" stroke="black" stroke-width="0.50" stroke-linecap="butt" stroke-linejoin="miter">
</g>
<g fill="none" color="black" stroke="currentColor" stroke-width="0.50" stroke-linecap="butt" stroke-linejoin="miter">
	<path stroke='rgb(221, 221, 221)' class="gridline"  d='M328.68,404.40 L328.68,54.01  '/></g>
<g fill="none" color="black" stroke="rgb(221, 221, 221)" stroke-width="1.00" stroke-linecap="butt" stroke-linejoin="miter">
</g>
<g fill="none" color="black" stroke="currentColor" stroke-width="1.00" stroke-linecap="butt" stroke-linejoin="miter">
	<path stroke='black'  d='M328.68,404.40 L328.68,395.40 M328.68,54.01 L328.68,63.01  '/>	<g transform="translate(331.43,433.55) rotate(-45)" stroke="none" fill="black" font-family="Arial" font-size="12.00"  text-anchor="middle">
		<text><tspan font-family="Arial" >faster</tspan></text>
	</g>
</g>
<g fill="none" color="black" stroke="currentColor" stroke-width="1.00" stroke-linecap="butt" stroke-linejoin="miter">
</g>
<g fill="none" color="black" stroke="black" stroke-width="0.50" stroke-linecap="butt" stroke-linejoin="miter">
</g>
<g fill="none" color="black" stroke="currentColor" stroke-width="0.50" stroke-linecap="butt" stroke-linejoin="miter">
	<path stroke='rgb(221, 221, 221)' class="gridline"  d='M371.37,404.40 L371.37,54.01  '/></g>
<g fill="none" color="black" stroke="rgb(221, 221, 221)" stroke-width="1.00" stroke-linecap="butt" stroke-linejoin="miter">
</g>
<g fill="none" color="black" stroke="currentColor" stroke-width="1.00" stroke-linecap="butt" stroke-linejoin="miter">
	<path stroke='black'  d='M371.37,404.40 L371.37,395.40 M371.37,54.01 L371.37,63.01  '/>	<g transform="translate(374.12,433.55) rotate(-45)" stroke="none" fill="black" font-family="Arial" font-size="12.00"  text-anchor="middle">
		<text><tspan font-family="Arial" >veryfast</tspan></text>
	</g>
</g>
<g fill="none" color="black" stroke="currentColor" stroke-width="1.00" stroke-linecap="butt" stroke-linejoin="miter">
</g>
<g fill="none" color="black" stroke="black" stroke-width="0.50" stroke-linecap="butt" stroke-linejoin="miter">
</g>
<g fill="none" color="black" stroke="currentColor" stroke-width="0.50" stroke-linecap="butt" stroke-linejoin="miter">
	<path stroke='rgb(221, 221, 221)' class="gridline"  d='M414.06,404.40 L414.06,54.01  '/></g>
<g fill="none" color="black" stroke="rgb(221, 221, 221)" stroke-width="1.00" stroke-linecap="butt" stroke-linejoin="miter">
</g>
<g fill="none" color="black" stroke="currentColor" stroke-width="1.00" stroke-linecap="butt" stroke-linejoin="miter">
	<path stroke='black'  d='M414.06,404.40 L414.06,395.40 M414.06,54.01 L414.06,63.01  '/>	<g transform="translate(416.81,433.55) rotate(-45)" stroke="none" fill="black" font-family="Arial" font-size="12.00"  text-anchor="middle">
		<text><tspan font-family="Arial" >superfast</tspan></text>
	</g>
</g>
<g fill="none" color="black" stroke="currentColor" stroke-width="1.00" stroke-linecap="butt" stroke-linejoin="miter">
</g>
<g fill="none" color="black" stroke="black" stroke-width="0.50" stroke-linecap="butt" stroke-linejoin="miter">
</g>
<g fill="none" color="black" stroke="currentColor" stroke-width="0.50" stroke-linecap="butt" stroke-linejoin="miter">
	<path stroke='rgb(221, 221, 221)' class="gridline"  d='M456.75,404.40 L456.75,54.01  '/></g>
<g fill="none" color="black" stroke="rgb(221, 221, 221)" stroke-width="1.00" stroke-linecap="butt" stroke-linejoin="miter">
</g>
<g fill="none" color="black" stroke="currentColor" stroke-width="1.00" stroke-linecap="butt" stroke-linejoin="miter">
	<path stroke='black'  d='M456.75,404.40 L456.75,395.40 M456.75,54.01 L456.75,63.01  '/>	<g transform="translate(459.50,433.55) rotate(-45)" stroke="none" fill="black" font-family="Arial" font-size="12.00"  text-anchor="middle">
		<text><tspan font-family="Arial" >ultrafast</tspan></text>
	</g>
</g>
<g fill="none" color="black" stroke="currentColor" stroke-width="1.00" stroke-linecap="butt" stroke-linejoin="miter">
</g>
<g fill="none" color="black" stroke="currentColor" stroke-width="1.00" stroke-linecap="butt" stroke-linejoin="miter">
	<path stroke='black'  d='M72.53,54.01 L72.53,404.40 L456.75,404.40 L456.75,54.01 L72.53,54.01 Z  '/></g>
<g fill="none" color="black" stroke="currentColor" stroke-width="1.00" stroke-linecap="butt" stroke-linejoin="miter">
	<g transform="translate(19.18,229.21) rotate(270)" stroke="none" fill="black" font-family="Arial" font-size="12.00"  text-anchor="middle">
		<text><tspan font-family="Arial" >VMAF</tspan></text>
	</g>
</g>
<g fill="none" color="black" stroke="currentColor" stroke-width="1.00" stroke-linecap="butt" stroke-linejoin="miter">
	<g transform="translate(264.64,471.30)" stroke="none" fill="black" font-family="Arial" font-size="12.00"  text-anchor="middle">
		<text><tspan font-family="Arial" >preset</tspan></text>
	</g>
</g>
<g fill="none" color="black" stroke="currentColor" stroke-width="1.00" stroke-linecap="butt" stroke-linejoin="miter">
</g>
	<g id="gnuplot_plot_1" ><title>-crf 17</title>
<g fill="none" color="black" stroke="currentColor" stroke-width="1.00" stroke-linecap="butt" stroke-linejoin="miter">
	<g transform="translate(532.26,66.91)" stroke="none" fill="black" font-family="Arial" font-size="12.00"  text-anchor="end">
		<text><tspan font-family="Arial" >-crf 17</tspan></text>
	</g>
</g>
<g fill="none" color="black" stroke="currentColor" stroke-width="1.00" stroke-linecap="butt" stroke-linejoin="miter">
	<path stroke='rgb(141,   0, 230)'  d='M540.65,63.01 L583.21,63.01 M72.53,54.82 L115.22,54.91 L157.91,54.75 L200.60,55.32 L243.29,55.71 L285.99,56.56
		L328.68,56.58 L371.37,61.20 L414.06,67.76 L456.75,54.05  '/>	<use xlink:href='#gpPt0' transform='translate(72.53,54.82) scale(4.50)' color='rgb(141,   0, 230)'/>
	<use xlink:href='#gpPt0' transform='translate(115.22,54.91) scale(4.50)' color='rgb(141,   0, 230)'/>
	<use xlink:href='#gpPt0' transform='translate(157.91,54.75) scale(4.50)' color='rgb(141,   0, 230)'/>
	<use xlink:href='#gpPt0' transform='translate(200.60,55.32) scale(4.50)' color='rgb(141,   0, 230)'/>
	<use xlink:href='#gpPt0' transform='translate(243.29,55.71) scale(4.50)' color='rgb(141,   0, 230)'/>
	<use xlink:href='#gpPt0' transform='translate(285.99,56.56) scale(4.50)' color='rgb(141,   0, 230)'/>
	<use xlink:href='#gpPt0' transform='translate(328.68,56.58) scale(4.50)' color='rgb(141,   0, 230)'/>
	<use xlink:href='#gpPt0' transform='translate(371.37,61.20) scale(4.50)' color='rgb(141,   0, 230)'/>
	<use xlink:href='#gpPt0' transform='translate(414.06,67.76) scale(4.50)' color='rgb(141,   0, 230)'/>
	<use xlink:href='#gpPt0' transform='translate(456.75,54.05) scale(4.50)' color='rgb(141,   0, 230)'/>
	<use xlink:href='#gpPt0' transform='translate(561.93,63.01) scale(4.50)' color='rgb(141,   0, 230)'/>
</g>
	</g>
	<g id="gnuplot_plot_2" ><title>-crf 20</title>
<g fill="none" color="black" stroke="currentColor" stroke-width="1.00" stroke-linecap="butt" stroke-linejoin="miter">
	<g transform="translate(532.26,84.91)" stroke="none" fill="black" font-family="Arial" font-size="12.00"  text-anchor="end">
		<text><tspan font-family="Arial" >-crf 20</tspan></text>
	</g>
</g>
<g fill="none" color="black" stroke="currentColor" stroke-width="1.00" stroke-linecap="butt" stroke-linejoin="miter">
	<path stroke='rgb(  0,  71, 230)'  d='M540.65,81.01 L583.21,81.01 M72.53,62.13 L115.22,62.56 L157.91,61.61 L200.60,63.59 L243.29,64.52 L285.99,67.09
		L328.68,67.96 L371.37,81.13 L414.06,94.80 L456.75,54.60  '/>	<use xlink:href='#gpPt1' transform='translate(72.53,62.13) scale(4.50)' color='rgb(  0,  71, 230)'/>
	<use xlink:href='#gpPt1' transform='translate(115.22,62.56) scale(4.50)' color='rgb(  0,  71, 230)'/>
	<use xlink:href='#gpPt1' transform='translate(157.91,61.61) scale(4.50)' color='rgb(  0,  71, 230)'/>
	<use xlink:href='#gpPt1' transform='translate(200.60,63.59) scale(4.50)' color='rgb(  0,  71, 230)'/>
	<use xlink:href='#gpPt1' transform='translate(243.29,64.52) scale(4.50)' color='rgb(  0,  71, 230)'/>
	<use xlink:href='#gpPt1' transform='translate(285.99,67.09) scale(4.50)' color='rgb(  0,  71, 230)'/>
	<use xlink:href='#gpPt1' transform='translate(328.68,67.96) scale(4.50)' color='rgb(  0,  71, 230)'/>
	<use xlink:href='#gpPt1' transform='translate(371.37,81.13) scale(4.50)' color='rgb(  0,  71, 230)'/>
	<use xlink:href='#gpPt1' transform='translate(414.06,94.80) scale(4.50)' color='rgb(  0,  71, 230)'/>
	<use xlink:href='#gpPt1' transform='translate(456.75,54.60) scale(4.50)' color='rgb(  0,  71, 230)'/>
	<use xlink:href='#gpPt1' transform='translate(561.93,81.01) scale(4.50)' color='rgb(  0,  71, 230)'/>
</g>
	</g>
	<g id="gnuplot_plot_3" ><title>-crf 23</title>
<g fill="none" color="black" stroke="currentColor" stroke-width="1.00" stroke-linecap="butt" stroke-linejoin="miter">
	<g transform="translate(532.26,102.91)" stroke="none" fill="black" font-family="Arial" font-size="12.00"  text-anchor="end">
		<text><tspan font-family="Arial" >-crf 23</tspan></text>
	</g>
</g>
<g fill="none" color="black" stroke="currentColor" stroke-width="1.00" stroke-linecap="butt" stroke-linejoin="miter">
	<path stroke='rgb(  0, 230, 177)'  d='M540.65,99.01 L583.21,99.01 M72.53,81.28 L115.22,82.22 L157.91,80.12 L200.60,82.88 L243.29,84.85 L285.99,89.94
		L328.68,92.87 L371.37,117.31 L414.06,138.85 L456.75,70.97  '/>	<use xlink:href='#gpPt2' transform='translate(72.53,81.28) scale(4.50)' color='rgb(  0, 230, 177)'/>
	<use xlink:href='#gpPt2' transform='translate(115.22,82.22) scale(4.50)' color='rgb(  0, 230, 177)'/>
	<use xlink:href='#gpPt2' transform='translate(157.91,80.12) scale(4.50)' color='rgb(  0, 230, 177)'/>
	<use xlink:href='#gpPt2' transform='translate(200.60,82.88) scale(4.50)' color='rgb(  0, 230, 177)'/>
	<use xlink:href='#gpPt2' transform='translate(243.29,84.85) scale(4.50)' color='rgb(  0, 230, 177)'/>
	<use xlink:href='#gpPt2' transform='translate(285.99,89.94) scale(4.50)' color='rgb(  0, 230, 177)'/>
	<use xlink:href='#gpPt2' transform='translate(328.68,92.87) scale(4.50)' color='rgb(  0, 230, 177)'/>
	<use xlink:href='#gpPt2' transform='translate(371.37,117.31) scale(4.50)' color='rgb(  0, 230, 177)'/>
	<use xlink:href='#gpPt2' transform='translate(414.06,138.85) scale(4.50)' color='rgb(  0, 230, 177)'/>
	<use xlink:href='#gpPt2' transform='translate(456.75,70.97) scale(4.50)' color='rgb(  0, 230, 177)'/>
	<use xlink:href='#gpPt2' transform='translate(561.93,99.01) scale(4.50)' color='rgb(  0, 230, 177)'/>
</g>
	</g>
	<g id="gnuplot_plot_4" ><title>-crf 26</title>
<g fill="none" color="black" stroke="currentColor" stroke-width="1.00" stroke-linecap="butt" stroke-linejoin="miter">
	<g transform="translate(532.26,120.91)" stroke="none" fill="black" font-family="Arial" font-size="12.00"  text-anchor="end">
		<text><tspan font-family="Arial" >-crf 26</tspan></text>
	</g>
</g>
<g fill="none" color="black" stroke="currentColor" stroke-width="1.00" stroke-linecap="butt" stroke-linejoin="miter">
	<path stroke='rgb( 35, 230,   0)'  d='M540.65,117.01 L583.21,117.01 M72.53,116.90 L115.22,118.60 L157.91,115.24 L200.60,118.39 L243.29,121.17 L285.99,127.92
		L328.68,133.15 L371.37,169.84 L414.06,198.10 L456.75,111.19  '/>	<use xlink:href='#gpPt3' transform='translate(72.53,116.90) scale(4.50)' color='rgb( 35, 230,   0)'/>
	<use xlink:href='#gpPt3' transform='translate(115.22,118.60) scale(4.50)' color='rgb( 35, 230,   0)'/>
	<use xlink:href='#gpPt3' transform='translate(157.91,115.24) scale(4.50)' color='rgb( 35, 230,   0)'/>
	<use xlink:href='#gpPt3' transform='translate(200.60,118.39) scale(4.50)' color='rgb( 35, 230,   0)'/>
	<use xlink:href='#gpPt3' transform='translate(243.29,121.17) scale(4.50)' color='rgb( 35, 230,   0)'/>
	<use xlink:href='#gpPt3' transform='translate(285.99,127.92) scale(4.50)' color='rgb( 35, 230,   0)'/>
	<use xlink:href='#gpPt3' transform='translate(328.68,133.15) scale(4.50)' color='rgb( 35, 230,   0)'/>
	<use xlink:href='#gpPt3' transform='translate(371.37,169.84) scale(4.50)' color='rgb( 35, 230,   0)'/>
	<use xlink:href='#gpPt3' transform='translate(414.06,198.10) scale(4.50)' color='rgb( 35, 230,   0)'/>
	<use xlink:href='#gpPt3' transform='translate(456.75,111.19) scale(4.50)' color='rgb( 35, 230,   0)'/>
	<use xlink:href='#gpPt3' transform='translate(561.93,117.01) scale(4.50)' color='rgb( 35, 230,   0)'/>
</g>
	</g>
	<g id="gnuplot_plot_5" ><title>-crf 29</title>
<g fill="none" color="black" stroke="currentColor" stroke-width="1.00" stroke-linecap="butt" stroke-linejoin="miter">
	<g transform="translate(532.26,138.91)" stroke="none" fill="black" font-family="Arial" font-size="12.00"  text-anchor="end">
		<text><tspan font-family="Arial" >-crf 29</tspan></text>
	</g>
</g>
<g fill="none" color="black" stroke="currentColor" stroke-width="1.00" stroke-linecap="butt" stroke-linejoin="miter">
	<path stroke='rgb(230, 212,   0)'  d='M540.65,135.01 L583.21,135.01 M72.53,167.89 L115.22,170.50 L157.91,166.28 L200.60,169.71 L243.29,172.60 L285.99,180.47
		L328.68,188.03 L371.37,238.68 L414.06,272.81 L456.75,172.24  '/>	<use xlink:href='#gpPt4' transform='translate(72.53,167.89) scale(4.50)' color='rgb(230, 212,   0)'/>
	<use xlink:href='#gpPt4' transform='translate(115.22,170.50) scale(4.50)' color='rgb(230, 212,   0)'/>
	<use xlink:href='#gpPt4' transform='translate(157.91,166.28) scale(4.50)' color='rgb(230, 212,   0)'/>
	<use xlink:href='#gpPt4' transform='translate(200.60,169.71) scale(4.50)' color='rgb(230, 212,   0)'/>
	<use xlink:href='#gpPt4' transform='translate(243.29,172.60) scale(4.50)' color='rgb(230, 212,   0)'/>
	<use xlink:href='#gpPt4' transform='translate(285.99,180.47) scale(4.50)' color='rgb(230, 212,   0)'/>
	<use xlink:href='#gpPt4' transform='translate(328.68,188.03) scale(4.50)' color='rgb(230, 212,   0)'/>
	<use xlink:href='#gpPt4' transform='translate(371.37,238.68) scale(4.50)' color='rgb(230, 212,   0)'/>
	<use xlink:href='#gpPt4' transform='translate(414.06,272.81) scale(4.50)' color='rgb(230, 212,   0)'/>
	<use xlink:href='#gpPt4' transform='translate(456.75,172.24) scale(4.50)' color='rgb(230, 212,   0)'/>
	<use xlink:href='#gpPt4' transform='translate(561.93,135.01) scale(4.50)' color='rgb(230, 212,   0)'/>
</g>
	</g>
	<g id="gnuplot_plot_6" ><title>-crf 32</title>
<g fill="none" color="black" stroke="currentColor" stroke-width="1.00" stroke-linecap="butt" stroke-linejoin="miter">
	<g transform="translate(532.26,156.91)" stroke="none" fill="black" font-family="Arial" font-size="12.00"  text-anchor="end">
		<text><tspan font-family="Arial" >-crf 32</tspan></text>
	</g>
</g>
<g fill="none" color="black" stroke="currentColor" stroke-width="1.00" stroke-linecap="butt" stroke-linejoin="miter">
	<path stroke='rgb(230,   0,   0)'  d='M540.65,153.01 L583.21,153.01 M72.53,232.69 L115.22,236.95 L157.91,231.31 L200.60,235.74 L243.29,237.91 L285.99,246.67
		L328.68,257.22 L371.37,321.89 L414.06,358.22 L456.75,247.23  '/>	<use xlink:href='#gpPt5' transform='translate(72.53,232.69) scale(4.50)' color='rgb(230,   0,   0)'/>
	<use xlink:href='#gpPt5' transform='translate(115.22,236.95) scale(4.50)' color='rgb(230,   0,   0)'/>
	<use xlink:href='#gpPt5' transform='translate(157.91,231.31) scale(4.50)' color='rgb(230,   0,   0)'/>
	<use xlink:href='#gpPt5' transform='translate(200.60,235.74) scale(4.50)' color='rgb(230,   0,   0)'/>
	<use xlink:href='#gpPt5' transform='translate(243.29,237.91) scale(4.50)' color='rgb(230,   0,   0)'/>
	<use xlink:href='#gpPt5' transform='translate(285.99,246.67) scale(4.50)' color='rgb(230,   0,   0)'/>
	<use xlink:href='#gpPt5' transform='translate(328.68,257.22) scale(4.50)' color='rgb(230,   0,   0)'/>
	<use xlink:href='#gpPt5' transform='translate(371.37,321.89) scale(4.50)' color='rgb(230,   0,   0)'/>
	<use xlink:href='#gpPt5' transform='translate(414.06,358.22) scale(4.50)' color='rgb(230,   0,   0)'/>
	<use xlink:href='#gpPt5' transform='translate(456.75,247.23) scale(4.50)' color='rgb(230,   0,   0)'/>
	<use xlink:href='#gpPt5' transform='translate(561.93,153.01) scale(4.50)' color='rgb(230,   0,   0)'/>
</g>
	</g>
<g fill="none" color="white" stroke="rgb(230,   0,   0)" stroke-width="2.00" stroke-linecap="butt" stroke-linejoin="miter">
</g>
<g fill="none" color="black" stroke="currentColor" stroke-width="2.00" stroke-linecap="butt" stroke-linejoin="miter">
</g>
<g fill="none" color="black" stroke="black" stroke-width="1.00" stroke-linecap="butt" stroke-linejoin="miter">
</g>
<g fill="none" color="black" stroke="currentColor" stroke-width="1.00" stroke-linecap="butt" stroke-linejoin="miter">
	<path stroke='black'  d='M72.53,54.01 L72.53,404.40 L456.75,404.40 L456.75,54.01 L72.53,54.01 Z  '/></g>
<g fill="none" color="black" stroke="currentColor" stroke-width="1.00" stroke-linecap="butt" stroke-linejoin="miter">
	<g transform="translate(264.64,30.91)" stroke="none" fill="black" font-family="Arial" font-size="12.00"  text-anchor="middle">
		<text>crowd_run - x264 preset x VMAF</text>
	</g>
</g>
<g fill="none" color="black" stroke="currentColor" stroke-width="1.00" stroke-linecap="butt" stroke-linejoin="miter">
</g>
</g>
</svg>

