<?xml version="1.0" encoding="utf-8"  standalone="no"?>
<svg 
 viewBox="0 0 600 480"
 xmlns="http://www.w3.org/2000/svg"
 xmlns:xlink="http://www.w3.org/1999/xlink"
>

<title>Gnuplot</title>
<desc>Produced by GNUPLOT 5.4 patchlevel 1 </desc>

<g id="gnuplot_canvas">

<rect x="0" y="0" width="600" height="480" fill="none"/>
<defs>

	<circle id='gpDot' r='0.5' stroke-width='0.5' stroke='currentColor'/>
	<path id='gpPt0' stroke-width='0.222' stroke='currentColor' d='M-1,0 h2 M0,-1 v2'/>
	<path id='gpPt1' stroke-width='0.222' stroke='currentColor' d='M-1,-1 L1,1 M1,-1 L-1,1'/>
	<path id='gpPt2' stroke-width='0.222' stroke='currentColor' d='M-1,0 L1,0 M0,-1 L0,1 M-1,-1 L1,1 M-1,1 L1,-1'/>
	<rect id='gpPt3' stroke-width='0.222' stroke='currentColor' x='-1' y='-1' width='2' height='2'/>
	<rect id='gpPt4' stroke-width='0.222' stroke='currentColor' fill='currentColor' x='-1' y='-1' width='2' height='2'/>
	<circle id='gpPt5' stroke-width='0.222' stroke='currentColor' cx='0' cy='0' r='1'/>
	<use xlink:href='#gpPt5' id='gpPt6' fill='currentColor' stroke='none'/>
	<path id='gpPt7' stroke-width='0.222' stroke='currentColor' d='M0,-1.33 L-1.33,0.67 L1.33,0.67 z'/>
	<use xlink:href='#gpPt7' id='gpPt8' fill='currentColor' stroke='none'/>
	<use xlink:href='#gpPt7' id='gpPt9' stroke='currentColor' transform='rotate(180)'/>
	<use xlink:href='#gpPt9' id='gpPt10' fill='currentColor' stroke='none'/>
	<use xlink:href='#gpPt3' id='gpPt11' stroke='currentColor' transform='rotate(45)'/>
	<use xlink:href='#gpPt11' id='gpPt12' fill='currentColor' stroke='none'/>
	<path id='gpPt13' stroke-width='0.222' stroke='currentColor' d='M0,1.330 L1.265,0.411 L0.782,-1.067 L-0.782,-1.076 L-1.265,0.411 z'/>
	<use xlink:href='#gpPt13' id='gpPt14' fill='currentColor' stroke='none'/>
	<filter id='textbox' filterUnits='objectBoundingBox' x='0' y='0' height='1' width='1'>
	  <feFlood flood-color='white' flood-opacity='1' result='bgnd'/>
	  <feComposite in='SourceGraphic' in2='bgnd' operator='atop'/>
	</filter>
	<filter id='greybox' filterUnits='objectBoundingBox' x='0' y='0' height='1' width='1'>
	  <feFlood flood-color='lightgrey' flood-opacity='1' result='grey'/>
	  <feComposite in='SourceGraphic' in2='grey' operator='atop'/>
	</filter>
</defs>
<g fill="none" color="white" stroke="currentColor" stroke-width="1.00" stroke-linecap="butt" stroke-linejoin="miter">
</g>
<g fill="none" color="black" stroke="currentColor" stroke-width="1.00" stroke-linecap="butt" stroke-linejoin="miter">
</g>
<g fill="none" color="black" stroke="black" stroke-width="0.50" stroke-linecap="butt" stroke-linejoin="miter">
</g>
<g fill="none" color="black" stroke="currentColor" stroke-width="0.50" stroke-linecap="butt" stroke-linejoin="miter">
	<path stroke='rgb(221, 221, 221)' class="gridline"  d='M97.70,422.40 L574.82,422.40  '/></g>
<g fill="none" color="black" stroke="rgb(221, 221, 221)" stroke-width="1.00" stroke-linecap="butt" stroke-linejoin="miter">
</g>
<g fill="none" color="black" stroke="currentColor" stroke-width="1.00" stroke-linecap="butt" stroke-linejoin="miter">
	<path stroke='black'  d='M97.70,422.40 L106.70,422.40 M574.82,422.40 L565.82,422.40  '/>	<g transform="translate(89.31,426.30)" stroke="none" fill="black" font-family="Arial" font-size="12.00"  text-anchor="end">
		<text><tspan font-family="Arial" > 0</tspan></text>
	</g>
</g>
<g fill="none" color="black" stroke="currentColor" stroke-width="1.00" stroke-linecap="butt" stroke-linejoin="miter">
</g>
<g fill="none" color="black" stroke="black" stroke-width="0.50" stroke-linecap="butt" stroke-linejoin="miter">
</g>
<g fill="none" color="black" stroke="currentColor" stroke-width="0.50" stroke-linecap="butt" stroke-linejoin="miter">
	<path stroke='rgb(221, 221, 221)' class="gridline"  d='M97.70,407.05 L574.82,407.05  '/></g>
<g fill="none" color="black" stroke="rgb(221, 221, 221)" stroke-width="1.00" stroke-linecap="butt" stroke-linejoin="miter">
</g>
<g fill="none" color="black" stroke="currentColor" stroke-width="1.00" stroke-linecap="butt" stroke-linejoin="miter">
	<path stroke='black'  d='M97.70,407.05 L102.20,407.05 M574.82,407.05 L570.32,407.05  '/></g>
<g fill="none" color="black" stroke="black" stroke-width="0.50" stroke-linecap="butt" stroke-linejoin="miter">
</g>
<g fill="none" color="black" stroke="currentColor" stroke-width="0.50" stroke-linecap="butt" stroke-linejoin="miter">
	<path stroke='rgb(221, 221, 221)' class="gridline"  d='M97.70,391.70 L574.82,391.70  '/></g>
<g fill="none" color="black" stroke="rgb(221, 221, 221)" stroke-width="1.00" stroke-linecap="butt" stroke-linejoin="miter">
</g>
<g fill="none" color="black" stroke="currentColor" stroke-width="1.00" stroke-linecap="butt" stroke-linejoin="miter">
	<path stroke='black'  d='M97.70,391.70 L106.70,391.70 M574.82,391.70 L565.82,391.70  '/>	<g transform="translate(89.31,395.60)" stroke="none" fill="black" font-family="Arial" font-size="12.00"  text-anchor="end">
		<text><tspan font-family="Arial" > 10000</tspan></text>
	</g>
</g>
<g fill="none" color="black" stroke="currentColor" stroke-width="1.00" stroke-linecap="butt" stroke-linejoin="miter">
</g>
<g fill="none" color="black" stroke="black" stroke-width="0.50" stroke-linecap="butt" stroke-linejoin="miter">
</g>
<g fill="none" color="black" stroke="currentColor" stroke-width="0.50" stroke-linecap="butt" stroke-linejoin="miter">
	<path stroke='rgb(221, 221, 221)' class="gridline"  d='M97.70,376.35 L574.82,376.35  '/></g>
<g fill="none" color="black" stroke="rgb(221, 221, 221)" stroke-width="1.00" stroke-linecap="butt" stroke-linejoin="miter">
</g>
<g fill="none" color="black" stroke="currentColor" stroke-width="1.00" stroke-linecap="butt" stroke-linejoin="miter">
	<path stroke='black'  d='M97.70,376.35 L102.20,376.35 M574.82,376.35 L570.32,376.35  '/></g>
<g fill="none" color="black" stroke="black" stroke-width="0.50" stroke-linecap="butt" stroke-linejoin="miter">
</g>
<g fill="none" color="black" stroke="currentColor" stroke-width="0.50" stroke-linecap="butt" stroke-linejoin="miter">
	<path stroke='rgb(221, 221, 221)' class="gridline"  d='M97.70,361.00 L574.82,361.00  '/></g>
<g fill="none" color="black" stroke="rgb(221, 221, 221)" stroke-width="1.00" stroke-linecap="butt" stroke-linejoin="miter">
</g>
<g fill="none" color="black" stroke="currentColor" stroke-width="1.00" stroke-linecap="butt" stroke-linejoin="miter">
	<path stroke='black'  d='M97.70,361.00 L106.70,361.00 M574.82,361.00 L565.82,361.00  '/>	<g transform="translate(89.31,364.90)" stroke="none" fill="black" font-family="Arial" font-size="12.00"  text-anchor="end">
		<text><tspan font-family="Arial" > 20000</tspan></text>
	</g>
</g>
<g fill="none" color="black" stroke="currentColor" stroke-width="1.00" stroke-linecap="butt" stroke-linejoin="miter">
</g>
<g fill="none" color="black" stroke="black" stroke-width="0.50" stroke-linecap="butt" stroke-linejoin="miter">
</g>
<g fill="none" color="black" stroke="currentColor" stroke-width="0.50" stroke-linecap="butt" stroke-linejoin="miter">
	<path stroke='rgb(221, 221, 221)' class="gridline"  d='M97.70,345.65 L574.82,345.65  '/></g>
<g fill="none" color="black" stroke="rgb(221, 221, 221)" stroke-width="1.00" stroke-linecap="butt" stroke-linejoin="miter">
</g>
<g fill="none" color="black" stroke="currentColor" stroke-width="1.00" stroke-linecap="butt" stroke-linejoin="miter">
	<path stroke='black'  d='M97.70,345.65 L102.20,345.65 M574.82,345.65 L570.32,345.65  '/></g>
<g fill="none" color="black" stroke="black" stroke-width="0.50" stroke-linecap="butt" stroke-linejoin="miter">
</g>
<g fill="none" color="black" stroke="currentColor" stroke-width="0.50" stroke-linecap="butt" stroke-linejoin="miter">
	<path stroke='rgb(221, 221, 221)' class="gridline"  d='M97.70,330.30 L574.82,330.30  '/></g>
<g fill="none" color="black" stroke="rgb(221, 221, 221)" stroke-width="1.00" stroke-linecap="butt" stroke-linejoin="miter">
</g>
<g fill="none" color="black" stroke="currentColor" stroke-width="1.00" stroke-linecap="butt" stroke-linejoin="miter">
	<path stroke='black'  d='M97.70,330.30 L106.70,330.30 M574.82,330.30 L565.82,330.30  '/>	<g transform="translate(89.31,334.20)" stroke="none" fill="black" font-family="Arial" font-size="12.00"  text-anchor="end">
		<text><tspan font-family="Arial" > 30000</tspan></text>
	</g>
</g>
<g fill="none" color="black" stroke="currentColor" stroke-width="1.00" stroke-linecap="butt" stroke-linejoin="miter">
</g>
<g fill="none" color="black" stroke="black" stroke-width="0.50" stroke-linecap="butt" stroke-linejoin="miter">
</g>
<g fill="none" color="black" stroke="currentColor" stroke-width="0.50" stroke-linecap="butt" stroke-linejoin="miter">
	<path stroke='rgb(221, 221, 221)' class="gridline"  d='M97.70,314.95 L574.82,314.95  '/></g>
<g fill="none" color="black" stroke="rgb(221, 221, 221)" stroke-width="1.00" stroke-linecap="butt" stroke-linejoin="miter">
</g>
<g fill="none" color="black" stroke="currentColor" stroke-width="1.00" stroke-linecap="butt" stroke-linejoin="miter">
	<path stroke='black'  d='M97.70,314.95 L102.20,314.95 M574.82,314.95 L570.32,314.95  '/></g>
<g fill="none" color="black" stroke="black" stroke-width="0.50" stroke-linecap="butt" stroke-linejoin="miter">
</g>
<g fill="none" color="black" stroke="currentColor" stroke-width="0.50" stroke-linecap="butt" stroke-linejoin="miter">
	<path stroke='rgb(221, 221, 221)' class="gridline"  d='M97.70,299.60 L574.82,299.60  '/></g>
<g fill="none" color="black" stroke="rgb(221, 221, 221)" stroke-width="1.00" stroke-linecap="butt" stroke-linejoin="miter">
</g>
<g fill="none" color="black" stroke="currentColor" stroke-width="1.00" stroke-linecap="butt" stroke-linejoin="miter">
	<path stroke='black'  d='M97.70,299.60 L106.70,299.60 M574.82,299.60 L565.82,299.60  '/>	<g transform="translate(89.31,303.50)" stroke="none" fill="black" font-family="Arial" font-size="12.00"  text-anchor="end">
		<text><tspan font-family="Arial" > 40000</tspan></text>
	</g>
</g>
<g fill="none" color="black" stroke="currentColor" stroke-width="1.00" stroke-linecap="butt" stroke-linejoin="miter">
</g>
<g fill="none" color="black" stroke="black" stroke-width="0.50" stroke-linecap="butt" stroke-linejoin="miter">
</g>
<g fill="none" color="black" stroke="currentColor" stroke-width="0.50" stroke-linecap="butt" stroke-linejoin="miter">
	<path stroke='rgb(221, 221, 221)' class="gridline"  d='M97.70,284.25 L574.82,284.25  '/></g>
<g fill="none" color="black" stroke="rgb(221, 221, 221)" stroke-width="1.00" stroke-linecap="butt" stroke-linejoin="miter">
</g>
<g fill="none" color="black" stroke="currentColor" stroke-width="1.00" stroke-linecap="butt" stroke-linejoin="miter">
	<path stroke='black'  d='M97.70,284.25 L102.20,284.25 M574.82,284.25 L570.32,284.25  '/></g>
<g fill="none" color="black" stroke="black" stroke-width="0.50" stroke-linecap="butt" stroke-linejoin="miter">
</g>
<g fill="none" color="black" stroke="currentColor" stroke-width="0.50" stroke-linecap="butt" stroke-linejoin="miter">
	<path stroke='rgb(221, 221, 221)' class="gridline"  d='M97.70,268.90 L574.82,268.90  '/></g>
<g fill="none" color="black" stroke="rgb(221, 221, 221)" stroke-width="1.00" stroke-linecap="butt" stroke-linejoin="miter">
</g>
<g fill="none" color="black" stroke="currentColor" stroke-width="1.00" stroke-linecap="butt" stroke-linejoin="miter">
	<path stroke='black'  d='M97.70,268.90 L106.70,268.90 M574.82,268.90 L565.82,268.90  '/>	<g transform="translate(89.31,272.80)" stroke="none" fill="black" font-family="Arial" font-size="12.00"  text-anchor="end">
		<text><tspan font-family="Arial" > 50000</tspan></text>
	</g>
</g>
<g fill="none" color="black" stroke="currentColor" stroke-width="1.00" stroke-linecap="butt" stroke-linejoin="miter">
</g>
<g fill="none" color="black" stroke="black" stroke-width="0.50" stroke-linecap="butt" stroke-linejoin="miter">
</g>
<g fill="none" color="black" stroke="currentColor" stroke-width="0.50" stroke-linecap="butt" stroke-linejoin="miter">
	<path stroke='rgb(221, 221, 221)' class="gridline"  d='M97.70,253.55 L574.82,253.55  '/></g>
<g fill="none" color="black" stroke="rgb(221, 221, 221)" stroke-width="1.00" stroke-linecap="butt" stroke-linejoin="miter">
</g>
<g fill="none" color="black" stroke="currentColor" stroke-width="1.00" stroke-linecap="butt" stroke-linejoin="miter">
	<path stroke='black'  d='M97.70,253.55 L102.20,253.55 M574.82,253.55 L570.32,253.55  '/></g>
<g fill="none" color="black" stroke="black" stroke-width="0.50" stroke-linecap="butt" stroke-linejoin="miter">
</g>
<g fill="none" color="black" stroke="currentColor" stroke-width="0.50" stroke-linecap="butt" stroke-linejoin="miter">
	<path stroke='rgb(221, 221, 221)' class="gridline"  d='M97.70,238.20 L364.46,238.20 M566.43,238.20 L574.82,238.20  '/></g>
<g fill="none" color="black" stroke="rgb(221, 221, 221)" stroke-width="1.00" stroke-linecap="butt" stroke-linejoin="miter">
</g>
<g fill="none" color="black" stroke="currentColor" stroke-width="1.00" stroke-linecap="butt" stroke-linejoin="miter">
	<path stroke='black'  d='M97.70,238.20 L106.70,238.20 M574.82,238.20 L565.82,238.20  '/>	<g transform="translate(89.31,242.10)" stroke="none" fill="black" font-family="Arial" font-size="12.00"  text-anchor="end">
		<text><tspan font-family="Arial" > 60000</tspan></text>
	</g>
</g>
<g fill="none" color="black" stroke="currentColor" stroke-width="1.00" stroke-linecap="butt" stroke-linejoin="miter">
</g>
<g fill="none" color="black" stroke="black" stroke-width="0.50" stroke-linecap="butt" stroke-linejoin="miter">
</g>
<g fill="none" color="black" stroke="currentColor" stroke-width="0.50" stroke-linecap="butt" stroke-linejoin="miter">
	<path stroke='rgb(221, 221, 221)' class="gridline"  d='M97.70,222.86 L364.46,222.86 M566.43,222.86 L574.82,222.86  '/></g>
<g fill="none" color="black" stroke="rgb(221, 221, 221)" stroke-width="1.00" stroke-linecap="butt" stroke-linejoin="miter">
</g>
<g fill="none" color="black" stroke="currentColor" stroke-width="1.00" stroke-linecap="butt" stroke-linejoin="miter">
	<path stroke='black'  d='M97.70,222.86 L102.20,222.86 M574.82,222.86 L570.32,222.86  '/></g>
<g fill="none" color="black" stroke="black" stroke-width="0.50" stroke-linecap="butt" stroke-linejoin="miter">
</g>
<g fill="none" color="black" stroke="currentColor" stroke-width="0.50" stroke-linecap="butt" stroke-linejoin="miter">
	<path stroke='rgb(221, 221, 221)' class="gridline"  d='M97.70,207.51 L364.46,207.51 M566.43,207.51 L574.82,207.51  '/></g>
<g fill="none" color="black" stroke="rgb(221, 221, 221)" stroke-width="1.00" stroke-linecap="butt" stroke-linejoin="miter">
</g>
<g fill="none" color="black" stroke="currentColor" stroke-width="1.00" stroke-linecap="butt" stroke-linejoin="miter">
	<path stroke='black'  d='M97.70,207.51 L106.70,207.51 M574.82,207.51 L565.82,207.51  '/>	<g transform="translate(89.31,211.41)" stroke="none" fill="black" font-family="Arial" font-size="12.00"  text-anchor="end">
		<text><tspan font-family="Arial" > 70000</tspan></text>
	</g>
</g>
<g fill="none" color="black" stroke="currentColor" stroke-width="1.00" stroke-linecap="butt" stroke-linejoin="miter">
</g>
<g fill="none" color="black" stroke="black" stroke-width="0.50" stroke-linecap="butt" stroke-linejoin="miter">
</g>
<g fill="none" color="black" stroke="currentColor" stroke-width="0.50" stroke-linecap="butt" stroke-linejoin="miter">
	<path stroke='rgb(221, 221, 221)' class="gridline"  d='M97.70,192.16 L364.46,192.16 M566.43,192.16 L574.82,192.16  '/></g>
<g fill="none" color="black" stroke="rgb(221, 221, 221)" stroke-width="1.00" stroke-linecap="butt" stroke-linejoin="miter">
</g>
<g fill="none" color="black" stroke="currentColor" stroke-width="1.00" stroke-linecap="butt" stroke-linejoin="miter">
	<path stroke='black'  d='M97.70,192.16 L102.20,192.16 M574.82,192.16 L570.32,192.16  '/></g>
<g fill="none" color="black" stroke="black" stroke-width="0.50" stroke-linecap="butt" stroke-linejoin="miter">
</g>
<g fill="none" color="black" stroke="currentColor" stroke-width="0.50" stroke-linecap="butt" stroke-linejoin="miter">
	<path stroke='rgb(221, 221, 221)' class="gridline"  d='M97.70,176.81 L364.46,176.81 M566.43,176.81 L574.82,176.81  '/></g>
<g fill="none" color="black" stroke="rgb(221, 221, 221)" stroke-width="1.00" stroke-linecap="butt" stroke-linejoin="miter">
</g>
<g fill="none" color="black" stroke="currentColor" stroke-width="1.00" stroke-linecap="butt" stroke-linejoin="miter">
	<path stroke='black'  d='M97.70,176.81 L106.70,176.81 M574.82,176.81 L565.82,176.81  '/>	<g transform="translate(89.31,180.71)" stroke="none" fill="black" font-family="Arial" font-size="12.00"  text-anchor="end">
		<text><tspan font-family="Arial" > 80000</tspan></text>
	</g>
</g>
<g fill="none" color="black" stroke="currentColor" stroke-width="1.00" stroke-linecap="butt" stroke-linejoin="miter">
</g>
<g fill="none" color="black" stroke="black" stroke-width="0.50" stroke-linecap="butt" stroke-linejoin="miter">
</g>
<g fill="none" color="black" stroke="currentColor" stroke-width="0.50" stroke-linecap="butt" stroke-linejoin="miter">
	<path stroke='rgb(221, 221, 221)' class="gridline"  d='M97.70,161.46 L364.46,161.46 M566.43,161.46 L574.82,161.46  '/></g>
<g fill="none" color="black" stroke="rgb(221, 221, 221)" stroke-width="1.00" stroke-linecap="butt" stroke-linejoin="miter">
</g>
<g fill="none" color="black" stroke="currentColor" stroke-width="1.00" stroke-linecap="butt" stroke-linejoin="miter">
	<path stroke='black'  d='M97.70,161.46 L102.20,161.46 M574.82,161.46 L570.32,161.46  '/></g>
<g fill="none" color="black" stroke="black" stroke-width="0.50" stroke-linecap="butt" stroke-linejoin="miter">
</g>
<g fill="none" color="black" stroke="currentColor" stroke-width="0.50" stroke-linecap="butt" stroke-linejoin="miter">
	<path stroke='rgb(221, 221, 221)' class="gridline"  d='M97.70,146.11 L364.46,146.11 M566.43,146.11 L574.82,146.11  '/></g>
<g fill="none" color="black" stroke="rgb(221, 221, 221)" stroke-width="1.00" stroke-linecap="butt" stroke-linejoin="miter">
</g>
<g fill="none" color="black" stroke="currentColor" stroke-width="1.00" stroke-linecap="butt" stroke-linejoin="miter">
	<path stroke='black'  d='M97.70,146.11 L106.70,146.11 M574.82,146.11 L565.82,146.11  '/>	<g transform="translate(89.31,150.01)" stroke="none" fill="black" font-family="Arial" font-size="12.00"  text-anchor="end">
		<text><tspan font-family="Arial" > 90000</tspan></text>
	</g>
</g>
<g fill="none" color="black" stroke="currentColor" stroke-width="1.00" stroke-linecap="butt" stroke-linejoin="miter">
</g>
<g fill="none" color="black" stroke="black" stroke-width="0.50" stroke-linecap="butt" stroke-linejoin="miter">
</g>
<g fill="none" color="black" stroke="currentColor" stroke-width="0.50" stroke-linecap="butt" stroke-linejoin="miter">
	<path stroke='rgb(221, 221, 221)' class="gridline"  d='M97.70,130.76 L364.46,130.76 M566.43,130.76 L574.82,130.76  '/></g>
<g fill="none" color="black" stroke="rgb(221, 221, 221)" stroke-width="1.00" stroke-linecap="butt" stroke-linejoin="miter">
</g>
<g fill="none" color="black" stroke="currentColor" stroke-width="1.00" stroke-linecap="butt" stroke-linejoin="miter">
	<path stroke='black'  d='M97.70,130.76 L102.20,130.76 M574.82,130.76 L570.32,130.76  '/></g>
<g fill="none" color="black" stroke="black" stroke-width="0.50" stroke-linecap="butt" stroke-linejoin="miter">
</g>
<g fill="none" color="black" stroke="currentColor" stroke-width="0.50" stroke-linecap="butt" stroke-linejoin="miter">
	<path stroke='rgb(221, 221, 221)' class="gridline"  d='M97.70,115.41 L364.46,115.41 M566.43,115.41 L574.82,115.41  '/></g>
<g fill="none" color="black" stroke="rgb(221, 221, 221)" stroke-width="1.00" stroke-linecap="butt" stroke-linejoin="miter">
</g>
<g fill="none" color="black" stroke="currentColor" stroke-width="1.00" stroke-linecap="butt" stroke-linejoin="miter">
	<path stroke='black'  d='M97.70,115.41 L106.70,115.41 M574.82,115.41 L565.82,115.41  '/>	<g transform="translate(89.31,119.31)" stroke="none" fill="black" font-family="Arial" font-size="12.00"  text-anchor="end">
		<text><tspan font-family="Arial" > 100000</tspan></text>
	</g>
</g>
<g fill="none" color="black" stroke="currentColor" stroke-width="1.00" stroke-linecap="butt" stroke-linejoin="miter">
</g>
<g fill="none" color="black" stroke="black" stroke-width="0.50" stroke-linecap="butt" stroke-linejoin="miter">
</g>
<g fill="none" color="black" stroke="currentColor" stroke-width="0.50" stroke-linecap="butt" stroke-linejoin="miter">
	<path stroke='rgb(221, 221, 221)' class="gridline"  d='M97.70,100.06 L364.46,100.06 M566.43,100.06 L574.82,100.06  '/></g>
<g fill="none" color="black" stroke="rgb(221, 221, 221)" stroke-width="1.00" stroke-linecap="butt" stroke-linejoin="miter">
</g>
<g fill="none" color="black" stroke="currentColor" stroke-width="1.00" stroke-linecap="butt" stroke-linejoin="miter">
	<path stroke='black'  d='M97.70,100.06 L102.20,100.06 M574.82,100.06 L570.32,100.06  '/></g>
<g fill="none" color="black" stroke="black" stroke-width="0.50" stroke-linecap="butt" stroke-linejoin="miter">
</g>
<g fill="none" color="black" stroke="currentColor" stroke-width="0.50" stroke-linecap="butt" stroke-linejoin="miter">
	<path stroke='rgb(221, 221, 221)' class="gridline"  d='M97.70,84.71 L364.46,84.71 M566.43,84.71 L574.82,84.71  '/></g>
<g fill="none" color="black" stroke="rgb(221, 221, 221)" stroke-width="1.00" stroke-linecap="butt" stroke-linejoin="miter">
</g>
<g fill="none" color="black" stroke="currentColor" stroke-width="1.00" stroke-linecap="butt" stroke-linejoin="miter">
	<path stroke='black'  d='M97.70,84.71 L106.70,84.71 M574.82,84.71 L565.82,84.71  '/>	<g transform="translate(89.31,88.61)" stroke="none" fill="black" font-family="Arial" font-size="12.00"  text-anchor="end">
		<text><tspan font-family="Arial" > 110000</tspan></text>
	</g>
</g>
<g fill="none" color="black" stroke="currentColor" stroke-width="1.00" stroke-linecap="butt" stroke-linejoin="miter">
</g>
<g fill="none" color="black" stroke="black" stroke-width="0.50" stroke-linecap="butt" stroke-linejoin="miter">
</g>
<g fill="none" color="black" stroke="currentColor" stroke-width="0.50" stroke-linecap="butt" stroke-linejoin="miter">
	<path stroke='rgb(221, 221, 221)' class="gridline"  d='M97.70,69.36 L364.46,69.36 M566.43,69.36 L574.82,69.36  '/></g>
<g fill="none" color="black" stroke="rgb(221, 221, 221)" stroke-width="1.00" stroke-linecap="butt" stroke-linejoin="miter">
</g>
<g fill="none" color="black" stroke="currentColor" stroke-width="1.00" stroke-linecap="butt" stroke-linejoin="miter">
	<path stroke='black'  d='M97.70,69.36 L102.20,69.36 M574.82,69.36 L570.32,69.36  '/></g>
<g fill="none" color="black" stroke="black" stroke-width="0.50" stroke-linecap="butt" stroke-linejoin="miter">
</g>
<g fill="none" color="black" stroke="currentColor" stroke-width="0.50" stroke-linecap="butt" stroke-linejoin="miter">
	<path stroke='rgb(221, 221, 221)' class="gridline"  d='M97.70,54.01 L574.82,54.01  '/></g>
<g fill="none" color="black" stroke="rgb(221, 221, 221)" stroke-width="1.00" stroke-linecap="butt" stroke-linejoin="miter">
</g>
<g fill="none" color="black" stroke="currentColor" stroke-width="1.00" stroke-linecap="butt" stroke-linejoin="miter">
	<path stroke='black'  d='M97.70,54.01 L106.70,54.01 M574.82,54.01 L565.82,54.01  '/>	<g transform="translate(89.31,57.91)" stroke="none" fill="black" font-family="Arial" font-size="12.00"  text-anchor="end">
		<text><tspan font-family="Arial" > 120000</tspan></text>
	</g>
</g>
<g fill="none" color="black" stroke="currentColor" stroke-width="1.00" stroke-linecap="butt" stroke-linejoin="miter">
</g>
<g fill="none" color="black" stroke="black" stroke-width="0.50" stroke-linecap="butt" stroke-linejoin="miter">
</g>
<g fill="none" color="black" stroke="currentColor" stroke-width="0.50" stroke-linecap="butt" stroke-linejoin="miter">
	<path stroke='rgb(221, 221, 221)' class="gridline"  d='M97.70,422.40 L97.70,54.01  '/></g>
<g fill="none" color="black" stroke="rgb(221, 221, 221)" stroke-width="1.00" stroke-linecap="butt" stroke-linejoin="miter">
</g>
<g fill="none" color="black" stroke="currentColor" stroke-width="1.00" stroke-linecap="butt" stroke-linejoin="miter">
	<path stroke='black'  d='M97.70,422.40 L97.70,413.40 M97.70,54.01 L97.70,63.01  '/>	<g transform="translate(97.70,444.30)" stroke="none" fill="black" font-family="Arial" font-size="12.00"  text-anchor="middle">
		<text><tspan font-family="Arial" > 16</tspan></text>
	</g>
</g>
<g fill="none" color="black" stroke="currentColor" stroke-width="1.00" stroke-linecap="butt" stroke-linejoin="miter">
</g>
<g fill="none" color="black" stroke="black" stroke-width="0.50" stroke-linecap="butt" stroke-linejoin="miter">
</g>
<g fill="none" color="black" stroke="currentColor" stroke-width="0.50" stroke-linecap="butt" stroke-linejoin="miter">
	<path stroke='rgb(221, 221, 221)' class="gridline"  d='M127.52,422.40 L127.52,54.01  '/></g>
<g fill="none" color="black" stroke="rgb(221, 221, 221)" stroke-width="1.00" stroke-linecap="butt" stroke-linejoin="miter">
</g>
<g fill="none" color="black" stroke="currentColor" stroke-width="1.00" stroke-linecap="butt" stroke-linejoin="miter">
	<path stroke='black'  d='M127.52,422.40 L127.52,417.90 M127.52,54.01 L127.52,58.51  '/></g>
<g fill="none" color="black" stroke="black" stroke-width="0.50" stroke-linecap="butt" stroke-linejoin="miter">
</g>
<g fill="none" color="black" stroke="currentColor" stroke-width="0.50" stroke-linecap="butt" stroke-linejoin="miter">
	<path stroke='rgb(221, 221, 221)' class="gridline"  d='M157.34,422.40 L157.34,54.01  '/></g>
<g fill="none" color="black" stroke="rgb(221, 221, 221)" stroke-width="1.00" stroke-linecap="butt" stroke-linejoin="miter">
</g>
<g fill="none" color="black" stroke="currentColor" stroke-width="1.00" stroke-linecap="butt" stroke-linejoin="miter">
	<path stroke='black'  d='M157.34,422.40 L157.34,413.40 M157.34,54.01 L157.34,63.01  '/>	<g transform="translate(157.34,444.30)" stroke="none" fill="black" font-family="Arial" font-size="12.00"  text-anchor="middle">
		<text><tspan font-family="Arial" > 18</tspan></text>
	</g>
</g>
<g fill="none" color="black" stroke="currentColor" stroke-width="1.00" stroke-linecap="butt" stroke-linejoin="miter">
</g>
<g fill="none" color="black" stroke="black" stroke-width="0.50" stroke-linecap="butt" stroke-linejoin="miter">
</g>
<g fill="none" color="black" stroke="currentColor" stroke-width="0.50" stroke-linecap="butt" stroke-linejoin="miter">
	<path stroke='rgb(221, 221, 221)' class="gridline"  d='M187.16,422.40 L187.16,54.01  '/></g>
<g fill="none" color="black" stroke="rgb(221, 221, 221)" stroke-width="1.00" stroke-linecap="butt" stroke-linejoin="miter">
</g>
<g fill="none" color="black" stroke="currentColor" stroke-width="1.00" stroke-linecap="butt" stroke-linejoin="miter">
	<path stroke='black'  d='M187.16,422.40 L187.16,417.90 M187.16,54.01 L187.16,58.51  '/></g>
<g fill="none" color="black" stroke="black" stroke-width="0.50" stroke-linecap="butt" stroke-linejoin="miter">
</g>
<g fill="none" color="black" stroke="currentColor" stroke-width="0.50" stroke-linecap="butt" stroke-linejoin="miter">
	<path stroke='rgb(221, 221, 221)' class="gridline"  d='M216.98,422.40 L216.98,54.01  '/></g>
<g fill="none" color="black" stroke="rgb(221, 221, 221)" stroke-width="1.00" stroke-linecap="butt" stroke-linejoin="miter">
</g>
<g fill="none" color="black" stroke="currentColor" stroke-width="1.00" stroke-linecap="butt" stroke-linejoin="miter">
	<path stroke='black'  d='M216.98,422.40 L216.98,413.40 M216.98,54.01 L216.98,63.01  '/>	<g transform="translate(216.98,444.30)" stroke="none" fill="black" font-family="Arial" font-size="12.00"  text-anchor="middle">
		<text><tspan font-family="Arial" > 20</tspan></text>
	</g>
</g>
<g fill="none" color="black" stroke="currentColor" stroke-width="1.00" stroke-linecap="butt" stroke-linejoin="miter">
</g>
<g fill="none" color="black" stroke="black" stroke-width="0.50" stroke-linecap="butt" stroke-linejoin="miter">
</g>
<g fill="none" color="black" stroke="currentColor" stroke-width="0.50" stroke-linecap="butt" stroke-linejoin="miter">
	<path stroke='rgb(221, 221, 221)' class="gridline"  d='M246.80,422.40 L246.80,54.01  '/></g>
<g fill="none" color="black" stroke="rgb(221, 221, 221)" stroke-width="1.00" stroke-linecap="butt" stroke-linejoin="miter">
</g>
<g fill="none" color="black" stroke="currentColor" stroke-width="1.00" stroke-linecap="butt" stroke-linejoin="miter">
	<path stroke='black'  d='M246.80,422.40 L246.80,417.90 M246.80,54.01 L246.80,58.51  '/></g>
<g fill="none" color="black" stroke="black" stroke-width="0.50" stroke-linecap="butt" stroke-linejoin="miter">
</g>
<g fill="none" color="black" stroke="currentColor" stroke-width="0.50" stroke-linecap="butt" stroke-linejoin="miter">
	<path stroke='rgb(221, 221, 221)' class="gridline"  d='M276.62,422.40 L276.62,54.01  '/></g>
<g fill="none" color="black" stroke="rgb(221, 221, 221)" stroke-width="1.00" stroke-linecap="butt" stroke-linejoin="miter">
</g>
<g fill="none" color="black" stroke="currentColor" stroke-width="1.00" stroke-linecap="butt" stroke-linejoin="miter">
	<path stroke='black'  d='M276.62,422.40 L276.62,413.40 M276.62,54.01 L276.62,63.01  '/>	<g transform="translate(276.62,444.30)" stroke="none" fill="black" font-family="Arial" font-size="12.00"  text-anchor="middle">
		<text><tspan font-family="Arial" > 22</tspan></text>
	</g>
</g>
<g fill="none" color="black" stroke="currentColor" stroke-width="1.00" stroke-linecap="butt" stroke-linejoin="miter">
</g>
<g fill="none" color="black" stroke="black" stroke-width="0.50" stroke-linecap="butt" stroke-linejoin="miter">
</g>
<g fill="none" color="black" stroke="currentColor" stroke-width="0.50" stroke-linecap="butt" stroke-linejoin="miter">
	<path stroke='rgb(221, 221, 221)' class="gridline"  d='M306.44,422.40 L306.44,54.01  '/></g>
<g fill="none" color="black" stroke="rgb(221, 221, 221)" stroke-width="1.00" stroke-linecap="butt" stroke-linejoin="miter">
</g>
<g fill="none" color="black" stroke="currentColor" stroke-width="1.00" stroke-linecap="butt" stroke-linejoin="miter">
	<path stroke='black'  d='M306.44,422.40 L306.44,417.90 M306.44,54.01 L306.44,58.51  '/></g>
<g fill="none" color="black" stroke="black" stroke-width="0.50" stroke-linecap="butt" stroke-linejoin="miter">
</g>
<g fill="none" color="black" stroke="currentColor" stroke-width="0.50" stroke-linecap="butt" stroke-linejoin="miter">
	<path stroke='rgb(221, 221, 221)' class="gridline"  d='M336.26,422.40 L336.26,54.01  '/></g>
<g fill="none" color="black" stroke="rgb(221, 221, 221)" stroke-width="1.00" stroke-linecap="butt" stroke-linejoin="miter">
</g>
<g fill="none" color="black" stroke="currentColor" stroke-width="1.00" stroke-linecap="butt" stroke-linejoin="miter">
	<path stroke='black'  d='M336.26,422.40 L336.26,413.40 M336.26,54.01 L336.26,63.01  '/>	<g transform="translate(336.26,444.30)" stroke="none" fill="black" font-family="Arial" font-size="12.00"  text-anchor="middle">
		<text><tspan font-family="Arial" > 24</tspan></text>
	</g>
</g>
<g fill="none" color="black" stroke="currentColor" stroke-width="1.00" stroke-linecap="butt" stroke-linejoin="miter">
</g>
<g fill="none" color="black" stroke="black" stroke-width="0.50" stroke-linecap="butt" stroke-linejoin="miter">
</g>
<g fill="none" color="black" stroke="currentColor" stroke-width="0.50" stroke-linecap="butt" stroke-linejoin="miter">
	<path stroke='rgb(221, 221, 221)' class="gridline"  d='M366.08,422.40 L366.08,243.01 M366.08,63.01 L366.08,54.01  '/></g>
<g fill="none" color="black" stroke="rgb(221, 221, 221)" stroke-width="1.00" stroke-linecap="butt" stroke-linejoin="miter">
</g>
<g fill="none" color="black" stroke="currentColor" stroke-width="1.00" stroke-linecap="butt" stroke-linejoin="miter">
	<path stroke='black'  d='M366.08,422.40 L366.08,417.90 M366.08,54.01 L366.08,58.51  '/></g>
<g fill="none" color="black" stroke="black" stroke-width="0.50" stroke-linecap="butt" stroke-linejoin="miter">
</g>
<g fill="none" color="black" stroke="currentColor" stroke-width="0.50" stroke-linecap="butt" stroke-linejoin="miter">
	<path stroke='rgb(221, 221, 221)' class="gridline"  d='M395.90,422.40 L395.90,243.01 M395.90,63.01 L395.90,54.01  '/></g>
<g fill="none" color="black" stroke="rgb(221, 221, 221)" stroke-width="1.00" stroke-linecap="butt" stroke-linejoin="miter">
</g>
<g fill="none" color="black" stroke="currentColor" stroke-width="1.00" stroke-linecap="butt" stroke-linejoin="miter">
	<path stroke='black'  d='M395.90,422.40 L395.90,413.40 M395.90,54.01 L395.90,63.01  '/>	<g transform="translate(395.90,444.30)" stroke="none" fill="black" font-family="Arial" font-size="12.00"  text-anchor="middle">
		<text><tspan font-family="Arial" > 26</tspan></text>
	</g>
</g>
<g fill="none" color="black" stroke="currentColor" stroke-width="1.00" stroke-linecap="butt" stroke-linejoin="miter">
</g>
<g fill="none" color="black" stroke="black" stroke-width="0.50" stroke-linecap="butt" stroke-linejoin="miter">
</g>
<g fill="none" color="black" stroke="currentColor" stroke-width="0.50" stroke-linecap="butt" stroke-linejoin="miter">
	<path stroke='rgb(221, 221, 221)' class="gridline"  d='M425.72,422.40 L425.72,243.01 M425.72,63.01 L425.72,54.01  '/></g>
<g fill="none" color="black" stroke="rgb(221, 221, 221)" stroke-width="1.00" stroke-linecap="butt" stroke-linejoin="miter">
</g>
<g fill="none" color="black" stroke="currentColor" stroke-width="1.00" stroke-linecap="butt" stroke-linejoin="miter">
	<path stroke='black'  d='M425.72,422.40 L425.72,417.90 M425.72,54.01 L425.72,58.51  '/></g>
<g fill="none" color="black" stroke="black" stroke-width="0.50" stroke-linecap="butt" stroke-linejoin="miter">
</g>
<g fill="none" color="black" stroke="currentColor" stroke-width="0.50" stroke-linecap="butt" stroke-linejoin="miter">
	<path stroke='rgb(221, 221, 221)' class="gridline"  d='M455.54,422.40 L455.54,243.01 M455.54,63.01 L455.54,54.01  '/></g>
<g fill="none" color="black" stroke="rgb(221, 221, 221)" stroke-width="1.00" stroke-linecap="butt" stroke-linejoin="miter">
</g>
<g fill="none" color="black" stroke="currentColor" stroke-width="1.00" stroke-linecap="butt" stroke-linejoin="miter">
	<path stroke='black'  d='M455.54,422.40 L455.54,413.40 M455.54,54.01 L455.54,63.01  '/>	<g transform="translate(455.54,444.30)" stroke="none" fill="black" font-family="Arial" font-size="12.00"  text-anchor="middle">
		<text><tspan font-family="Arial" > 28</tspan></text>
	</g>
</g>
<g fill="none" color="black" stroke="currentColor" stroke-width="1.00" stroke-linecap="butt" stroke-linejoin="miter">
</g>
<g fill="none" color="black" stroke="black" stroke-width="0.50" stroke-linecap="butt" stroke-linejoin="miter">
</g>
<g fill="none" color="black" stroke="currentColor" stroke-width="0.50" stroke-linecap="butt" stroke-linejoin="miter">
	<path stroke='rgb(221, 221, 221)' class="gridline"  d='M485.36,422.40 L485.36,243.01 M485.36,63.01 L485.36,54.01  '/></g>
<g fill="none" color="black" stroke="rgb(221, 221, 221)" stroke-width="1.00" stroke-linecap="butt" stroke-linejoin="miter">
</g>
<g fill="none" color="black" stroke="currentColor" stroke-width="1.00" stroke-linecap="butt" stroke-linejoin="miter">
	<path stroke='black'  d='M485.36,422.40 L485.36,417.90 M485.36,54.01 L485.36,58.51  '/></g>
<g fill="none" color="black" stroke="black" stroke-width="0.50" stroke-linecap="butt" stroke-linejoin="miter">
</g>
<g fill="none" color="black" stroke="currentColor" stroke-width="0.50" stroke-linecap="butt" stroke-linejoin="miter">
	<path stroke='rgb(221, 221, 221)' class="gridline"  d='M515.18,422.40 L515.18,243.01 M515.18,63.01 L515.18,54.01  '/></g>
<g fill="none" color="black" stroke="rgb(221, 221, 221)" stroke-width="1.00" stroke-linecap="butt" stroke-linejoin="miter">
</g>
<g fill="none" color="black" stroke="currentColor" stroke-width="1.00" stroke-linecap="butt" stroke-linejoin="miter">
	<path stroke='black'  d='M515.18,422.40 L515.18,413.40 M515.18,54.01 L515.18,63.01  '/>	<g transform="translate(515.18,444.30)" stroke="none" fill="black" font-family="Arial" font-size="12.00"  text-anchor="middle">
		<text><tspan font-family="Arial" > 30</tspan></text>
	</g>
</g>
<g fill="none" color="black" stroke="currentColor" stroke-width="1.00" stroke-linecap="butt" stroke-linejoin="miter">
</g>
<g fill="none" color="black" stroke="black" stroke-width="0.50" stroke-linecap="butt" stroke-linejoin="miter">
</g>
<g fill="none" color="black" stroke="currentColor" stroke-width="0.50" stroke-linecap="butt" stroke-linejoin="miter">
	<path stroke='rgb(221, 221, 221)' class="gridline"  d='M545.00,422.40 L545.00,243.01 M545.00,63.01 L545.00,54.01  '/></g>
<g fill="none" color="black" stroke="rgb(221, 221, 221)" stroke-width="1.00" stroke-linecap="butt" stroke-linejoin="miter">
</g>
<g fill="none" color="black" stroke="currentColor" stroke-width="1.00" stroke-linecap="butt" stroke-linejoin="miter">
	<path stroke='black'  d='M545.00,422.40 L545.00,417.90 M545.00,54.01 L545.00,58.51  '/></g>
<g fill="none" color="black" stroke="black" stroke-width="0.50" stroke-linecap="butt" stroke-linejoin="miter">
</g>
<g fill="none" color="black" stroke="currentColor" stroke-width="0.50" stroke-linecap="butt" stroke-linejoin="miter">
	<path stroke='rgb(221, 221, 221)' class="gridline"  d='M574.82,422.40 L574.82,54.01  '/></g>
<g fill="none" color="black" stroke="rgb(221, 221, 221)" stroke-width="1.00" stroke-linecap="butt" stroke-linejoin="miter">
</g>
<g fill="none" color="black" stroke="currentColor" stroke-width="1.00" stroke-linecap="butt" stroke-linejoin="miter">
	<path stroke='black'  d='M574.82,422.40 L574.82,413.40 M574.82,54.01 L574.82,63.01  '/>	<g transform="translate(574.82,444.30)" stroke="none" fill="black" font-family="Arial" font-size="12.00"  text-anchor="middle">
		<text><tspan font-family="Arial" > 32</tspan></text>
	</g>
</g>
<g fill="none" color="black" stroke="currentColor" stroke-width="1.00" stroke-linecap="butt" stroke-linejoin="miter">
</g>
<g fill="none" color="black" stroke="currentColor" stroke-width="1.00" stroke-linecap="butt" stroke-linejoin="miter">
	<path stroke='black'  d='M97.70,54.01 L97.70,422.40 L574.82,422.40 L574.82,54.01 L97.70,54.01 Z  '/></g>
<g fill="none" color="black" stroke="currentColor" stroke-width="1.00" stroke-linecap="butt" stroke-linejoin="miter">
	<g transform="translate(19.18,238.21) rotate(270)" stroke="none" fill="black" font-family="Arial" font-size="12.00"  text-anchor="middle">
		<text><tspan font-family="Arial" >kbps</tspan></text>
	</g>
</g>
<g fill="none" color="black" stroke="currentColor" stroke-width="1.00" stroke-linecap="butt" stroke-linejoin="miter">
	<g transform="translate(336.26,471.30)" stroke="none" fill="black" font-family="Arial" font-size="12.00"  text-anchor="middle">
		<text><tspan font-family="Arial" >crf</tspan></text>
	</g>
</g>
<g fill="none" color="black" stroke="currentColor" stroke-width="1.00" stroke-linecap="butt" stroke-linejoin="miter">
</g>
	<g id="gnuplot_plot_1" ><title>gnuplot_plot_1</title>
<g fill="none" color="black" stroke="currentColor" stroke-width="1.00" stroke-linecap="butt" stroke-linejoin="miter">
	<path stroke='rgb(230,   0, 197)'  d='M127.52,233.14 L132.04,237.58 L136.56,242.02 L141.07,246.43 L145.59,250.83 L150.11,255.19 L154.63,259.52 L159.15,263.81
		L163.67,268.05 L168.18,272.22 L172.70,276.33 L177.22,280.37 L181.74,284.33 L186.26,288.20 L190.77,291.98 L195.29,295.65
		L199.81,299.22 L204.33,302.67 L208.85,305.99 L213.37,309.19 L217.88,312.25 L222.40,315.16 L226.92,317.94 L231.44,320.59
		L235.96,323.11 L240.47,325.52 L244.99,327.81 L249.51,330.00 L254.03,332.10 L258.55,334.10 L263.07,336.01 L267.58,337.85
		L272.10,339.61 L276.62,341.31 L281.14,342.95 L285.66,344.53 L290.17,346.07 L294.69,347.56 L299.21,349.03 L303.73,350.46
		L308.25,351.87 L312.77,353.26 L317.28,354.64 L321.80,355.99 L326.32,357.33 L330.84,358.65 L335.36,359.95 L339.87,361.23
		L344.39,362.49 L348.91,363.72 L353.43,364.94 L357.95,366.14 L362.47,367.31 L366.98,368.46 L371.50,369.60 L376.02,370.70
		L380.54,371.79 L385.06,372.85 L389.57,373.89 L394.09,374.91 L398.61,375.90 L403.13,376.87 L407.65,377.82 L412.17,378.74
		L416.68,379.64 L421.20,380.52 L425.72,381.38 L430.24,382.22 L434.76,383.03 L439.27,383.83 L443.79,384.61 L448.31,385.37
		L452.83,386.12 L457.35,386.84 L461.87,387.55 L466.38,388.24 L470.90,388.92 L475.42,389.58 L479.94,390.23 L484.46,390.86
		L488.97,391.48 L493.49,392.09 L498.01,392.68 L502.53,393.27 L507.05,393.84 L511.57,394.40 L516.08,394.95 L520.60,395.49
		L525.12,396.03 L529.64,396.56 L534.16,397.08 L538.67,397.59 L543.19,398.10 L547.71,398.60 L552.23,399.10 L556.75,399.60
		L561.27,400.09 L565.78,400.58 L570.30,401.07 L574.82,401.56  '/></g>
	</g>
	<g id="gnuplot_plot_2" ><title>gnuplot_plot_2</title>
<g fill="none" color="black" stroke="currentColor" stroke-width="1.00" stroke-linecap="butt" stroke-linejoin="miter">
	<path stroke='rgb(131,   0, 230)'  d='M127.52,233.99 L132.04,238.44 L136.56,242.89 L141.07,247.31 L145.59,251.72 L150.11,256.10 L154.63,260.44 L159.15,264.74
		L163.67,268.98 L168.18,273.17 L172.70,277.29 L177.22,281.33 L181.74,285.30 L186.26,289.17 L190.77,292.95 L195.29,296.63
		L199.81,300.20 L204.33,303.64 L208.85,306.97 L213.37,310.16 L217.88,313.21 L222.40,316.11 L226.92,318.88 L231.44,321.52
		L235.96,324.03 L240.47,326.43 L244.99,328.71 L249.51,330.88 L254.03,332.96 L258.55,334.95 L263.07,336.85 L267.58,338.67
		L272.10,340.41 L276.62,342.10 L281.14,343.72 L285.66,345.29 L290.17,346.81 L294.69,348.29 L299.21,349.74 L303.73,351.17
		L308.25,352.57 L312.77,353.95 L317.28,355.32 L321.80,356.67 L326.32,358.01 L330.84,359.32 L335.36,360.62 L339.87,361.90
		L344.39,363.16 L348.91,364.40 L353.43,365.62 L357.95,366.82 L362.47,368.00 L366.98,369.15 L371.50,370.29 L376.02,371.40
		L380.54,372.50 L385.06,373.56 L389.57,374.61 L394.09,375.63 L398.61,376.63 L403.13,377.61 L407.65,378.56 L412.17,379.49
		L416.68,380.39 L421.20,381.28 L425.72,382.14 L430.24,382.98 L434.76,383.81 L439.27,384.61 L443.79,385.39 L448.31,386.16
		L452.83,386.91 L457.35,387.63 L461.87,388.35 L466.38,389.04 L470.90,389.72 L475.42,390.39 L479.94,391.04 L484.46,391.67
		L488.97,392.29 L493.49,392.90 L498.01,393.50 L502.53,394.08 L507.05,394.65 L511.57,395.21 L516.08,395.76 L520.60,396.31
		L525.12,396.84 L529.64,397.37 L534.16,397.89 L538.67,398.40 L543.19,398.91 L547.71,399.41 L552.23,399.91 L556.75,400.40
		L561.27,400.89 L565.78,401.38 L570.30,401.87 L574.82,402.36  '/></g>
	</g>
	<g id="gnuplot_plot_3" ><title>gnuplot_plot_3</title>
<g fill="none" color="black" stroke="currentColor" stroke-width="1.00" stroke-linecap="butt" stroke-linejoin="miter">
	<path stroke='rgb(  0,   0, 230)'  d='M127.52,223.04 L132.04,227.76 L136.56,232.48 L141.07,237.18 L145.59,241.85 L150.11,246.49 L154.63,251.10 L159.15,255.66
		L163.67,260.16 L168.18,264.60 L172.70,268.97 L177.22,273.27 L181.74,277.48 L186.26,281.59 L190.77,285.61 L195.29,289.51
		L199.81,293.30 L204.33,296.96 L208.85,300.49 L213.37,303.89 L217.88,307.13 L222.40,310.22 L226.92,313.17 L231.44,315.98
		L235.96,318.65 L240.47,321.20 L244.99,323.63 L249.51,325.95 L254.03,328.17 L258.55,330.28 L263.07,332.31 L267.58,334.25
		L272.10,336.11 L276.62,337.90 L281.14,339.63 L285.66,341.30 L290.17,342.92 L294.69,344.50 L299.21,346.04 L303.73,347.55
		L308.25,349.03 L312.77,350.50 L317.28,351.94 L321.80,353.37 L326.32,354.78 L330.84,356.16 L335.36,357.53 L339.87,358.87
		L344.39,360.19 L348.91,361.49 L353.43,362.77 L357.95,364.03 L362.47,365.27 L366.98,366.48 L371.50,367.67 L376.02,368.83
		L380.54,369.98 L385.06,371.09 L389.57,372.19 L394.09,373.26 L398.61,374.31 L403.13,375.33 L407.65,376.32 L412.17,377.30
		L416.68,378.25 L421.20,379.18 L425.72,380.08 L430.24,380.97 L434.76,381.83 L439.27,382.68 L443.79,383.50 L448.31,384.31
		L452.83,385.09 L457.35,385.86 L461.87,386.61 L466.38,387.34 L470.90,388.06 L475.42,388.76 L479.94,389.44 L484.46,390.11
		L488.97,390.76 L493.49,391.40 L498.01,392.02 L502.53,392.63 L507.05,393.23 L511.57,393.82 L516.08,394.40 L520.60,394.97
		L525.12,395.53 L529.64,396.08 L534.16,396.63 L538.67,397.16 L543.19,397.69 L547.71,398.22 L552.23,398.74 L556.75,399.26
		L561.27,399.77 L565.78,400.29 L570.30,400.80 L574.82,401.31  '/></g>
	</g>
	<g id="gnuplot_plot_4" ><title>gnuplot_plot_4</title>
<g fill="none" color="black" stroke="currentColor" stroke-width="1.00" stroke-linecap="butt" stroke-linejoin="miter">
	<path stroke='rgb(  0, 131, 230)'  d='M127.52,224.41 L132.04,229.06 L136.56,233.71 L141.07,238.34 L145.59,242.94 L150.11,247.52 L154.63,252.06 L159.15,256.55
		L163.67,260.99 L168.18,265.37 L172.70,269.68 L177.22,273.91 L181.74,278.07 L186.26,282.13 L190.77,286.09 L195.29,289.95
		L199.81,293.69 L204.33,297.32 L208.85,300.81 L213.37,304.17 L217.88,307.38 L222.40,310.45 L226.92,313.38 L231.44,316.17
		L235.96,318.83 L240.47,321.37 L244.99,323.79 L249.51,326.11 L254.03,328.32 L258.55,330.44 L263.07,332.46 L267.58,334.41
		L272.10,336.27 L276.62,338.07 L281.14,339.80 L285.66,341.48 L290.17,343.10 L294.69,344.69 L299.21,346.23 L303.73,347.74
		L308.25,349.23 L312.77,350.70 L317.28,352.15 L321.80,353.57 L326.32,354.98 L330.84,356.36 L335.36,357.73 L339.87,359.07
		L344.39,360.39 L348.91,361.68 L353.43,362.96 L357.95,364.21 L362.47,365.44 L366.98,366.64 L371.50,367.83 L376.02,368.99
		L380.54,370.12 L385.06,371.24 L389.57,372.32 L394.09,373.39 L398.61,374.43 L403.13,375.45 L407.65,376.44 L412.17,377.41
		L416.68,378.35 L421.20,379.28 L425.72,380.18 L430.24,381.06 L434.76,381.92 L439.27,382.76 L443.79,383.58 L448.31,384.39
		L452.83,385.17 L457.35,385.93 L461.87,386.68 L466.38,387.41 L470.90,388.12 L475.42,388.82 L479.94,389.50 L484.46,390.16
		L488.97,390.81 L493.49,391.45 L498.01,392.07 L502.53,392.68 L507.05,393.28 L511.57,393.87 L516.08,394.44 L520.60,395.01
		L525.12,395.57 L529.64,396.12 L534.16,396.66 L538.67,397.20 L543.19,397.73 L547.71,398.25 L552.23,398.77 L556.75,399.29
		L561.27,399.80 L565.78,400.31 L570.30,400.82 L574.82,401.33  '/></g>
	</g>
	<g id="gnuplot_plot_5" ><title>gnuplot_plot_5</title>
<g fill="none" color="black" stroke="currentColor" stroke-width="1.00" stroke-linecap="butt" stroke-linejoin="miter">
	<path stroke='rgb(  0, 230, 197)'  d='M127.52,230.30 L132.04,234.70 L136.56,239.08 L141.07,243.46 L145.59,247.81 L150.11,252.13 L154.63,256.42 L159.15,260.67
		L163.67,264.87 L168.18,269.01 L172.70,273.09 L177.22,277.10 L181.74,281.04 L186.26,284.89 L190.77,288.65 L195.29,292.32
		L199.81,295.88 L204.33,299.33 L208.85,302.66 L213.37,305.87 L217.88,308.94 L222.40,311.88 L226.92,314.69 L231.44,317.38
		L235.96,319.95 L240.47,322.40 L244.99,324.75 L249.51,327.00 L254.03,329.15 L258.55,331.21 L263.07,333.19 L267.58,335.10
		L272.10,336.93 L276.62,338.69 L281.14,340.40 L285.66,342.06 L290.17,343.66 L294.69,345.23 L299.21,346.76 L303.73,348.26
		L308.25,349.73 L312.77,351.19 L317.28,352.62 L321.80,354.03 L326.32,355.43 L330.84,356.80 L335.36,358.15 L339.87,359.47
		L344.39,360.78 L348.91,362.06 L353.43,363.33 L357.95,364.56 L362.47,365.78 L366.98,366.97 L371.50,368.14 L376.02,369.29
		L380.54,370.41 L385.06,371.51 L389.57,372.59 L394.09,373.64 L398.61,374.66 L403.13,375.67 L407.65,376.64 L412.17,377.60
		L416.68,378.53 L421.20,379.44 L425.72,380.33 L430.24,381.20 L434.76,382.05 L439.27,382.87 L443.79,383.68 L448.31,384.47
		L452.83,385.24 L457.35,385.99 L461.87,386.72 L466.38,387.44 L470.90,388.14 L475.42,388.82 L479.94,389.49 L484.46,390.14
		L488.97,390.78 L493.49,391.40 L498.01,392.01 L502.53,392.61 L507.05,393.20 L511.57,393.78 L516.08,394.34 L520.60,394.90
		L525.12,395.44 L529.64,395.98 L534.16,396.51 L538.67,397.04 L543.19,397.56 L547.71,398.07 L552.23,398.58 L556.75,399.09
		L561.27,399.59 L565.78,400.09 L570.30,400.59 L574.82,401.09  '/></g>
	</g>
	<g id="gnuplot_plot_6" ><title>gnuplot_plot_6</title>
<g fill="none" color="black" stroke="currentColor" stroke-width="1.00" stroke-linecap="butt" stroke-linejoin="miter">
	<path stroke='rgb(  0, 230,  66)'  d='M127.52,230.97 L132.04,235.46 L136.56,239.95 L141.07,244.42 L145.59,248.87 L150.11,253.29 L154.63,257.67 L159.15,262.01
		L163.67,266.29 L168.18,270.52 L172.70,274.68 L177.22,278.77 L181.74,282.78 L186.26,286.70 L190.77,290.53 L195.29,294.25
		L199.81,297.87 L204.33,301.37 L208.85,304.74 L213.37,307.98 L217.88,311.08 L222.40,314.04 L226.92,316.86 L231.44,319.55
		L235.96,322.12 L240.47,324.57 L244.99,326.91 L249.51,329.14 L254.03,331.27 L258.55,333.31 L263.07,335.26 L267.58,337.14
		L272.10,338.94 L276.62,340.67 L281.14,342.34 L285.66,343.96 L290.17,345.53 L294.69,347.06 L299.21,348.56 L303.73,350.02
		L308.25,351.47 L312.77,352.89 L317.28,354.30 L321.80,355.68 L326.32,357.05 L330.84,358.39 L335.36,359.72 L339.87,361.02
		L344.39,362.31 L348.91,363.57 L353.43,364.81 L357.95,366.03 L362.47,367.23 L366.98,368.40 L371.50,369.55 L376.02,370.68
		L380.54,371.78 L385.06,372.86 L389.57,373.92 L394.09,374.95 L398.61,375.96 L403.13,376.94 L407.65,377.89 L412.17,378.83
		L416.68,379.74 L421.20,380.62 L425.72,381.49 L430.24,382.33 L434.76,383.16 L439.27,383.96 L443.79,384.74 L448.31,385.50
		L452.83,386.25 L457.35,386.97 L461.87,387.68 L466.38,388.37 L470.90,389.05 L475.42,389.71 L479.94,390.35 L484.46,390.98
		L488.97,391.59 L493.49,392.20 L498.01,392.78 L502.53,393.36 L507.05,393.92 L511.57,394.48 L516.08,395.02 L520.60,395.55
		L525.12,396.08 L529.64,396.59 L534.16,397.10 L538.67,397.61 L543.19,398.11 L547.71,398.60 L552.23,399.09 L556.75,399.57
		L561.27,400.05 L565.78,400.53 L570.30,401.01 L574.82,401.49  '/></g>
	</g>
	<g id="gnuplot_plot_7" ><title>gnuplot_plot_7</title>
<g fill="none" color="black" stroke="currentColor" stroke-width="1.00" stroke-linecap="butt" stroke-linejoin="miter">
	<path stroke='rgb( 66, 230,   0)'  d='M127.52,239.20 L132.04,243.45 L136.56,247.69 L141.07,251.92 L145.59,256.13 L150.11,260.32 L154.63,264.46 L159.15,268.57
		L163.67,272.62 L168.18,276.62 L172.70,280.56 L177.22,284.43 L181.74,288.22 L186.26,291.93 L190.77,295.54 L195.29,299.06
		L199.81,302.47 L204.33,305.77 L208.85,308.96 L213.37,312.01 L217.88,314.94 L222.40,317.72 L226.92,320.38 L231.44,322.91
		L235.96,325.33 L240.47,327.63 L244.99,329.82 L249.51,331.92 L254.03,333.92 L258.55,335.84 L263.07,337.68 L267.58,339.44
		L272.10,341.13 L276.62,342.76 L281.14,344.33 L285.66,345.86 L290.17,347.34 L294.69,348.79 L299.21,350.20 L303.73,351.59
		L308.25,352.96 L312.77,354.32 L317.28,355.66 L321.80,356.99 L326.32,358.30 L330.84,359.59 L335.36,360.87 L339.87,362.13
		L344.39,363.37 L348.91,364.59 L353.43,365.80 L357.95,366.98 L362.47,368.14 L366.98,369.29 L371.50,370.41 L376.02,371.51
		L380.54,372.59 L385.06,373.65 L389.57,374.68 L394.09,375.69 L398.61,376.68 L403.13,377.64 L407.65,378.58 L412.17,379.50
		L416.68,380.39 L421.20,381.27 L425.72,382.12 L430.24,382.95 L434.76,383.76 L439.27,384.55 L443.79,385.32 L448.31,386.07
		L452.83,386.80 L457.35,387.52 L461.87,388.22 L466.38,388.90 L470.90,389.57 L475.42,390.22 L479.94,390.85 L484.46,391.47
		L488.97,392.08 L493.49,392.67 L498.01,393.25 L502.53,393.82 L507.05,394.37 L511.57,394.92 L516.08,395.46 L520.60,395.98
		L525.12,396.50 L529.64,397.01 L534.16,397.51 L538.67,398.01 L543.19,398.50 L547.71,398.98 L552.23,399.46 L556.75,399.94
		L561.27,400.41 L565.78,400.89 L570.30,401.36 L574.82,401.83  '/></g>
	</g>
	<g id="gnuplot_plot_8" ><title>gnuplot_plot_8</title>
<g fill="none" color="black" stroke="currentColor" stroke-width="1.00" stroke-linecap="butt" stroke-linejoin="miter">
	<path stroke='rgb(197, 230,   0)'  d='M127.52,243.58 L132.04,247.84 L136.56,252.10 L141.07,256.35 L145.59,260.57 L150.11,264.77 L154.63,268.93 L159.15,273.05
		L163.67,277.13 L168.18,281.14 L172.70,285.10 L177.22,288.98 L181.74,292.79 L186.26,296.51 L190.77,300.15 L195.29,303.68
		L199.81,307.12 L204.33,310.44 L208.85,313.64 L213.37,316.72 L217.88,319.66 L222.40,322.47 L226.92,325.15 L231.44,327.71
		L235.96,330.15 L240.47,332.47 L244.99,334.69 L249.51,336.81 L254.03,338.83 L258.55,340.77 L263.07,342.62 L267.58,344.40
		L272.10,346.11 L276.62,347.75 L281.14,349.34 L285.66,350.87 L290.17,352.36 L294.69,353.80 L299.21,355.22 L303.73,356.60
		L308.25,357.97 L312.77,359.31 L317.28,360.64 L321.80,361.95 L326.32,363.24 L330.84,364.51 L335.36,365.76 L339.87,366.99
		L344.39,368.20 L348.91,369.39 L353.43,370.56 L357.95,371.71 L362.47,372.84 L366.98,373.95 L371.50,375.03 L376.02,376.10
		L380.54,377.14 L385.06,378.16 L389.57,379.16 L394.09,380.14 L398.61,381.09 L403.13,382.02 L407.65,382.93 L412.17,383.81
		L416.68,384.68 L421.20,385.52 L425.72,386.35 L430.24,387.15 L434.76,387.94 L439.27,388.70 L443.79,389.45 L448.31,390.17
		L452.83,390.88 L457.35,391.58 L461.87,392.25 L466.38,392.91 L470.90,393.55 L475.42,394.18 L479.94,394.79 L484.46,395.39
		L488.97,395.97 L493.49,396.53 L498.01,397.09 L502.53,397.63 L507.05,398.16 L511.57,398.68 L516.08,399.19 L520.60,399.69
		L525.12,400.18 L529.64,400.66 L534.16,401.14 L538.67,401.61 L543.19,402.07 L547.71,402.53 L552.23,402.98 L556.75,403.43
		L561.27,403.88 L565.78,404.33 L570.30,404.77 L574.82,405.21  '/></g>
	</g>
	<g id="gnuplot_plot_9" ><title>gnuplot_plot_9</title>
<g fill="none" color="black" stroke="currentColor" stroke-width="1.00" stroke-linecap="butt" stroke-linejoin="miter">
	<path stroke='rgb(230, 131,   0)'  d='M127.52,250.29 L132.04,254.28 L136.56,258.26 L141.07,262.23 L145.59,266.18 L150.11,270.11 L154.63,274.01 L159.15,277.87
		L163.67,281.69 L168.18,285.46 L172.70,289.17 L177.22,292.82 L181.74,296.41 L186.26,299.92 L190.77,303.36 L195.29,306.71
		L199.81,309.96 L204.33,313.12 L208.85,316.18 L213.37,319.13 L217.88,321.96 L222.40,324.67 L226.92,327.26 L231.44,329.75
		L235.96,332.13 L240.47,334.41 L244.99,336.60 L249.51,338.70 L254.03,340.71 L258.55,342.65 L263.07,344.50 L267.58,346.29
		L272.10,348.01 L276.62,349.68 L281.14,351.29 L285.66,352.84 L290.17,354.36 L294.69,355.83 L299.21,357.27 L303.73,358.67
		L308.25,360.06 L312.77,361.42 L317.28,362.76 L321.80,364.07 L326.32,365.37 L330.84,366.64 L335.36,367.89 L339.87,369.12
		L344.39,370.32 L348.91,371.51 L353.43,372.67 L357.95,373.81 L362.47,374.93 L366.98,376.03 L371.50,377.11 L376.02,378.16
		L380.54,379.19 L385.06,380.21 L389.57,381.20 L394.09,382.17 L398.61,383.11 L403.13,384.04 L407.65,384.95 L412.17,385.83
		L416.68,386.70 L421.20,387.54 L425.72,388.37 L430.24,389.17 L434.76,389.96 L439.27,390.73 L443.79,391.48 L448.31,392.21
		L452.83,392.92 L457.35,393.61 L461.87,394.29 L466.38,394.95 L470.90,395.59 L475.42,396.21 L479.94,396.82 L484.46,397.41
		L488.97,397.99 L493.49,398.55 L498.01,399.09 L502.53,399.62 L507.05,400.14 L511.57,400.65 L516.08,401.15 L520.60,401.63
		L525.12,402.11 L529.64,402.57 L534.16,403.03 L538.67,403.48 L543.19,403.93 L547.71,404.36 L552.23,404.80 L556.75,405.23
		L561.27,405.65 L565.78,406.08 L570.30,406.50 L574.82,406.92  '/></g>
	</g>
	<g id="gnuplot_plot_10" ><title>gnuplot_plot_10</title>
<g fill="none" color="black" stroke="currentColor" stroke-width="1.00" stroke-linecap="butt" stroke-linejoin="miter">
	<path stroke='rgb(230,   0,   0)'  d='M127.52,73.46 L132.04,79.56 L136.56,85.66 L141.07,91.75 L145.59,97.82 L150.11,103.86 L154.63,109.88 L159.15,115.85
		L163.67,121.79 L168.18,127.68 L172.70,133.51 L177.22,139.29 L181.74,145.00 L186.26,150.63 L190.77,156.19 L195.29,161.67
		L199.81,167.05 L204.33,172.34 L208.85,177.53 L213.37,182.61 L217.88,187.58 L222.40,192.43 L226.92,197.16 L231.44,201.79
		L235.96,206.30 L240.47,210.72 L244.99,215.03 L249.51,219.24 L254.03,223.36 L258.55,227.39 L263.07,231.33 L267.58,235.19
		L272.10,238.97 L276.62,242.67 L281.14,246.29 L285.66,249.85 L290.17,253.34 L294.69,256.76 L299.21,260.13 L303.73,263.43
		L308.25,266.69 L312.77,269.89 L317.28,273.04 L321.80,276.14 L326.32,279.20 L330.84,282.20 L335.36,285.15 L339.87,288.05
		L344.39,290.91 L348.91,293.71 L353.43,296.47 L357.95,299.19 L362.47,301.85 L366.98,304.47 L371.50,307.04 L376.02,309.57
		L380.54,312.05 L385.06,314.48 L389.57,316.87 L394.09,319.22 L398.61,321.52 L403.13,323.78 L407.65,326.00 L412.17,328.17
		L416.68,330.30 L421.20,332.39 L425.72,334.43 L430.24,336.43 L434.76,338.40 L439.27,340.31 L443.79,342.19 L448.31,344.03
		L452.83,345.82 L457.35,347.57 L461.87,349.28 L466.38,350.96 L470.90,352.59 L475.42,354.18 L479.94,355.73 L484.46,357.24
		L488.97,358.71 L493.49,360.14 L498.01,361.54 L502.53,362.90 L507.05,364.23 L511.57,365.54 L516.08,366.81 L520.60,368.06
		L525.12,369.28 L529.64,370.48 L534.16,371.66 L538.67,372.83 L543.19,373.97 L547.71,375.11 L552.23,376.23 L556.75,377.34
		L561.27,378.44 L565.78,379.54 L570.30,380.63 L574.82,381.73  '/></g>
	</g>
	<g id="gnuplot_plot_11" ><title>-preset placebo</title>
<g fill="none" color="black" stroke="currentColor" stroke-width="1.00" stroke-linecap="butt" stroke-linejoin="miter">
	<g transform="translate(507.09,75.91)" stroke="none" fill="black" font-family="Arial" font-size="12.00"  text-anchor="end">
		<text><tspan font-family="Arial" >-preset placebo</tspan></text>
	</g>
</g>
<g fill="none" color="black" stroke="currentColor" stroke-width="1.00" stroke-linecap="butt" stroke-linejoin="miter">
	<use xlink:href='#gpPt10' transform='translate(127.52,233.14) scale(4.50)' color='rgb(230,   0, 197)'/>
	<use xlink:href='#gpPt10' transform='translate(216.98,311.65) scale(4.50)' color='rgb(230,   0, 197)'/>
	<use xlink:href='#gpPt10' transform='translate(306.44,351.31) scale(4.50)' color='rgb(230,   0, 197)'/>
	<use xlink:href='#gpPt10' transform='translate(395.90,375.31) scale(4.50)' color='rgb(230,   0, 197)'/>
	<use xlink:href='#gpPt10' transform='translate(485.36,390.99) scale(4.50)' color='rgb(230,   0, 197)'/>
	<use xlink:href='#gpPt10' transform='translate(574.82,401.56) scale(4.50)' color='rgb(230,   0, 197)'/>
	<use xlink:href='#gpPt10' transform='translate(536.76,72.01) scale(4.50)' color='rgb(230,   0, 197)'/>
</g>
	</g>
	<g id="gnuplot_plot_12" ><title>-preset veryslow</title>
<g fill="none" color="black" stroke="currentColor" stroke-width="1.00" stroke-linecap="butt" stroke-linejoin="miter">
	<g transform="translate(507.09,93.91)" stroke="none" fill="black" font-family="Arial" font-size="12.00"  text-anchor="end">
		<text><tspan font-family="Arial" >-preset veryslow</tspan></text>
	</g>
</g>
<g fill="none" color="black" stroke="currentColor" stroke-width="1.00" stroke-linecap="butt" stroke-linejoin="miter">
	<use xlink:href='#gpPt11' transform='translate(127.52,233.99) scale(4.50)' color='rgb(131,   0, 230)'/>
	<use xlink:href='#gpPt11' transform='translate(216.98,312.61) scale(4.50)' color='rgb(131,   0, 230)'/>
	<use xlink:href='#gpPt11' transform='translate(306.44,352.01) scale(4.50)' color='rgb(131,   0, 230)'/>
	<use xlink:href='#gpPt11' transform='translate(395.90,376.03) scale(4.50)' color='rgb(131,   0, 230)'/>
	<use xlink:href='#gpPt11' transform='translate(485.36,391.80) scale(4.50)' color='rgb(131,   0, 230)'/>
	<use xlink:href='#gpPt11' transform='translate(574.82,402.36) scale(4.50)' color='rgb(131,   0, 230)'/>
	<use xlink:href='#gpPt11' transform='translate(536.76,90.01) scale(4.50)' color='rgb(131,   0, 230)'/>
</g>
	</g>
	<g id="gnuplot_plot_13" ><title>-preset slower</title>
<g fill="none" color="black" stroke="currentColor" stroke-width="1.00" stroke-linecap="butt" stroke-linejoin="miter">
	<g transform="translate(507.09,111.91)" stroke="none" fill="black" font-family="Arial" font-size="12.00"  text-anchor="end">
		<text><tspan font-family="Arial" >-preset slower</tspan></text>
	</g>
</g>
<g fill="none" color="black" stroke="currentColor" stroke-width="1.00" stroke-linecap="butt" stroke-linejoin="miter">
	<use xlink:href='#gpPt12' transform='translate(127.52,223.04) scale(4.50)' color='rgb(  0,   0, 230)'/>
	<use xlink:href='#gpPt12' transform='translate(216.98,306.49) scale(4.50)' color='rgb(  0,   0, 230)'/>
	<use xlink:href='#gpPt12' transform='translate(306.44,348.44) scale(4.50)' color='rgb(  0,   0, 230)'/>
	<use xlink:href='#gpPt12' transform='translate(395.90,373.68) scale(4.50)' color='rgb(  0,   0, 230)'/>
	<use xlink:href='#gpPt12' transform='translate(485.36,390.24) scale(4.50)' color='rgb(  0,   0, 230)'/>
	<use xlink:href='#gpPt12' transform='translate(574.82,401.31) scale(4.50)' color='rgb(  0,   0, 230)'/>
	<use xlink:href='#gpPt12' transform='translate(536.76,108.01) scale(4.50)' color='rgb(  0,   0, 230)'/>
</g>
	</g>
	<g id="gnuplot_plot_14" ><title>-preset slow</title>
<g fill="none" color="black" stroke="currentColor" stroke-width="1.00" stroke-linecap="butt" stroke-linejoin="miter">
	<g transform="translate(507.09,129.91)" stroke="none" fill="black" font-family="Arial" font-size="12.00"  text-anchor="end">
		<text><tspan font-family="Arial" >-preset slow</tspan></text>
	</g>
</g>
<g fill="none" color="black" stroke="currentColor" stroke-width="1.00" stroke-linecap="butt" stroke-linejoin="miter">
	<use xlink:href='#gpPt13' transform='translate(127.52,224.41) scale(4.50)' color='rgb(  0, 131, 230)'/>
	<use xlink:href='#gpPt13' transform='translate(216.98,306.75) scale(4.50)' color='rgb(  0, 131, 230)'/>
	<use xlink:href='#gpPt13' transform='translate(306.44,348.64) scale(4.50)' color='rgb(  0, 131, 230)'/>
	<use xlink:href='#gpPt13' transform='translate(395.90,373.81) scale(4.50)' color='rgb(  0, 131, 230)'/>
	<use xlink:href='#gpPt13' transform='translate(485.36,390.30) scale(4.50)' color='rgb(  0, 131, 230)'/>
	<use xlink:href='#gpPt13' transform='translate(574.82,401.33) scale(4.50)' color='rgb(  0, 131, 230)'/>
	<use xlink:href='#gpPt13' transform='translate(536.76,126.01) scale(4.50)' color='rgb(  0, 131, 230)'/>
</g>
	</g>
	<g id="gnuplot_plot_15" ><title>-preset medium</title>
<g fill="none" color="black" stroke="currentColor" stroke-width="1.00" stroke-linecap="butt" stroke-linejoin="miter">
	<g transform="translate(507.09,147.91)" stroke="none" fill="black" font-family="Arial" font-size="12.00"  text-anchor="end">
		<text><tspan font-family="Arial" >-preset medium</tspan></text>
	</g>
</g>
<g fill="none" color="black" stroke="currentColor" stroke-width="1.00" stroke-linecap="butt" stroke-linejoin="miter">
	<use xlink:href='#gpPt14' transform='translate(127.52,230.30) scale(4.50)' color='rgb(  0, 230, 197)'/>
	<use xlink:href='#gpPt14' transform='translate(216.98,308.34) scale(4.50)' color='rgb(  0, 230, 197)'/>
	<use xlink:href='#gpPt14' transform='translate(306.44,349.15) scale(4.50)' color='rgb(  0, 230, 197)'/>
	<use xlink:href='#gpPt14' transform='translate(395.90,374.05) scale(4.50)' color='rgb(  0, 230, 197)'/>
	<use xlink:href='#gpPt14' transform='translate(485.36,390.27) scale(4.50)' color='rgb(  0, 230, 197)'/>
	<use xlink:href='#gpPt14' transform='translate(574.82,401.09) scale(4.50)' color='rgb(  0, 230, 197)'/>
	<use xlink:href='#gpPt14' transform='translate(536.76,144.01) scale(4.50)' color='rgb(  0, 230, 197)'/>
</g>
	</g>
	<g id="gnuplot_plot_16" ><title>-preset fast</title>
<g fill="none" color="black" stroke="currentColor" stroke-width="1.00" stroke-linecap="butt" stroke-linejoin="miter">
	<g transform="translate(507.09,165.91)" stroke="none" fill="black" font-family="Arial" font-size="12.00"  text-anchor="end">
		<text><tspan font-family="Arial" >-preset fast</tspan></text>
	</g>
</g>
<g fill="none" color="black" stroke="currentColor" stroke-width="1.00" stroke-linecap="butt" stroke-linejoin="miter">
	<use xlink:href='#gpPt0' transform='translate(127.52,230.97) scale(4.50)' color='rgb(  0, 230,  66)'/>
	<use xlink:href='#gpPt0' transform='translate(216.98,310.47) scale(4.50)' color='rgb(  0, 230,  66)'/>
	<use xlink:href='#gpPt0' transform='translate(306.44,350.89) scale(4.50)' color='rgb(  0, 230,  66)'/>
	<use xlink:href='#gpPt0' transform='translate(395.90,375.35) scale(4.50)' color='rgb(  0, 230,  66)'/>
	<use xlink:href='#gpPt0' transform='translate(485.36,391.10) scale(4.50)' color='rgb(  0, 230,  66)'/>
	<use xlink:href='#gpPt0' transform='translate(574.82,401.49) scale(4.50)' color='rgb(  0, 230,  66)'/>
	<use xlink:href='#gpPt0' transform='translate(536.76,162.01) scale(4.50)' color='rgb(  0, 230,  66)'/>
</g>
	</g>
	<g id="gnuplot_plot_17" ><title>-preset faster</title>
<g fill="none" color="black" stroke="currentColor" stroke-width="1.00" stroke-linecap="butt" stroke-linejoin="miter">
	<g transform="translate(507.09,183.91)" stroke="none" fill="black" font-family="Arial" font-size="12.00"  text-anchor="end">
		<text><tspan font-family="Arial" >-preset faster</tspan></text>
	</g>
</g>
<g fill="none" color="black" stroke="currentColor" stroke-width="1.00" stroke-linecap="butt" stroke-linejoin="miter">
	<use xlink:href='#gpPt1' transform='translate(127.52,239.20) scale(4.50)' color='rgb( 66, 230,   0)'/>
	<use xlink:href='#gpPt1' transform='translate(216.98,314.36) scale(4.50)' color='rgb( 66, 230,   0)'/>
	<use xlink:href='#gpPt1' transform='translate(306.44,352.42) scale(4.50)' color='rgb( 66, 230,   0)'/>
	<use xlink:href='#gpPt1' transform='translate(395.90,376.09) scale(4.50)' color='rgb( 66, 230,   0)'/>
	<use xlink:href='#gpPt1' transform='translate(485.36,391.60) scale(4.50)' color='rgb( 66, 230,   0)'/>
	<use xlink:href='#gpPt1' transform='translate(574.82,401.83) scale(4.50)' color='rgb( 66, 230,   0)'/>
	<use xlink:href='#gpPt1' transform='translate(536.76,180.01) scale(4.50)' color='rgb( 66, 230,   0)'/>
</g>
	</g>
	<g id="gnuplot_plot_18" ><title>-preset veryfast</title>
<g fill="none" color="black" stroke="currentColor" stroke-width="1.00" stroke-linecap="butt" stroke-linejoin="miter">
	<g transform="translate(507.09,201.91)" stroke="none" fill="black" font-family="Arial" font-size="12.00"  text-anchor="end">
		<text><tspan font-family="Arial" >-preset veryfast</tspan></text>
	</g>
</g>
<g fill="none" color="black" stroke="currentColor" stroke-width="1.00" stroke-linecap="butt" stroke-linejoin="miter">
	<use xlink:href='#gpPt2' transform='translate(127.52,243.58) scale(4.50)' color='rgb(197, 230,   0)'/>
	<use xlink:href='#gpPt2' transform='translate(216.98,319.09) scale(4.50)' color='rgb(197, 230,   0)'/>
	<use xlink:href='#gpPt2' transform='translate(306.44,357.42) scale(4.50)' color='rgb(197, 230,   0)'/>
	<use xlink:href='#gpPt2' transform='translate(395.90,380.52) scale(4.50)' color='rgb(197, 230,   0)'/>
	<use xlink:href='#gpPt2' transform='translate(485.36,395.50) scale(4.50)' color='rgb(197, 230,   0)'/>
	<use xlink:href='#gpPt2' transform='translate(574.82,405.21) scale(4.50)' color='rgb(197, 230,   0)'/>
	<use xlink:href='#gpPt2' transform='translate(536.76,198.01) scale(4.50)' color='rgb(197, 230,   0)'/>
</g>
	</g>
	<g id="gnuplot_plot_19" ><title>-preset superfast</title>
<g fill="none" color="black" stroke="currentColor" stroke-width="1.00" stroke-linecap="butt" stroke-linejoin="miter">
	<g transform="translate(507.09,219.91)" stroke="none" fill="black" font-family="Arial" font-size="12.00"  text-anchor="end">
		<text><tspan font-family="Arial" >-preset superfast</tspan></text>
	</g>
</g>
<g fill="none" color="black" stroke="currentColor" stroke-width="1.00" stroke-linecap="butt" stroke-linejoin="miter">
	<use xlink:href='#gpPt3' transform='translate(127.52,250.29) scale(4.50)' color='rgb(230, 131,   0)'/>
	<use xlink:href='#gpPt3' transform='translate(216.98,321.40) scale(4.50)' color='rgb(230, 131,   0)'/>
	<use xlink:href='#gpPt3' transform='translate(306.44,359.51) scale(4.50)' color='rgb(230, 131,   0)'/>
	<use xlink:href='#gpPt3' transform='translate(395.90,382.55) scale(4.50)' color='rgb(230, 131,   0)'/>
	<use xlink:href='#gpPt3' transform='translate(485.36,397.53) scale(4.50)' color='rgb(230, 131,   0)'/>
	<use xlink:href='#gpPt3' transform='translate(574.82,406.92) scale(4.50)' color='rgb(230, 131,   0)'/>
	<use xlink:href='#gpPt3' transform='translate(536.76,216.01) scale(4.50)' color='rgb(230, 131,   0)'/>
</g>
	</g>
	<g id="gnuplot_plot_20" ><title>-preset ultrafast</title>
<g fill="none" color="black" stroke="currentColor" stroke-width="1.00" stroke-linecap="butt" stroke-linejoin="miter">
	<g transform="translate(507.09,237.91)" stroke="none" fill="black" font-family="Arial" font-size="12.00"  text-anchor="end">
		<text><tspan font-family="Arial" >-preset ultrafast</tspan></text>
	</g>
</g>
<g fill="none" color="black" stroke="currentColor" stroke-width="1.00" stroke-linecap="butt" stroke-linejoin="miter">
	<use xlink:href='#gpPt4' transform='translate(127.52,73.46) scale(4.50)' color='rgb(230,   0,   0)'/>
	<use xlink:href='#gpPt4' transform='translate(216.98,186.60) scale(4.50)' color='rgb(230,   0,   0)'/>
	<use xlink:href='#gpPt4' transform='translate(306.44,265.39) scale(4.50)' color='rgb(230,   0,   0)'/>
	<use xlink:href='#gpPt4' transform='translate(395.90,320.15) scale(4.50)' color='rgb(230,   0,   0)'/>
	<use xlink:href='#gpPt4' transform='translate(485.36,357.54) scale(4.50)' color='rgb(230,   0,   0)'/>
	<use xlink:href='#gpPt4' transform='translate(574.82,381.73) scale(4.50)' color='rgb(230,   0,   0)'/>
	<use xlink:href='#gpPt4' transform='translate(536.76,234.01) scale(4.50)' color='rgb(230,   0,   0)'/>
</g>
	</g>
<g fill="none" color="white" stroke="rgb(230,   0,   0)" stroke-width="2.00" stroke-linecap="butt" stroke-linejoin="miter">
</g>
<g fill="none" color="black" stroke="currentColor" stroke-width="2.00" stroke-linecap="butt" stroke-linejoin="miter">
</g>
<g fill="none" color="black" stroke="black" stroke-width="1.00" stroke-linecap="butt" stroke-linejoin="miter">
</g>
<g fill="none" color="black" stroke="currentColor" stroke-width="1.00" stroke-linecap="butt" stroke-linejoin="miter">
	<path stroke='black'  d='M97.70,54.01 L97.70,422.40 L574.82,422.40 L574.82,54.01 L97.70,54.01 Z  '/></g>
<g fill="none" color="black" stroke="currentColor" stroke-width="1.00" stroke-linecap="butt" stroke-linejoin="miter">
	<g transform="translate(336.26,30.91)" stroke="none" fill="black" font-family="Arial" font-size="12.00"  text-anchor="middle">
		<text>crowd_run - x264 crf x bitrate</text>
	</g>
</g>
<g fill="none" color="black" stroke="currentColor" stroke-width="1.00" stroke-linecap="butt" stroke-linejoin="miter">
</g>
</g>
</svg>

