<?xml version="1.0" encoding="UTF-8" standalone="no"?>
<svg
   xmlns:dc="http://purl.org/dc/elements/1.1/"
   xmlns:cc="http://creativecommons.org/ns#"
   xmlns:rdf="http://www.w3.org/1999/02/22-rdf-syntax-ns#"
   xmlns:svg="http://www.w3.org/2000/svg"
   xmlns="http://www.w3.org/2000/svg"
   xmlns:xlink="http://www.w3.org/1999/xlink"
   xmlns:sodipodi="http://sodipodi.sourceforge.net/DTD/sodipodi-0.dtd"
   xmlns:inkscape="http://www.inkscape.org/namespaces/inkscape"
   viewBox="0 0 252.04354 261.72442"
   version="1.1"
   id="svg1123"
   sodipodi:docname="not-coffee.svg"
   width="252.04353"
   height="261.72443"
   inkscape:version="1.0 (4035a4fb49, 2020-05-01)">
  <metadata
     id="metadata1127">
    <rdf:RDF>
      <cc:Work
         rdf:about="">
        <dc:format>image/svg+xml</dc:format>
        <dc:type
           rdf:resource="http://purl.org/dc/dcmitype/StillImage" />
        <dc:title></dc:title>
      </cc:Work>
    </rdf:RDF>
  </metadata>
  <sodipodi:namedview
     inkscape:document-rotation="0"
     pagecolor="#ffffff"
     bordercolor="#666666"
     borderopacity="1"
     objecttolerance="10"
     gridtolerance="10"
     guidetolerance="10"
     inkscape:pageopacity="0"
     inkscape:pageshadow="2"
     inkscape:window-width="1708"
     inkscape:window-height="944"
     id="namedview1125"
     showgrid="false"
     fit-margin-top="0"
     fit-margin-left="0"
     fit-margin-right="0"
     fit-margin-bottom="0"
     showguides="true"
     inkscape:guide-bbox="true"
     inkscape:zoom="1.2790313"
     inkscape:cx="216.31961"
     inkscape:cy="168.50799"
     inkscape:window-x="23"
     inkscape:window-y="15"
     inkscape:window-maximized="0"
     inkscape:current-layer="svg1123" />
  <defs
     id="defs1061">
    <linearGradient
       id="d">
      <stop
         stop-color="#e6e6e6"
         offset="0"
         id="stop1004" />
      <stop
         stop-color="#e6e6e6"
         stop-opacity="0"
         offset="1"
         id="stop1006" />
    </linearGradient>
    <linearGradient
       id="a">
      <stop
         stop-color="#fff"
         offset="0"
         id="stop1009" />
      <stop
         stop-color="#fff"
         stop-opacity="0"
         offset="1"
         id="stop1011" />
    </linearGradient>
    <linearGradient
       id="e">
      <stop
         stop-color="#cbf9ff"
         stop-opacity=".66327"
         offset="0"
         id="stop1014" />
      <stop
         stop-color="#fff2f2"
         stop-opacity="0"
         offset="1"
         id="stop1016" />
    </linearGradient>
    <linearGradient
       id="b">
      <stop
         stop-color="#999"
         offset="0"
         id="stop1019" />
      <stop
         stop-color="#999"
         stop-opacity="0"
         offset="1"
         id="stop1021" />
    </linearGradient>
    <linearGradient
       id="q"
       x1="-343.16"
       x2="-140.67"
       y1="652.23999"
       y2="588.09998"
       gradientTransform="matrix(0.22641,0,0.037977,0.22082,113.79,-6.2884)"
       gradientUnits="userSpaceOnUse">
      <stop
         stop-color="#999"
         offset="0"
         id="stop1024" />
      <stop
         stop-color="#fff"
         stop-opacity=".49804"
         offset=".5"
         id="stop1026" />
      <stop
         stop-color="#999"
         offset="1"
         id="stop1028" />
    </linearGradient>
    <linearGradient
       id="s"
       x1="300.66"
       x2="313.01999"
       y1="-95.043999"
       y2="-95.297997"
       gradientTransform="matrix(0.46981,0.5587,-0.11703,0.72053,-50.501,21.644)"
       gradientUnits="userSpaceOnUse"
       xlink:href="#d" />
    <linearGradient
       id="r"
       x1="179.97"
       x2="184.48"
       gradientTransform="matrix(0.72998,0,0.17708,0.70911,-53.455,20.031)"
       gradientUnits="userSpaceOnUse"
       xlink:href="#d" />
    <linearGradient
       id="p"
       x1="166.52"
       x2="162.22"
       y1="-51.689999"
       y2="130.8"
       gradientUnits="userSpaceOnUse"
       xlink:href="#e" />
    <linearGradient
       id="o"
       x1="109.95"
       x2="151.52"
       y1="21.308001"
       y2="121"
       gradientUnits="userSpaceOnUse"
       xlink:href="#e" />
    <linearGradient
       id="n"
       x1="678.73999"
       x2="564.28998"
       y1="318.04001"
       y2="253.78999"
       gradientTransform="matrix(-0.21042,0,0,0.21042,244.84,46.36)"
       gradientUnits="userSpaceOnUse"
       xlink:href="#b" />
    <linearGradient
       id="m"
       x1="230.61"
       x2="169.85001"
       y1="106.07"
       y2="102.77"
       gradientUnits="userSpaceOnUse"
       xlink:href="#b" />
    <linearGradient
       id="l"
       x1="96.204002"
       x2="139.19"
       gradientUnits="userSpaceOnUse"
       xlink:href="#b" />
    <radialGradient
       id="k"
       cx="66.015999"
       cy="302.75"
       r="18.358999"
       gradientTransform="matrix(1,0,0,0.87234,0,38.649)"
       gradientUnits="userSpaceOnUse">
      <stop
         stop-color="#e3b36a"
         offset="0"
         id="stop1038" />
      <stop
         stop-color="#e3b36a"
         stop-opacity="0"
         offset="1"
         id="stop1040" />
    </radialGradient>
    <radialGradient
       id="f"
       cx="137.38"
       cy="250.81"
       r="117.18"
       fx="118.3"
       fy="227.89999"
       gradientTransform="matrix(1,0,0,0.3319,0,167.56)"
       gradientUnits="userSpaceOnUse">
      <stop
         stop-opacity=".69072"
         offset="0"
         id="stop1043" />
      <stop
         stop-opacity="0"
         offset="1"
         id="stop1045" />
    </radialGradient>
    <radialGradient
       id="j"
       cx="101.51"
       cy="172.5"
       r="31.117001"
       fx="103.98"
       fy="159.87"
       gradientTransform="matrix(-0.88064,-1.4631,1.2303,-0.74053,-22.655,403.87)"
       gradientUnits="userSpaceOnUse">
      <stop
         stop-color="#e6e6e6"
         offset="0"
         id="stop1048" />
      <stop
         stop-color="#e6e6e6"
         offset=".5"
         id="stop1050" />
      <stop
         stop-color="#e6e6e6"
         offset=".75"
         id="stop1052" />
      <stop
         stop-color="#e6e6e6"
         stop-opacity="0"
         offset="1"
         id="stop1054" />
    </radialGradient>
    <radialGradient
       id="g"
       cx="-240.85001"
       cy="-2034.8"
       r="127.14"
       fx="-212.82001"
       fy="-1987.7"
       gradientTransform="matrix(-0.65815,-0.17586,0.5135,-0.16844,642.11,-2400.2)"
       gradientUnits="userSpaceOnUse"
       xlink:href="#a" />
    <radialGradient
       id="c"
       cx="-520.71002"
       cy="-2546.8999"
       r="26.429001"
       gradientTransform="matrix(1,0,0,0.83784,0,-413.01)"
       gradientUnits="userSpaceOnUse"
       xlink:href="#a" />
    <radialGradient
       id="i"
       cx="-265.85999"
       cy="-2031.6"
       r="127.14"
       fx="-314.60999"
       fy="-2371.3"
       gradientTransform="matrix(-0.26233,0.0079604,-0.0072074,-0.049817,85.475,33.733)"
       gradientUnits="userSpaceOnUse"
       xlink:href="#a" />
    <radialGradient
       id="h"
       cx="-309.29001"
       cy="-2076.2"
       r="150.71001"
       fx="-312.14001"
       fy="-2205.1001"
       gradientTransform="matrix(0.33282,-5.7844e-4,-0.0015784,-0.363,268.82,-588.85)"
       gradientUnits="userSpaceOnUse"
       xlink:href="#a" />
    <radialGradient
       inkscape:collect="always"
       xlink:href="#a"
       id="radialGradient1743"
       gradientUnits="userSpaceOnUse"
       gradientTransform="matrix(1,0,0,0.83784,0,-413.01)"
       cx="-520.71002"
       cy="-2546.8999"
       r="26.429001" />
  </defs>
  <g
     transform="translate(-2.5815717,20.164721)"
     id="g1121">
    <path
       transform="matrix(0.70503,0,0,0.94449,58.38,-32.06)"
       d="m 278.35,250.81 a 140.97,38.891 0 1 1 -281.94,0 140.97,38.891 0 1 1 281.94,0 z"
       fill="url(#f)"
       fill-rule="evenodd"
       id="path1063"
       style="fill:url(#f)" />
    <path
       transform="matrix(3.513,0,0,2.1336,46.53,-212.52)"
       d="m 45.714,193.08 a 11.429,12.143 0 1 1 -5e-5,-0.0373 l -11.429,0.0373 z"
       fill="#999999"
       fill-rule="evenodd"
       id="path1065" />
    <g
       transform="matrix(0.21042,0,0,0.21042,87.788,47.563)"
       fill="#cccccc"
       id="g1073">
      <g
         fill="#cccccc"
         fill-rule="evenodd"
         id="g1071">
        <path
           d="m 374.91,68.393 c -190.83,0 -345.72,79.763 -345.72,178.06 0,14.227 3.2785,28.079 9.4062,41.344 l 131.97,420.41 c 14.369,70.803 100.09,125.25 203.59,125.25 31.381,0 61.128,-5.005 87.747,-13.953 61.102,-20.54 105.73,-61.857 115.82,-111.11 h 0.1875 l 137.12,-426.09 h -1.4062 c 4.5979,-11.577 7,-23.57 7,-35.844 0,-98.3 -154.88,-178.06 -345.72,-178.06 z"
           id="path1067" />
        <path
           d="m 713.33,283.59 3.0538,-12.644 2.4244,-14.532"
           stroke="#dadada"
           stroke-width="2.5392"
           id="path1069" />
      </g>
    </g>
    <path
       transform="matrix(0.18723,0,0,0.091773,403.51,114.52)"
       d="m -1434.7,145.17 c 251.14,145.14 553.42,-31.266 544.04,-321.18 -9.5623,-295.49 -308.43,-457.47 -564.53,-309.75 -251.26,144.93 -249.63,494.91 6.1299,631.74 260.68,139.46 550.39,-38.378 550.52,-334.02 0.12268,-290.06 -303.79,-463.64 -550.17,-310.56 -251.12,156.03 -241.96,495.84 14.015,643.78 z"
       fill="#ffffff"
       fill-rule="evenodd"
       id="path1075" />
    <path
       d="m 96.204,108.48 c 0,0 5.5757,10.446 18.637,18.336 21.85,8.9546 23.447,7.8155 23.447,7.8155 l 9.9197,85.069 c 0,0 -7.9232,-2.9466 -13.635,-6.9295 -5.7118,-3.9829 -9.812,-12.309 -9.812,-12.309 l -28.557,-91.983 z"
       fill="url(#l)"
       fill-rule="evenodd"
       id="path1077"
       style="fill:url(#l)" />
    <path
       d="m 124.23,210.98 42.791,10.656 50.4,-11.257 1.4264,-74.849 c 0,0 -34.385,2.9807 -53.878,3.1119 -20.92,0 -45.019,-3.7131 -45.019,-3.7131 l 4.2792,76.051 z"
       fill="url(#h)"
       fill-rule="evenodd"
       id="path1079"
       style="fill:url(#h)" />
    <path
       d="m 163.24,149.36 c -14.768,0 -26.753,-8.4841 -26.753,-18.938 0,-10.4539 12.426,-22.519 26.753,-18.938 l 51.703,12.926 c -17.861,8.728 -28.706,21.952 -51.703,24.95 z"
       fill="url(#i)"
       fill-rule="evenodd"
       id="path1081"
       style="fill:url(#i)" />
    <path
       transform="matrix(0.20599,0.012887,0,0.4087,212.13,900.79)"
       d="m -124.29,-2016.9 a 127.14,45 0 1 1 -7.7e-4,-0.1566 l -127.14,0.1566 z"
       fill="url(#g)"
       fill-rule="evenodd"
       id="path1083"
       style="fill:url(#g)" />
    <path
       d="m 199.89,86.522 c -30.689,-2.4048 -92.866,5.3619 -94.862,19.768 5.5434,11.486 33.201,23.833 62.862,23.833 30.089,0 65.141,-16.234 62.588,-27.638 -0.14374,3.182 -0.62356,-12.657 -30.588,-15.964 z"
       fill="url(#m)"
       fill-rule="evenodd"
       id="path1085"
       style="fill:url(#m)" />
    <path
       transform="matrix(0.23847,0,0,0.046029,232.38,249.72)"
       d="m -192.86,-2513.4 a 64.286,45.714 0 1 1 -3e-4,-0.1403 l -64.285,0.1403 z"
       fill="#ffffff"
       fill-rule="evenodd"
       id="path1087" />
    <path
       d="m 161.18,142.51 h 20.606 l -8.7318,69.303 -9.2712,-3.0012 -2.603,-66.301 z"
       fill="#ffffff"
       fill-rule="evenodd"
       stroke="#ffffff"
       stroke-dasharray="0.294583, 0.294583"
       stroke-width="2.9458"
       id="path1089" />
    <path
       transform="matrix(0.12859,0,0,0.020065,196.6,115.71)"
       d="m -192.86,-2513.4 a 64.286,45.714 0 1 1 -3e-4,-0.1403 l -64.285,0.1403 z"
       fill="#ffffff"
       fill-rule="evenodd"
       id="path1091" />
    <path
       d="m 153.78,67.885 c 26.455,0 61.917,17.625 71.45,31.673 1.3089,1.9289 2.1289,3.7903 2.3698,5.5295 -5.5433,11.486 -33.201,23.833 -62.862,23.833 -30.089,0 -63.638,-17.136 -61.085,-28.54 4.0515,-15.455 28.279,-17.767 50.127,-32.496 z"
       fill="url(#n)"
       fill-rule="evenodd"
       id="path1093"
       style="fill:url(#n)" />
    <g
       transform="matrix(0.72998,0,0,0.72998,9.9506,-110.66)"
       fill-rule="evenodd"
       id="g1099">
      <path
         d="m 216.61,280.46 c -33.143,0 -55.794,10.192 -73.96,26.297 10.426,11.764 39.846,-11.906 73.006,-11.906 34.444,0 67.297,23.561 76.675,11.083 C 271.788,287.459 251.096,280.46 216.61,280.46 Z"
         fill="#be8124"
         id="path1095" />
      <path
         d="m 215.91,283.91 c -32.24,0 -53.896,10.619 -70.407,25.603 14.562,10.615 36.606,17.607 68.863,17.607 33.506,0 59.754,-6.8094 75.23,-19.225 C 270.7,290.613 246.855,283.91 215.91,283.91 Z"
         fill="#28170b"
         id="path1097" />
    </g>
    <path
       transform="matrix(1.0561,0,0,0.72998,88.7,-113.15)"
       d="m 84.375,302.75 a 18.359,16.016 0 1 1 -9e-5,-0.0492 l -18.359,0.0492 z"
       fill="url(#k)"
       fill-rule="evenodd"
       opacity="0.5"
       id="path1101"
       style="fill:url(#k)" />
    <path
       d="m 150.4,24.9 c 30.422,11.706 5.255,91.387 3.4218,96.097 -10.604,-5.9363 -8.8116,-44.028 -24.815,-40.764 -25.264,5.1521 39.554,-34.487 21.394,-55.333 z"
       fill="url(#o)"
       fill-rule="evenodd"
       id="path1103"
       style="fill:url(#o)" />
    <path
       d="m 146.79,38.863 c 7.1939,-24.17 -14.31,38.357 -27.316,54.133 10.931,27.67 36.119,21.827 47.051,44.431 0,0 -27.76,-39.342 -19.719,-56.426 8.041,-17.084 -0.0153,-42.138 -0.0153,-42.138 z"
       fill="url(#p)"
       fill-rule="evenodd"
       id="path1105"
       style="fill:url(#p)" />
    <path
       transform="matrix(0.1449,-0.056785,0.014618,0.083536,206.83,333.76)"
       d="m -494.29,-2546.9 a 26.429,22.143 0 1 1 -1.3e-4,-0.068 l -26.428,0.068 z"
       fill="url(#c)"
       fill-rule="evenodd"
       id="path1107"
       style="fill:url(#radialGradient1743)" />
    <path
       d="m 73.089,107.46 c -6.18,1.8163 -16.234,8.6577 -16.753,22.434 0.33514,9.7619 7.5471,22.021 22.095,25.045 15.033,3.1253 27.96,-8.6711 25.549,-22.688 -1.0631,-6.1812 1.0554,-5.4905 -2.3542,-10.342 -0.536,-0.76262 -3.1731,-9.1731 -4.5289,-11.565 -0.49762,-0.87783 -0.25445,0.83036 -0.60954,1.3454 -0.60713,0.31337 -1.2024,-0.0307 -1.6931,-0.43462 -3.5578,-2.9286 -11.412,-6.0923 -21.705,-3.7947 z m 4.0426,7.8922 c 9.8195,0 18.567,4.2466 20.133,13.354 1.566,9.1074 -6.697,18.523 -16.685,15.875 -11.512,-3.0525 -11.468,-10.362 -11.604,-11.617 -1.0497,-9.6248 -1.6633,-17.611 8.1562,-17.611 z"
       fill="url(#q)"
       fill-rule="evenodd"
       id="path1109"
       style="fill:url(#q)" />
    <path
       d="m 81.78,112.33 c -13.381,0.36171 -24.785,11.388 -21.991,24.933 5.1047,20.806 25.144,18.614 38.552,29.792 13.019,13.394 18.979,25.686 18.979,25.686 l 4.1518,2.4865 c -5.1319,-21.781 -10.584,-43.486 -16.105,-65.173 -3.4336,-13.642 -8.2575,-17.458 -22.287,-17.725 -0.43843,-0.008 -0.86864,-0.0117 -1.3003,0 z m 2.1752,6.9054 c 9.7355,-1e-5 17.526,5.6465 18.378,14.606 0.852,8.9595 -6.3696,16.242 -16.105,16.242 -9.7354,0 -16.294,-6.4758 -17.146,-15.435 -0.852,-8.9592 5.137,-15.413 14.873,-15.413 z"
       fill="url(#j)"
       fill-rule="evenodd"
       stroke="#dadada"
       stroke-width="0.06871"
       id="path1111"
       style="fill:url(#j)" />
    <path
       transform="matrix(0.1449,-0.056785,0.014618,0.083536,186.67,297.47)"
       d="m -494.29,-2546.9 a 26.429,22.143 0 1 1 -1.3e-4,-0.068 l -26.428,0.068 z"
       fill="url(#c)"
       fill-rule="evenodd"
       id="path1113"
       style="fill:url(#c)" />
    <path
       d="m 101.73,120.43 c 0,0 2.9074,3.2437 3.0959,3.4277 13.38,13.056 18.68,71.78 18.68,71.78 l -2.2894,-0.60488 -19.487,-74.603 z"
       fill="url(#r)"
       fill-rule="evenodd"
       id="path1115"
       style="fill:url(#r)" />
    <path
       d="m 98.368,116.31 c 0,0 1.5026,0.86544 3.1846,2.6716 1.6325,1.7529 4.2493,5.2588 4.2493,5.2588 l 1.9107,2.9311 -6.9299,-7.8296 -2.4148,-3.0319 z"
       fill="url(#s)"
       fill-rule="evenodd"
       id="path1117"
       style="fill:url(#s)" />
    <path
       d="m 84.533,159.03 c 4.4438,1.8805 8.8709,4.0157 12.803,7.2364 13.632,13.662 20.154,26.2 20.154,26.2 l 4.2655,2.5362 c -3.313,-12.011 -6.7314,-23.998 -10.19,-35.973 h -27.032 z"
       fill="#e6e6e6"
       fill-rule="evenodd"
       id="path1119" />
  </g>
  <g
     aria-label="!"
     id="text1749"
     style="font-style:normal;font-variant:normal;font-weight:normal;font-stretch:normal;font-size:327.89px;line-height:100%;font-family:'Gentium Plus';-inkscape-font-specification:'Gentium Plus, Normal';font-variant-ligatures:normal;font-variant-caps:normal;font-variant-numeric:normal;font-variant-east-asian:normal;letter-spacing:0px;word-spacing:0px;fill:#c79c60;fill-opacity:1;stroke:none;stroke-width:30.7397px;stroke-linecap:butt;stroke-linejoin:miter;stroke-opacity:1"
     transform="translate(-10,-9.9999986)">
    <path
       d="m 48.104406,227.25915 q 0,5.60359 -1.761128,10.40667 -1.601025,4.64297 -4.642973,8.16523 -2.881846,3.52226 -7.044512,5.44349 -4.002564,2.08133 -8.645538,2.08133 -8.645537,0 -12.327896,-4.64298 Q 10,244.06992 10,235.42438 q 0,-5.44348 1.761128,-10.08646 1.761128,-4.80307 4.803077,-8.32533 3.041948,-3.68236 7.044512,-5.76369 4.162666,-2.08133 8.645537,-2.08133 8.005128,0 11.847589,4.80307 4.002563,4.64298 4.002563,13.28851 z M 37.857844,184.67188 q -3.041949,2.24143 -5.443487,3.68236 -2.401538,1.28082 -6.404102,2.56164 L 21.367281,187.55372 13.842462,23.128407 q 6.083896,-4.002563 12.808203,-7.364717 6.724307,-3.522256 12.167794,-5.7636914 l 6.884409,4.0025634 z"
       style="font-style:normal;font-variant:normal;font-weight:normal;font-stretch:normal;font-size:327.89px;font-family:'Gentium Plus';-inkscape-font-specification:'Gentium Plus, Normal';font-variant-ligatures:normal;font-variant-caps:normal;font-variant-numeric:normal;font-variant-east-asian:normal;fill:#c79c60;fill-opacity:1;stroke-width:30.7397px"
       id="path2030" />
  </g>
</svg>
