<?xml version="1.0" encoding="utf-8"  standalone="no"?>
<svg 
 viewBox="0 0 600 480"
 xmlns="http://www.w3.org/2000/svg"
 xmlns:xlink="http://www.w3.org/1999/xlink"
>

<title>Gnuplot</title>
<desc>Produced by GNUPLOT 5.4 patchlevel 1 </desc>

<g id="gnuplot_canvas">

<rect x="0" y="0" width="600" height="480" fill="none"/>
<defs>

	<circle id='gpDot' r='0.5' stroke-width='0.5' stroke='currentColor'/>
	<path id='gpPt0' stroke-width='0.222' stroke='currentColor' d='M-1,0 h2 M0,-1 v2'/>
	<path id='gpPt1' stroke-width='0.222' stroke='currentColor' d='M-1,-1 L1,1 M1,-1 L-1,1'/>
	<path id='gpPt2' stroke-width='0.222' stroke='currentColor' d='M-1,0 L1,0 M0,-1 L0,1 M-1,-1 L1,1 M-1,1 L1,-1'/>
	<rect id='gpPt3' stroke-width='0.222' stroke='currentColor' x='-1' y='-1' width='2' height='2'/>
	<rect id='gpPt4' stroke-width='0.222' stroke='currentColor' fill='currentColor' x='-1' y='-1' width='2' height='2'/>
	<circle id='gpPt5' stroke-width='0.222' stroke='currentColor' cx='0' cy='0' r='1'/>
	<use xlink:href='#gpPt5' id='gpPt6' fill='currentColor' stroke='none'/>
	<path id='gpPt7' stroke-width='0.222' stroke='currentColor' d='M0,-1.33 L-1.33,0.67 L1.33,0.67 z'/>
	<use xlink:href='#gpPt7' id='gpPt8' fill='currentColor' stroke='none'/>
	<use xlink:href='#gpPt7' id='gpPt9' stroke='currentColor' transform='rotate(180)'/>
	<use xlink:href='#gpPt9' id='gpPt10' fill='currentColor' stroke='none'/>
	<use xlink:href='#gpPt3' id='gpPt11' stroke='currentColor' transform='rotate(45)'/>
	<use xlink:href='#gpPt11' id='gpPt12' fill='currentColor' stroke='none'/>
	<path id='gpPt13' stroke-width='0.222' stroke='currentColor' d='M0,1.330 L1.265,0.411 L0.782,-1.067 L-0.782,-1.076 L-1.265,0.411 z'/>
	<use xlink:href='#gpPt13' id='gpPt14' fill='currentColor' stroke='none'/>
	<filter id='textbox' filterUnits='objectBoundingBox' x='0' y='0' height='1' width='1'>
	  <feFlood flood-color='white' flood-opacity='1' result='bgnd'/>
	  <feComposite in='SourceGraphic' in2='bgnd' operator='atop'/>
	</filter>
	<filter id='greybox' filterUnits='objectBoundingBox' x='0' y='0' height='1' width='1'>
	  <feFlood flood-color='lightgrey' flood-opacity='1' result='grey'/>
	  <feComposite in='SourceGraphic' in2='grey' operator='atop'/>
	</filter>
</defs>
<g fill="none" color="white" stroke="currentColor" stroke-width="1.00" stroke-linecap="butt" stroke-linejoin="miter">
</g>
<g fill="none" color="black" stroke="currentColor" stroke-width="1.00" stroke-linecap="butt" stroke-linejoin="miter">
</g>
<g fill="none" color="black" stroke="black" stroke-width="0.50" stroke-linecap="butt" stroke-linejoin="miter">
</g>
<g fill="none" color="black" stroke="currentColor" stroke-width="0.50" stroke-linecap="butt" stroke-linejoin="miter">
	<path stroke='rgb(221, 221, 221)' class="gridline"  d='M72.53,422.40 L574.82,422.40  '/></g>
<g fill="none" color="black" stroke="rgb(221, 221, 221)" stroke-width="1.00" stroke-linecap="butt" stroke-linejoin="miter">
</g>
<g fill="none" color="black" stroke="currentColor" stroke-width="1.00" stroke-linecap="butt" stroke-linejoin="miter">
	<path stroke='black'  d='M72.53,422.40 L81.53,422.40 M574.82,422.40 L565.82,422.40  '/>	<g transform="translate(64.14,426.30)" stroke="none" fill="black" font-family="Arial" font-size="12.00"  text-anchor="end">
		<text><tspan font-family="Arial" > 40</tspan></text>
	</g>
</g>
<g fill="none" color="black" stroke="currentColor" stroke-width="1.00" stroke-linecap="butt" stroke-linejoin="miter">
</g>
<g fill="none" color="black" stroke="black" stroke-width="0.50" stroke-linecap="butt" stroke-linejoin="miter">
</g>
<g fill="none" color="black" stroke="currentColor" stroke-width="0.50" stroke-linecap="butt" stroke-linejoin="miter">
	<path stroke='rgb(221, 221, 221)' class="gridline"  d='M72.53,410.12 L80.92,410.12 M215.77,410.12 L574.82,410.12  '/></g>
<g fill="none" color="black" stroke="rgb(221, 221, 221)" stroke-width="1.00" stroke-linecap="butt" stroke-linejoin="miter">
</g>
<g fill="none" color="black" stroke="currentColor" stroke-width="1.00" stroke-linecap="butt" stroke-linejoin="miter">
	<path stroke='black'  d='M72.53,410.12 L77.03,410.12 M574.82,410.12 L570.32,410.12  '/></g>
<g fill="none" color="black" stroke="black" stroke-width="0.50" stroke-linecap="butt" stroke-linejoin="miter">
</g>
<g fill="none" color="black" stroke="currentColor" stroke-width="0.50" stroke-linecap="butt" stroke-linejoin="miter">
	<path stroke='rgb(221, 221, 221)' class="gridline"  d='M72.53,397.84 L80.92,397.84 M215.77,397.84 L574.82,397.84  '/></g>
<g fill="none" color="black" stroke="rgb(221, 221, 221)" stroke-width="1.00" stroke-linecap="butt" stroke-linejoin="miter">
</g>
<g fill="none" color="black" stroke="currentColor" stroke-width="1.00" stroke-linecap="butt" stroke-linejoin="miter">
	<path stroke='black'  d='M72.53,397.84 L77.03,397.84 M574.82,397.84 L570.32,397.84  '/></g>
<g fill="none" color="black" stroke="black" stroke-width="0.50" stroke-linecap="butt" stroke-linejoin="miter">
</g>
<g fill="none" color="black" stroke="currentColor" stroke-width="0.50" stroke-linecap="butt" stroke-linejoin="miter">
	<path stroke='rgb(221, 221, 221)' class="gridline"  d='M72.53,385.56 L80.92,385.56 M215.77,385.56 L574.82,385.56  '/></g>
<g fill="none" color="black" stroke="rgb(221, 221, 221)" stroke-width="1.00" stroke-linecap="butt" stroke-linejoin="miter">
</g>
<g fill="none" color="black" stroke="currentColor" stroke-width="1.00" stroke-linecap="butt" stroke-linejoin="miter">
	<path stroke='black'  d='M72.53,385.56 L77.03,385.56 M574.82,385.56 L570.32,385.56  '/></g>
<g fill="none" color="black" stroke="black" stroke-width="0.50" stroke-linecap="butt" stroke-linejoin="miter">
</g>
<g fill="none" color="black" stroke="currentColor" stroke-width="0.50" stroke-linecap="butt" stroke-linejoin="miter">
	<path stroke='rgb(221, 221, 221)' class="gridline"  d='M72.53,373.28 L80.92,373.28 M215.77,373.28 L574.82,373.28  '/></g>
<g fill="none" color="black" stroke="rgb(221, 221, 221)" stroke-width="1.00" stroke-linecap="butt" stroke-linejoin="miter">
</g>
<g fill="none" color="black" stroke="currentColor" stroke-width="1.00" stroke-linecap="butt" stroke-linejoin="miter">
	<path stroke='black'  d='M72.53,373.28 L77.03,373.28 M574.82,373.28 L570.32,373.28  '/></g>
<g fill="none" color="black" stroke="black" stroke-width="0.50" stroke-linecap="butt" stroke-linejoin="miter">
</g>
<g fill="none" color="black" stroke="currentColor" stroke-width="0.50" stroke-linecap="butt" stroke-linejoin="miter">
	<path stroke='rgb(221, 221, 221)' class="gridline"  d='M72.53,361.00 L80.92,361.00 M215.77,361.00 L574.82,361.00  '/></g>
<g fill="none" color="black" stroke="rgb(221, 221, 221)" stroke-width="1.00" stroke-linecap="butt" stroke-linejoin="miter">
</g>
<g fill="none" color="black" stroke="currentColor" stroke-width="1.00" stroke-linecap="butt" stroke-linejoin="miter">
	<path stroke='black'  d='M72.53,361.00 L81.53,361.00 M574.82,361.00 L565.82,361.00  '/>	<g transform="translate(64.14,364.90)" stroke="none" fill="black" font-family="Arial" font-size="12.00"  text-anchor="end">
		<text><tspan font-family="Arial" > 50</tspan></text>
	</g>
</g>
<g fill="none" color="black" stroke="currentColor" stroke-width="1.00" stroke-linecap="butt" stroke-linejoin="miter">
</g>
<g fill="none" color="black" stroke="black" stroke-width="0.50" stroke-linecap="butt" stroke-linejoin="miter">
</g>
<g fill="none" color="black" stroke="currentColor" stroke-width="0.50" stroke-linecap="butt" stroke-linejoin="miter">
	<path stroke='rgb(221, 221, 221)' class="gridline"  d='M72.53,348.72 L80.92,348.72 M215.77,348.72 L574.82,348.72  '/></g>
<g fill="none" color="black" stroke="rgb(221, 221, 221)" stroke-width="1.00" stroke-linecap="butt" stroke-linejoin="miter">
</g>
<g fill="none" color="black" stroke="currentColor" stroke-width="1.00" stroke-linecap="butt" stroke-linejoin="miter">
	<path stroke='black'  d='M72.53,348.72 L77.03,348.72 M574.82,348.72 L570.32,348.72  '/></g>
<g fill="none" color="black" stroke="black" stroke-width="0.50" stroke-linecap="butt" stroke-linejoin="miter">
</g>
<g fill="none" color="black" stroke="currentColor" stroke-width="0.50" stroke-linecap="butt" stroke-linejoin="miter">
	<path stroke='rgb(221, 221, 221)' class="gridline"  d='M72.53,336.44 L80.92,336.44 M215.77,336.44 L574.82,336.44  '/></g>
<g fill="none" color="black" stroke="rgb(221, 221, 221)" stroke-width="1.00" stroke-linecap="butt" stroke-linejoin="miter">
</g>
<g fill="none" color="black" stroke="currentColor" stroke-width="1.00" stroke-linecap="butt" stroke-linejoin="miter">
	<path stroke='black'  d='M72.53,336.44 L77.03,336.44 M574.82,336.44 L570.32,336.44  '/></g>
<g fill="none" color="black" stroke="black" stroke-width="0.50" stroke-linecap="butt" stroke-linejoin="miter">
</g>
<g fill="none" color="black" stroke="currentColor" stroke-width="0.50" stroke-linecap="butt" stroke-linejoin="miter">
	<path stroke='rgb(221, 221, 221)' class="gridline"  d='M72.53,324.16 L80.92,324.16 M215.77,324.16 L574.82,324.16  '/></g>
<g fill="none" color="black" stroke="rgb(221, 221, 221)" stroke-width="1.00" stroke-linecap="butt" stroke-linejoin="miter">
</g>
<g fill="none" color="black" stroke="currentColor" stroke-width="1.00" stroke-linecap="butt" stroke-linejoin="miter">
	<path stroke='black'  d='M72.53,324.16 L77.03,324.16 M574.82,324.16 L570.32,324.16  '/></g>
<g fill="none" color="black" stroke="black" stroke-width="0.50" stroke-linecap="butt" stroke-linejoin="miter">
</g>
<g fill="none" color="black" stroke="currentColor" stroke-width="0.50" stroke-linecap="butt" stroke-linejoin="miter">
	<path stroke='rgb(221, 221, 221)' class="gridline"  d='M72.53,311.88 L80.92,311.88 M215.77,311.88 L574.82,311.88  '/></g>
<g fill="none" color="black" stroke="rgb(221, 221, 221)" stroke-width="1.00" stroke-linecap="butt" stroke-linejoin="miter">
</g>
<g fill="none" color="black" stroke="currentColor" stroke-width="1.00" stroke-linecap="butt" stroke-linejoin="miter">
	<path stroke='black'  d='M72.53,311.88 L77.03,311.88 M574.82,311.88 L570.32,311.88  '/></g>
<g fill="none" color="black" stroke="black" stroke-width="0.50" stroke-linecap="butt" stroke-linejoin="miter">
</g>
<g fill="none" color="black" stroke="currentColor" stroke-width="0.50" stroke-linecap="butt" stroke-linejoin="miter">
	<path stroke='rgb(221, 221, 221)' class="gridline"  d='M72.53,299.60 L80.92,299.60 M215.77,299.60 L574.82,299.60  '/></g>
<g fill="none" color="black" stroke="rgb(221, 221, 221)" stroke-width="1.00" stroke-linecap="butt" stroke-linejoin="miter">
</g>
<g fill="none" color="black" stroke="currentColor" stroke-width="1.00" stroke-linecap="butt" stroke-linejoin="miter">
	<path stroke='black'  d='M72.53,299.60 L81.53,299.60 M574.82,299.60 L565.82,299.60  '/>	<g transform="translate(64.14,303.50)" stroke="none" fill="black" font-family="Arial" font-size="12.00"  text-anchor="end">
		<text><tspan font-family="Arial" > 60</tspan></text>
	</g>
</g>
<g fill="none" color="black" stroke="currentColor" stroke-width="1.00" stroke-linecap="butt" stroke-linejoin="miter">
</g>
<g fill="none" color="black" stroke="black" stroke-width="0.50" stroke-linecap="butt" stroke-linejoin="miter">
</g>
<g fill="none" color="black" stroke="currentColor" stroke-width="0.50" stroke-linecap="butt" stroke-linejoin="miter">
	<path stroke='rgb(221, 221, 221)' class="gridline"  d='M72.53,287.32 L80.92,287.32 M215.77,287.32 L574.82,287.32  '/></g>
<g fill="none" color="black" stroke="rgb(221, 221, 221)" stroke-width="1.00" stroke-linecap="butt" stroke-linejoin="miter">
</g>
<g fill="none" color="black" stroke="currentColor" stroke-width="1.00" stroke-linecap="butt" stroke-linejoin="miter">
	<path stroke='black'  d='M72.53,287.32 L77.03,287.32 M574.82,287.32 L570.32,287.32  '/></g>
<g fill="none" color="black" stroke="black" stroke-width="0.50" stroke-linecap="butt" stroke-linejoin="miter">
</g>
<g fill="none" color="black" stroke="currentColor" stroke-width="0.50" stroke-linecap="butt" stroke-linejoin="miter">
	<path stroke='rgb(221, 221, 221)' class="gridline"  d='M72.53,275.04 L80.92,275.04 M215.77,275.04 L574.82,275.04  '/></g>
<g fill="none" color="black" stroke="rgb(221, 221, 221)" stroke-width="1.00" stroke-linecap="butt" stroke-linejoin="miter">
</g>
<g fill="none" color="black" stroke="currentColor" stroke-width="1.00" stroke-linecap="butt" stroke-linejoin="miter">
	<path stroke='black'  d='M72.53,275.04 L77.03,275.04 M574.82,275.04 L570.32,275.04  '/></g>
<g fill="none" color="black" stroke="black" stroke-width="0.50" stroke-linecap="butt" stroke-linejoin="miter">
</g>
<g fill="none" color="black" stroke="currentColor" stroke-width="0.50" stroke-linecap="butt" stroke-linejoin="miter">
	<path stroke='rgb(221, 221, 221)' class="gridline"  d='M72.53,262.76 L80.92,262.76 M215.77,262.76 L574.82,262.76  '/></g>
<g fill="none" color="black" stroke="rgb(221, 221, 221)" stroke-width="1.00" stroke-linecap="butt" stroke-linejoin="miter">
</g>
<g fill="none" color="black" stroke="currentColor" stroke-width="1.00" stroke-linecap="butt" stroke-linejoin="miter">
	<path stroke='black'  d='M72.53,262.76 L77.03,262.76 M574.82,262.76 L570.32,262.76  '/></g>
<g fill="none" color="black" stroke="black" stroke-width="0.50" stroke-linecap="butt" stroke-linejoin="miter">
</g>
<g fill="none" color="black" stroke="currentColor" stroke-width="0.50" stroke-linecap="butt" stroke-linejoin="miter">
	<path stroke='rgb(221, 221, 221)' class="gridline"  d='M72.53,250.48 L80.92,250.48 M215.77,250.48 L574.82,250.48  '/></g>
<g fill="none" color="black" stroke="rgb(221, 221, 221)" stroke-width="1.00" stroke-linecap="butt" stroke-linejoin="miter">
</g>
<g fill="none" color="black" stroke="currentColor" stroke-width="1.00" stroke-linecap="butt" stroke-linejoin="miter">
	<path stroke='black'  d='M72.53,250.48 L77.03,250.48 M574.82,250.48 L570.32,250.48  '/></g>
<g fill="none" color="black" stroke="black" stroke-width="0.50" stroke-linecap="butt" stroke-linejoin="miter">
</g>
<g fill="none" color="black" stroke="currentColor" stroke-width="0.50" stroke-linecap="butt" stroke-linejoin="miter">
	<path stroke='rgb(221, 221, 221)' class="gridline"  d='M72.53,238.20 L80.92,238.20 M215.77,238.20 L574.82,238.20  '/></g>
<g fill="none" color="black" stroke="rgb(221, 221, 221)" stroke-width="1.00" stroke-linecap="butt" stroke-linejoin="miter">
</g>
<g fill="none" color="black" stroke="currentColor" stroke-width="1.00" stroke-linecap="butt" stroke-linejoin="miter">
	<path stroke='black'  d='M72.53,238.20 L81.53,238.20 M574.82,238.20 L565.82,238.20  '/>	<g transform="translate(64.14,242.10)" stroke="none" fill="black" font-family="Arial" font-size="12.00"  text-anchor="end">
		<text><tspan font-family="Arial" > 70</tspan></text>
	</g>
</g>
<g fill="none" color="black" stroke="currentColor" stroke-width="1.00" stroke-linecap="butt" stroke-linejoin="miter">
</g>
<g fill="none" color="black" stroke="black" stroke-width="0.50" stroke-linecap="butt" stroke-linejoin="miter">
</g>
<g fill="none" color="black" stroke="currentColor" stroke-width="0.50" stroke-linecap="butt" stroke-linejoin="miter">
	<path stroke='rgb(221, 221, 221)' class="gridline"  d='M72.53,225.93 L80.92,225.93 M215.77,225.93 L574.82,225.93  '/></g>
<g fill="none" color="black" stroke="rgb(221, 221, 221)" stroke-width="1.00" stroke-linecap="butt" stroke-linejoin="miter">
</g>
<g fill="none" color="black" stroke="currentColor" stroke-width="1.00" stroke-linecap="butt" stroke-linejoin="miter">
	<path stroke='black'  d='M72.53,225.93 L77.03,225.93 M574.82,225.93 L570.32,225.93  '/></g>
<g fill="none" color="black" stroke="black" stroke-width="0.50" stroke-linecap="butt" stroke-linejoin="miter">
</g>
<g fill="none" color="black" stroke="currentColor" stroke-width="0.50" stroke-linecap="butt" stroke-linejoin="miter">
	<path stroke='rgb(221, 221, 221)' class="gridline"  d='M72.53,213.65 L574.82,213.65  '/></g>
<g fill="none" color="black" stroke="rgb(221, 221, 221)" stroke-width="1.00" stroke-linecap="butt" stroke-linejoin="miter">
</g>
<g fill="none" color="black" stroke="currentColor" stroke-width="1.00" stroke-linecap="butt" stroke-linejoin="miter">
	<path stroke='black'  d='M72.53,213.65 L77.03,213.65 M574.82,213.65 L570.32,213.65  '/></g>
<g fill="none" color="black" stroke="black" stroke-width="0.50" stroke-linecap="butt" stroke-linejoin="miter">
</g>
<g fill="none" color="black" stroke="currentColor" stroke-width="0.50" stroke-linecap="butt" stroke-linejoin="miter">
	<path stroke='rgb(221, 221, 221)' class="gridline"  d='M72.53,201.37 L574.82,201.37  '/></g>
<g fill="none" color="black" stroke="rgb(221, 221, 221)" stroke-width="1.00" stroke-linecap="butt" stroke-linejoin="miter">
</g>
<g fill="none" color="black" stroke="currentColor" stroke-width="1.00" stroke-linecap="butt" stroke-linejoin="miter">
	<path stroke='black'  d='M72.53,201.37 L77.03,201.37 M574.82,201.37 L570.32,201.37  '/></g>
<g fill="none" color="black" stroke="black" stroke-width="0.50" stroke-linecap="butt" stroke-linejoin="miter">
</g>
<g fill="none" color="black" stroke="currentColor" stroke-width="0.50" stroke-linecap="butt" stroke-linejoin="miter">
	<path stroke='rgb(221, 221, 221)' class="gridline"  d='M72.53,189.09 L574.82,189.09  '/></g>
<g fill="none" color="black" stroke="rgb(221, 221, 221)" stroke-width="1.00" stroke-linecap="butt" stroke-linejoin="miter">
</g>
<g fill="none" color="black" stroke="currentColor" stroke-width="1.00" stroke-linecap="butt" stroke-linejoin="miter">
	<path stroke='black'  d='M72.53,189.09 L77.03,189.09 M574.82,189.09 L570.32,189.09  '/></g>
<g fill="none" color="black" stroke="black" stroke-width="0.50" stroke-linecap="butt" stroke-linejoin="miter">
</g>
<g fill="none" color="black" stroke="currentColor" stroke-width="0.50" stroke-linecap="butt" stroke-linejoin="miter">
	<path stroke='rgb(221, 221, 221)' class="gridline"  d='M72.53,176.81 L574.82,176.81  '/></g>
<g fill="none" color="black" stroke="rgb(221, 221, 221)" stroke-width="1.00" stroke-linecap="butt" stroke-linejoin="miter">
</g>
<g fill="none" color="black" stroke="currentColor" stroke-width="1.00" stroke-linecap="butt" stroke-linejoin="miter">
	<path stroke='black'  d='M72.53,176.81 L81.53,176.81 M574.82,176.81 L565.82,176.81  '/>	<g transform="translate(64.14,180.71)" stroke="none" fill="black" font-family="Arial" font-size="12.00"  text-anchor="end">
		<text><tspan font-family="Arial" > 80</tspan></text>
	</g>
</g>
<g fill="none" color="black" stroke="currentColor" stroke-width="1.00" stroke-linecap="butt" stroke-linejoin="miter">
</g>
<g fill="none" color="black" stroke="black" stroke-width="0.50" stroke-linecap="butt" stroke-linejoin="miter">
</g>
<g fill="none" color="black" stroke="currentColor" stroke-width="0.50" stroke-linecap="butt" stroke-linejoin="miter">
	<path stroke='rgb(221, 221, 221)' class="gridline"  d='M72.53,164.53 L574.82,164.53  '/></g>
<g fill="none" color="black" stroke="rgb(221, 221, 221)" stroke-width="1.00" stroke-linecap="butt" stroke-linejoin="miter">
</g>
<g fill="none" color="black" stroke="currentColor" stroke-width="1.00" stroke-linecap="butt" stroke-linejoin="miter">
	<path stroke='black'  d='M72.53,164.53 L77.03,164.53 M574.82,164.53 L570.32,164.53  '/></g>
<g fill="none" color="black" stroke="black" stroke-width="0.50" stroke-linecap="butt" stroke-linejoin="miter">
</g>
<g fill="none" color="black" stroke="currentColor" stroke-width="0.50" stroke-linecap="butt" stroke-linejoin="miter">
	<path stroke='rgb(221, 221, 221)' class="gridline"  d='M72.53,152.25 L574.82,152.25  '/></g>
<g fill="none" color="black" stroke="rgb(221, 221, 221)" stroke-width="1.00" stroke-linecap="butt" stroke-linejoin="miter">
</g>
<g fill="none" color="black" stroke="currentColor" stroke-width="1.00" stroke-linecap="butt" stroke-linejoin="miter">
	<path stroke='black'  d='M72.53,152.25 L77.03,152.25 M574.82,152.25 L570.32,152.25  '/></g>
<g fill="none" color="black" stroke="black" stroke-width="0.50" stroke-linecap="butt" stroke-linejoin="miter">
</g>
<g fill="none" color="black" stroke="currentColor" stroke-width="0.50" stroke-linecap="butt" stroke-linejoin="miter">
	<path stroke='rgb(221, 221, 221)' class="gridline"  d='M72.53,139.97 L574.82,139.97  '/></g>
<g fill="none" color="black" stroke="rgb(221, 221, 221)" stroke-width="1.00" stroke-linecap="butt" stroke-linejoin="miter">
</g>
<g fill="none" color="black" stroke="currentColor" stroke-width="1.00" stroke-linecap="butt" stroke-linejoin="miter">
	<path stroke='black'  d='M72.53,139.97 L77.03,139.97 M574.82,139.97 L570.32,139.97  '/></g>
<g fill="none" color="black" stroke="black" stroke-width="0.50" stroke-linecap="butt" stroke-linejoin="miter">
</g>
<g fill="none" color="black" stroke="currentColor" stroke-width="0.50" stroke-linecap="butt" stroke-linejoin="miter">
	<path stroke='rgb(221, 221, 221)' class="gridline"  d='M72.53,127.69 L574.82,127.69  '/></g>
<g fill="none" color="black" stroke="rgb(221, 221, 221)" stroke-width="1.00" stroke-linecap="butt" stroke-linejoin="miter">
</g>
<g fill="none" color="black" stroke="currentColor" stroke-width="1.00" stroke-linecap="butt" stroke-linejoin="miter">
	<path stroke='black'  d='M72.53,127.69 L77.03,127.69 M574.82,127.69 L570.32,127.69  '/></g>
<g fill="none" color="black" stroke="black" stroke-width="0.50" stroke-linecap="butt" stroke-linejoin="miter">
</g>
<g fill="none" color="black" stroke="currentColor" stroke-width="0.50" stroke-linecap="butt" stroke-linejoin="miter">
	<path stroke='rgb(221, 221, 221)' class="gridline"  d='M72.53,115.41 L574.82,115.41  '/></g>
<g fill="none" color="black" stroke="rgb(221, 221, 221)" stroke-width="1.00" stroke-linecap="butt" stroke-linejoin="miter">
</g>
<g fill="none" color="black" stroke="currentColor" stroke-width="1.00" stroke-linecap="butt" stroke-linejoin="miter">
	<path stroke='black'  d='M72.53,115.41 L81.53,115.41 M574.82,115.41 L565.82,115.41  '/>	<g transform="translate(64.14,119.31)" stroke="none" fill="black" font-family="Arial" font-size="12.00"  text-anchor="end">
		<text><tspan font-family="Arial" > 90</tspan></text>
	</g>
</g>
<g fill="none" color="black" stroke="currentColor" stroke-width="1.00" stroke-linecap="butt" stroke-linejoin="miter">
</g>
<g fill="none" color="black" stroke="black" stroke-width="0.50" stroke-linecap="butt" stroke-linejoin="miter">
</g>
<g fill="none" color="black" stroke="currentColor" stroke-width="0.50" stroke-linecap="butt" stroke-linejoin="miter">
	<path stroke='rgb(221, 221, 221)' class="gridline"  d='M72.53,103.13 L574.82,103.13  '/></g>
<g fill="none" color="black" stroke="rgb(221, 221, 221)" stroke-width="1.00" stroke-linecap="butt" stroke-linejoin="miter">
</g>
<g fill="none" color="black" stroke="currentColor" stroke-width="1.00" stroke-linecap="butt" stroke-linejoin="miter">
	<path stroke='black'  d='M72.53,103.13 L77.03,103.13 M574.82,103.13 L570.32,103.13  '/></g>
<g fill="none" color="black" stroke="black" stroke-width="0.50" stroke-linecap="butt" stroke-linejoin="miter">
</g>
<g fill="none" color="black" stroke="currentColor" stroke-width="0.50" stroke-linecap="butt" stroke-linejoin="miter">
	<path stroke='rgb(221, 221, 221)' class="gridline"  d='M72.53,90.85 L574.82,90.85  '/></g>
<g fill="none" color="black" stroke="rgb(221, 221, 221)" stroke-width="1.00" stroke-linecap="butt" stroke-linejoin="miter">
</g>
<g fill="none" color="black" stroke="currentColor" stroke-width="1.00" stroke-linecap="butt" stroke-linejoin="miter">
	<path stroke='black'  d='M72.53,90.85 L77.03,90.85 M574.82,90.85 L570.32,90.85  '/></g>
<g fill="none" color="black" stroke="black" stroke-width="0.50" stroke-linecap="butt" stroke-linejoin="miter">
</g>
<g fill="none" color="black" stroke="currentColor" stroke-width="0.50" stroke-linecap="butt" stroke-linejoin="miter">
	<path stroke='rgb(221, 221, 221)' class="gridline"  d='M72.53,78.57 L574.82,78.57  '/></g>
<g fill="none" color="black" stroke="rgb(221, 221, 221)" stroke-width="1.00" stroke-linecap="butt" stroke-linejoin="miter">
</g>
<g fill="none" color="black" stroke="currentColor" stroke-width="1.00" stroke-linecap="butt" stroke-linejoin="miter">
	<path stroke='black'  d='M72.53,78.57 L77.03,78.57 M574.82,78.57 L570.32,78.57  '/></g>
<g fill="none" color="black" stroke="black" stroke-width="0.50" stroke-linecap="butt" stroke-linejoin="miter">
</g>
<g fill="none" color="black" stroke="currentColor" stroke-width="0.50" stroke-linecap="butt" stroke-linejoin="miter">
	<path stroke='rgb(221, 221, 221)' class="gridline"  d='M72.53,66.29 L574.82,66.29  '/></g>
<g fill="none" color="black" stroke="rgb(221, 221, 221)" stroke-width="1.00" stroke-linecap="butt" stroke-linejoin="miter">
</g>
<g fill="none" color="black" stroke="currentColor" stroke-width="1.00" stroke-linecap="butt" stroke-linejoin="miter">
	<path stroke='black'  d='M72.53,66.29 L77.03,66.29 M574.82,66.29 L570.32,66.29  '/></g>
<g fill="none" color="black" stroke="black" stroke-width="0.50" stroke-linecap="butt" stroke-linejoin="miter">
</g>
<g fill="none" color="black" stroke="currentColor" stroke-width="0.50" stroke-linecap="butt" stroke-linejoin="miter">
	<path stroke='rgb(221, 221, 221)' class="gridline"  d='M72.53,54.01 L574.82,54.01  '/></g>
<g fill="none" color="black" stroke="rgb(221, 221, 221)" stroke-width="1.00" stroke-linecap="butt" stroke-linejoin="miter">
</g>
<g fill="none" color="black" stroke="currentColor" stroke-width="1.00" stroke-linecap="butt" stroke-linejoin="miter">
	<path stroke='black'  d='M72.53,54.01 L81.53,54.01 M574.82,54.01 L565.82,54.01  '/>	<g transform="translate(64.14,57.91)" stroke="none" fill="black" font-family="Arial" font-size="12.00"  text-anchor="end">
		<text><tspan font-family="Arial" > 100</tspan></text>
	</g>
</g>
<g fill="none" color="black" stroke="currentColor" stroke-width="1.00" stroke-linecap="butt" stroke-linejoin="miter">
</g>
<g fill="none" color="black" stroke="black" stroke-width="0.50" stroke-linecap="butt" stroke-linejoin="miter">
</g>
<g fill="none" color="black" stroke="currentColor" stroke-width="0.50" stroke-linecap="butt" stroke-linejoin="miter">
	<path stroke='rgb(221, 221, 221)' class="gridline"  d='M72.53,422.40 L72.53,54.01  '/></g>
<g fill="none" color="black" stroke="rgb(221, 221, 221)" stroke-width="1.00" stroke-linecap="butt" stroke-linejoin="miter">
</g>
<g fill="none" color="black" stroke="currentColor" stroke-width="1.00" stroke-linecap="butt" stroke-linejoin="miter">
	<path stroke='black'  d='M72.53,422.40 L72.53,413.40 M72.53,54.01 L72.53,63.01  '/>	<g transform="translate(72.53,444.30)" stroke="none" fill="black" font-family="Arial" font-size="12.00"  text-anchor="middle">
		<text><tspan font-family="Arial" > 60</tspan></text>
	</g>
</g>
<g fill="none" color="black" stroke="currentColor" stroke-width="1.00" stroke-linecap="butt" stroke-linejoin="miter">
</g>
<g fill="none" color="black" stroke="black" stroke-width="0.50" stroke-linecap="butt" stroke-linejoin="miter">
</g>
<g fill="none" color="black" stroke="currentColor" stroke-width="0.50" stroke-linecap="butt" stroke-linejoin="miter">
	<path stroke='rgb(221, 221, 221)' class="gridline"  d='M108.41,422.40 L108.41,413.40 M108.41,215.40 L108.41,54.01  '/></g>
<g fill="none" color="black" stroke="rgb(221, 221, 221)" stroke-width="1.00" stroke-linecap="butt" stroke-linejoin="miter">
</g>
<g fill="none" color="black" stroke="currentColor" stroke-width="1.00" stroke-linecap="butt" stroke-linejoin="miter">
	<path stroke='black'  d='M108.41,422.40 L108.41,417.90 M108.41,54.01 L108.41,58.51  '/></g>
<g fill="none" color="black" stroke="black" stroke-width="0.50" stroke-linecap="butt" stroke-linejoin="miter">
</g>
<g fill="none" color="black" stroke="currentColor" stroke-width="0.50" stroke-linecap="butt" stroke-linejoin="miter">
	<path stroke='rgb(221, 221, 221)' class="gridline"  d='M144.29,422.40 L144.29,413.40 M144.29,215.40 L144.29,54.01  '/></g>
<g fill="none" color="black" stroke="rgb(221, 221, 221)" stroke-width="1.00" stroke-linecap="butt" stroke-linejoin="miter">
</g>
<g fill="none" color="black" stroke="currentColor" stroke-width="1.00" stroke-linecap="butt" stroke-linejoin="miter">
	<path stroke='black'  d='M144.29,422.40 L144.29,413.40 M144.29,54.01 L144.29,63.01  '/>	<g transform="translate(144.29,444.30)" stroke="none" fill="black" font-family="Arial" font-size="12.00"  text-anchor="middle">
		<text><tspan font-family="Arial" > 80</tspan></text>
	</g>
</g>
<g fill="none" color="black" stroke="currentColor" stroke-width="1.00" stroke-linecap="butt" stroke-linejoin="miter">
</g>
<g fill="none" color="black" stroke="black" stroke-width="0.50" stroke-linecap="butt" stroke-linejoin="miter">
</g>
<g fill="none" color="black" stroke="currentColor" stroke-width="0.50" stroke-linecap="butt" stroke-linejoin="miter">
	<path stroke='rgb(221, 221, 221)' class="gridline"  d='M180.16,422.40 L180.16,413.40 M180.16,215.40 L180.16,54.01  '/></g>
<g fill="none" color="black" stroke="rgb(221, 221, 221)" stroke-width="1.00" stroke-linecap="butt" stroke-linejoin="miter">
</g>
<g fill="none" color="black" stroke="currentColor" stroke-width="1.00" stroke-linecap="butt" stroke-linejoin="miter">
	<path stroke='black'  d='M180.16,422.40 L180.16,417.90 M180.16,54.01 L180.16,58.51  '/></g>
<g fill="none" color="black" stroke="black" stroke-width="0.50" stroke-linecap="butt" stroke-linejoin="miter">
</g>
<g fill="none" color="black" stroke="currentColor" stroke-width="0.50" stroke-linecap="butt" stroke-linejoin="miter">
	<path stroke='rgb(221, 221, 221)' class="gridline"  d='M216.04,422.40 L216.04,54.01  '/></g>
<g fill="none" color="black" stroke="rgb(221, 221, 221)" stroke-width="1.00" stroke-linecap="butt" stroke-linejoin="miter">
</g>
<g fill="none" color="black" stroke="currentColor" stroke-width="1.00" stroke-linecap="butt" stroke-linejoin="miter">
	<path stroke='black'  d='M216.04,422.40 L216.04,413.40 M216.04,54.01 L216.04,63.01  '/>	<g transform="translate(216.04,444.30)" stroke="none" fill="black" font-family="Arial" font-size="12.00"  text-anchor="middle">
		<text><tspan font-family="Arial" > 100</tspan></text>
	</g>
</g>
<g fill="none" color="black" stroke="currentColor" stroke-width="1.00" stroke-linecap="butt" stroke-linejoin="miter">
</g>
<g fill="none" color="black" stroke="black" stroke-width="0.50" stroke-linecap="butt" stroke-linejoin="miter">
</g>
<g fill="none" color="black" stroke="currentColor" stroke-width="0.50" stroke-linecap="butt" stroke-linejoin="miter">
	<path stroke='rgb(221, 221, 221)' class="gridline"  d='M251.92,422.40 L251.92,54.01  '/></g>
<g fill="none" color="black" stroke="rgb(221, 221, 221)" stroke-width="1.00" stroke-linecap="butt" stroke-linejoin="miter">
</g>
<g fill="none" color="black" stroke="currentColor" stroke-width="1.00" stroke-linecap="butt" stroke-linejoin="miter">
	<path stroke='black'  d='M251.92,422.40 L251.92,417.90 M251.92,54.01 L251.92,58.51  '/></g>
<g fill="none" color="black" stroke="black" stroke-width="0.50" stroke-linecap="butt" stroke-linejoin="miter">
</g>
<g fill="none" color="black" stroke="currentColor" stroke-width="0.50" stroke-linecap="butt" stroke-linejoin="miter">
	<path stroke='rgb(221, 221, 221)' class="gridline"  d='M287.80,422.40 L287.80,54.01  '/></g>
<g fill="none" color="black" stroke="rgb(221, 221, 221)" stroke-width="1.00" stroke-linecap="butt" stroke-linejoin="miter">
</g>
<g fill="none" color="black" stroke="currentColor" stroke-width="1.00" stroke-linecap="butt" stroke-linejoin="miter">
	<path stroke='black'  d='M287.80,422.40 L287.80,413.40 M287.80,54.01 L287.80,63.01  '/>	<g transform="translate(287.80,444.30)" stroke="none" fill="black" font-family="Arial" font-size="12.00"  text-anchor="middle">
		<text><tspan font-family="Arial" > 120</tspan></text>
	</g>
</g>
<g fill="none" color="black" stroke="currentColor" stroke-width="1.00" stroke-linecap="butt" stroke-linejoin="miter">
</g>
<g fill="none" color="black" stroke="black" stroke-width="0.50" stroke-linecap="butt" stroke-linejoin="miter">
</g>
<g fill="none" color="black" stroke="currentColor" stroke-width="0.50" stroke-linecap="butt" stroke-linejoin="miter">
	<path stroke='rgb(221, 221, 221)' class="gridline"  d='M323.68,422.40 L323.68,54.01  '/></g>
<g fill="none" color="black" stroke="rgb(221, 221, 221)" stroke-width="1.00" stroke-linecap="butt" stroke-linejoin="miter">
</g>
<g fill="none" color="black" stroke="currentColor" stroke-width="1.00" stroke-linecap="butt" stroke-linejoin="miter">
	<path stroke='black'  d='M323.68,422.40 L323.68,417.90 M323.68,54.01 L323.68,58.51  '/></g>
<g fill="none" color="black" stroke="black" stroke-width="0.50" stroke-linecap="butt" stroke-linejoin="miter">
</g>
<g fill="none" color="black" stroke="currentColor" stroke-width="0.50" stroke-linecap="butt" stroke-linejoin="miter">
	<path stroke='rgb(221, 221, 221)' class="gridline"  d='M359.55,422.40 L359.55,54.01  '/></g>
<g fill="none" color="black" stroke="rgb(221, 221, 221)" stroke-width="1.00" stroke-linecap="butt" stroke-linejoin="miter">
</g>
<g fill="none" color="black" stroke="currentColor" stroke-width="1.00" stroke-linecap="butt" stroke-linejoin="miter">
	<path stroke='black'  d='M359.55,422.40 L359.55,413.40 M359.55,54.01 L359.55,63.01  '/>	<g transform="translate(359.55,444.30)" stroke="none" fill="black" font-family="Arial" font-size="12.00"  text-anchor="middle">
		<text><tspan font-family="Arial" > 140</tspan></text>
	</g>
</g>
<g fill="none" color="black" stroke="currentColor" stroke-width="1.00" stroke-linecap="butt" stroke-linejoin="miter">
</g>
<g fill="none" color="black" stroke="black" stroke-width="0.50" stroke-linecap="butt" stroke-linejoin="miter">
</g>
<g fill="none" color="black" stroke="currentColor" stroke-width="0.50" stroke-linecap="butt" stroke-linejoin="miter">
	<path stroke='rgb(221, 221, 221)' class="gridline"  d='M395.43,422.40 L395.43,54.01  '/></g>
<g fill="none" color="black" stroke="rgb(221, 221, 221)" stroke-width="1.00" stroke-linecap="butt" stroke-linejoin="miter">
</g>
<g fill="none" color="black" stroke="currentColor" stroke-width="1.00" stroke-linecap="butt" stroke-linejoin="miter">
	<path stroke='black'  d='M395.43,422.40 L395.43,417.90 M395.43,54.01 L395.43,58.51  '/></g>
<g fill="none" color="black" stroke="black" stroke-width="0.50" stroke-linecap="butt" stroke-linejoin="miter">
</g>
<g fill="none" color="black" stroke="currentColor" stroke-width="0.50" stroke-linecap="butt" stroke-linejoin="miter">
	<path stroke='rgb(221, 221, 221)' class="gridline"  d='M431.31,422.40 L431.31,54.01  '/></g>
<g fill="none" color="black" stroke="rgb(221, 221, 221)" stroke-width="1.00" stroke-linecap="butt" stroke-linejoin="miter">
</g>
<g fill="none" color="black" stroke="currentColor" stroke-width="1.00" stroke-linecap="butt" stroke-linejoin="miter">
	<path stroke='black'  d='M431.31,422.40 L431.31,413.40 M431.31,54.01 L431.31,63.01  '/>	<g transform="translate(431.31,444.30)" stroke="none" fill="black" font-family="Arial" font-size="12.00"  text-anchor="middle">
		<text><tspan font-family="Arial" > 160</tspan></text>
	</g>
</g>
<g fill="none" color="black" stroke="currentColor" stroke-width="1.00" stroke-linecap="butt" stroke-linejoin="miter">
</g>
<g fill="none" color="black" stroke="black" stroke-width="0.50" stroke-linecap="butt" stroke-linejoin="miter">
</g>
<g fill="none" color="black" stroke="currentColor" stroke-width="0.50" stroke-linecap="butt" stroke-linejoin="miter">
	<path stroke='rgb(221, 221, 221)' class="gridline"  d='M467.19,422.40 L467.19,54.01  '/></g>
<g fill="none" color="black" stroke="rgb(221, 221, 221)" stroke-width="1.00" stroke-linecap="butt" stroke-linejoin="miter">
</g>
<g fill="none" color="black" stroke="currentColor" stroke-width="1.00" stroke-linecap="butt" stroke-linejoin="miter">
	<path stroke='black'  d='M467.19,422.40 L467.19,417.90 M467.19,54.01 L467.19,58.51  '/></g>
<g fill="none" color="black" stroke="black" stroke-width="0.50" stroke-linecap="butt" stroke-linejoin="miter">
</g>
<g fill="none" color="black" stroke="currentColor" stroke-width="0.50" stroke-linecap="butt" stroke-linejoin="miter">
	<path stroke='rgb(221, 221, 221)' class="gridline"  d='M503.06,422.40 L503.06,54.01  '/></g>
<g fill="none" color="black" stroke="rgb(221, 221, 221)" stroke-width="1.00" stroke-linecap="butt" stroke-linejoin="miter">
</g>
<g fill="none" color="black" stroke="currentColor" stroke-width="1.00" stroke-linecap="butt" stroke-linejoin="miter">
	<path stroke='black'  d='M503.06,422.40 L503.06,413.40 M503.06,54.01 L503.06,63.01  '/>	<g transform="translate(503.06,444.30)" stroke="none" fill="black" font-family="Arial" font-size="12.00"  text-anchor="middle">
		<text><tspan font-family="Arial" > 180</tspan></text>
	</g>
</g>
<g fill="none" color="black" stroke="currentColor" stroke-width="1.00" stroke-linecap="butt" stroke-linejoin="miter">
</g>
<g fill="none" color="black" stroke="black" stroke-width="0.50" stroke-linecap="butt" stroke-linejoin="miter">
</g>
<g fill="none" color="black" stroke="currentColor" stroke-width="0.50" stroke-linecap="butt" stroke-linejoin="miter">
	<path stroke='rgb(221, 221, 221)' class="gridline"  d='M538.94,422.40 L538.94,54.01  '/></g>
<g fill="none" color="black" stroke="rgb(221, 221, 221)" stroke-width="1.00" stroke-linecap="butt" stroke-linejoin="miter">
</g>
<g fill="none" color="black" stroke="currentColor" stroke-width="1.00" stroke-linecap="butt" stroke-linejoin="miter">
	<path stroke='black'  d='M538.94,422.40 L538.94,417.90 M538.94,54.01 L538.94,58.51  '/></g>
<g fill="none" color="black" stroke="black" stroke-width="0.50" stroke-linecap="butt" stroke-linejoin="miter">
</g>
<g fill="none" color="black" stroke="currentColor" stroke-width="0.50" stroke-linecap="butt" stroke-linejoin="miter">
	<path stroke='rgb(221, 221, 221)' class="gridline"  d='M574.82,422.40 L574.82,54.01  '/></g>
<g fill="none" color="black" stroke="rgb(221, 221, 221)" stroke-width="1.00" stroke-linecap="butt" stroke-linejoin="miter">
</g>
<g fill="none" color="black" stroke="currentColor" stroke-width="1.00" stroke-linecap="butt" stroke-linejoin="miter">
	<path stroke='black'  d='M574.82,422.40 L574.82,413.40 M574.82,54.01 L574.82,63.01  '/>	<g transform="translate(574.82,444.30)" stroke="none" fill="black" font-family="Arial" font-size="12.00"  text-anchor="middle">
		<text><tspan font-family="Arial" > 200</tspan></text>
	</g>
</g>
<g fill="none" color="black" stroke="currentColor" stroke-width="1.00" stroke-linecap="butt" stroke-linejoin="miter">
</g>
<g fill="none" color="black" stroke="currentColor" stroke-width="1.00" stroke-linecap="butt" stroke-linejoin="miter">
	<path stroke='black'  d='M72.53,54.01 L72.53,422.40 L574.82,422.40 L574.82,54.01 L72.53,54.01 Z  '/></g>
<g fill="none" color="black" stroke="currentColor" stroke-width="1.00" stroke-linecap="butt" stroke-linejoin="miter">
	<g transform="translate(19.18,238.21) rotate(270)" stroke="none" fill="black" font-family="Arial" font-size="12.00"  text-anchor="middle">
		<text><tspan font-family="Arial" >VMAF</tspan></text>
	</g>
</g>
<g fill="none" color="black" stroke="currentColor" stroke-width="1.00" stroke-linecap="butt" stroke-linejoin="miter">
	<g transform="translate(323.67,471.30)" stroke="none" fill="black" font-family="Arial" font-size="12.00"  text-anchor="middle">
		<text><tspan font-family="Arial" >qp</tspan></text>
	</g>
</g>
<g fill="none" color="black" stroke="currentColor" stroke-width="1.00" stroke-linecap="butt" stroke-linejoin="miter">
</g>
	<g id="gnuplot_plot_1" ><title>gnuplot_plot_1</title>
<g fill="none" color="black" stroke="currentColor" stroke-width="1.00" stroke-linecap="butt" stroke-linejoin="miter">
	<path stroke='rgb(230,   0, 180)'  d='M467.19,254.02 L468.27,255.29 L469.36,256.56 L470.45,257.83 L471.54,259.10 L472.62,260.37 L473.71,261.64 L474.80,262.91
		L475.88,264.19 L476.97,265.46 L478.06,266.73 L479.15,268.01 L480.23,269.28 L481.32,270.56 L482.41,271.84 L483.49,273.12
		L484.58,274.40 L485.67,275.68 L486.76,276.96 L487.84,278.25 L488.93,279.53 L490.02,280.82 L491.10,282.11 L492.19,283.40
		L493.28,284.69 L494.37,285.99 L495.45,287.29 L496.54,288.58 L497.63,289.89 L498.72,291.19 L499.80,292.49 L500.89,293.80
		L501.98,295.11 L503.06,296.43 L504.15,297.74 L505.24,299.06 L506.33,300.38 L507.41,301.71 L508.50,303.03 L509.59,304.36
		L510.67,305.69 L511.76,307.02 L512.85,308.35 L513.94,309.69 L515.02,311.02 L516.11,312.36 L517.20,313.69 L518.29,315.03
		L519.37,316.37 L520.46,317.71 L521.55,319.05 L522.63,320.39 L523.72,321.73 L524.81,323.06 L525.90,324.40 L526.98,325.74
		L528.07,327.08 L529.16,328.42 L530.24,329.75 L531.33,331.09 L532.42,332.42 L533.51,333.75 L534.59,335.08 L535.68,336.41
		L536.77,337.74 L537.85,339.07 L538.94,340.39 L540.03,341.71 L541.12,343.03 L542.20,344.35 L543.29,345.66 L544.38,346.98
		L545.47,348.29 L546.55,349.60 L547.64,350.90 L548.73,352.21 L549.81,353.51 L550.90,354.82 L551.99,356.12 L553.08,357.42
		L554.16,358.72 L555.25,360.01 L556.34,361.31 L557.42,362.60 L558.51,363.90 L559.60,365.19 L560.69,366.48 L561.77,367.77
		L562.86,369.06 L563.95,370.35 L565.04,371.64 L566.12,372.93 L567.21,374.22 L568.30,375.50 L569.38,376.79 L570.47,378.08
		L571.56,379.36 L572.65,380.65 L573.73,381.93 L574.82,383.22  '/></g>
	</g>
	<g id="gnuplot_plot_2" ><title>gnuplot_plot_2</title>
<g fill="none" color="black" stroke="currentColor" stroke-width="1.00" stroke-linecap="butt" stroke-linejoin="miter">
	<path stroke='rgb(160,   0, 230)'  d='M108.41,58.53 L113.12,59.02 L117.83,59.51 L122.54,60.00 L127.25,60.50 L131.96,61.00 L136.68,61.50 L141.39,62.00
		L146.10,62.51 L150.81,63.03 L155.52,63.57 L160.23,64.13 L164.94,64.72 L169.65,65.36 L174.37,66.06 L179.08,66.81
		L183.79,67.64 L188.50,68.54 L193.21,69.51 L197.92,70.57 L202.63,71.70 L207.34,72.92 L212.06,74.23 L216.77,75.63
		L221.48,77.11 L226.19,78.67 L230.90,80.30 L235.61,81.98 L240.32,83.70 L245.03,85.46 L249.74,87.23 L254.46,89.02
		L259.17,90.82 L263.88,92.67 L268.59,94.58 L273.30,96.60 L278.01,98.74 L282.72,101.02 L287.43,103.49 L292.15,106.14
		L296.86,108.98 L301.57,111.96 L306.28,115.04 L310.99,118.21 L315.70,121.42 L320.41,124.65 L325.12,127.85 L329.84,131.03
		L334.55,134.20 L339.26,137.40 L343.97,140.65 L348.68,143.97 L353.39,147.41 L358.10,150.99 L362.81,154.73 L367.53,158.63
		L372.24,162.67 L376.95,166.82 L381.66,171.07 L386.37,175.40 L391.08,179.77 L395.79,184.18 L400.50,188.61 L405.22,193.05
		L409.93,197.54 L414.64,202.06 L419.35,206.64 L424.06,211.28 L428.77,216.00 L433.48,220.80 L438.19,225.69 L442.91,230.66
		L447.62,235.72 L452.33,240.85 L457.04,246.06 L461.75,251.34 L466.46,256.68 L471.17,262.08 L475.88,267.55 L480.60,273.07
		L485.31,278.65 L490.02,284.29 L494.73,289.98 L499.44,295.72 L504.15,301.52 L508.86,307.36 L513.57,313.24 L518.29,319.14
		L523.00,325.04 L527.71,330.94 L532.42,336.81 L537.13,342.65 L541.84,348.44 L546.55,354.18 L551.26,359.88 L555.98,365.54
		L560.69,371.17 L565.40,376.78 L570.11,382.38 L574.82,387.97  '/></g>
	</g>
	<g id="gnuplot_plot_3" ><title>gnuplot_plot_3</title>
<g fill="none" color="black" stroke="currentColor" stroke-width="1.00" stroke-linecap="butt" stroke-linejoin="miter">
	<path stroke='rgb( 40,   0, 230)'  d='M108.41,58.82 L113.12,59.32 L117.83,59.83 L122.54,60.34 L127.25,60.85 L131.96,61.36 L136.68,61.88 L141.39,62.40
		L146.10,62.93 L150.81,63.46 L155.52,64.01 L160.23,64.59 L164.94,65.21 L169.65,65.87 L174.37,66.58 L179.08,67.36
		L183.79,68.21 L188.50,69.14 L193.21,70.15 L197.92,71.24 L202.63,72.41 L207.34,73.67 L212.06,75.02 L216.77,76.45
		L221.48,77.98 L226.19,79.59 L230.90,81.26 L235.61,82.99 L240.32,84.76 L245.03,86.57 L249.74,88.39 L254.46,90.22
		L259.17,92.07 L263.88,93.97 L268.59,95.93 L273.30,97.99 L278.01,100.16 L282.72,102.49 L287.43,104.99 L292.15,107.68
		L296.86,110.55 L301.57,113.57 L306.28,116.69 L310.99,119.91 L315.70,123.18 L320.41,126.47 L325.12,129.76 L329.84,133.04
		L334.55,136.33 L339.26,139.65 L343.97,143.04 L348.68,146.52 L353.39,150.12 L358.10,153.86 L362.81,157.77 L367.53,161.84
		L372.24,166.05 L376.95,170.38 L381.66,174.80 L386.37,179.29 L391.08,183.82 L395.79,188.37 L400.50,192.93 L405.22,197.50
		L409.93,202.09 L414.64,206.71 L419.35,211.38 L424.06,216.09 L428.77,220.88 L433.48,225.74 L438.19,230.67 L442.91,235.69
		L447.62,240.79 L452.33,245.96 L457.04,251.21 L461.75,256.54 L466.46,261.94 L471.17,267.42 L475.88,272.96 L480.60,278.55
		L485.31,284.18 L490.02,289.84 L494.73,295.52 L499.44,301.21 L504.15,306.90 L508.86,312.57 L513.57,318.22 L518.29,323.88
		L523.00,329.52 L527.71,335.16 L532.42,340.80 L537.13,346.44 L541.84,352.09 L546.55,357.73 L551.26,363.38 L555.98,369.04
		L560.69,374.69 L565.40,380.35 L570.11,386.01 L574.82,391.67  '/></g>
	</g>
	<g id="gnuplot_plot_4" ><title>gnuplot_plot_4</title>
<g fill="none" color="black" stroke="currentColor" stroke-width="1.00" stroke-linecap="butt" stroke-linejoin="miter">
	<path stroke='rgb(  0,  80, 230)'  d='M108.41,58.90 L113.12,59.41 L117.83,59.92 L122.54,60.44 L127.25,60.95 L131.96,61.48 L136.68,62.00 L141.39,62.53
		L146.10,63.07 L150.81,63.62 L155.52,64.19 L160.23,64.78 L164.94,65.41 L169.65,66.08 L174.37,66.80 L179.08,67.57
		L183.79,68.41 L188.50,69.32 L193.21,70.31 L197.92,71.37 L202.63,72.53 L207.34,73.77 L212.06,75.11 L216.77,76.55
		L221.48,78.10 L226.19,79.73 L230.90,81.44 L235.61,83.20 L240.32,85.01 L245.03,86.84 L249.74,88.68 L254.46,90.52
		L259.17,92.37 L263.88,94.24 L268.59,96.18 L273.30,98.22 L278.01,100.37 L282.72,102.68 L287.43,105.17 L292.15,107.87
		L296.86,110.76 L301.57,113.79 L306.28,116.94 L310.99,120.19 L315.70,123.48 L320.41,126.80 L325.12,130.10 L329.84,133.38
		L334.55,136.67 L339.26,139.98 L343.97,143.35 L348.68,146.82 L353.39,150.40 L358.10,154.12 L362.81,158.01 L367.53,162.07
		L372.24,166.27 L376.95,170.60 L381.66,175.02 L386.37,179.51 L391.08,184.06 L395.79,188.63 L400.50,193.22 L405.22,197.82
		L409.93,202.44 L414.64,207.10 L419.35,211.79 L424.06,216.53 L428.77,221.32 L433.48,226.17 L438.19,231.08 L442.91,236.07
		L447.62,241.12 L452.33,246.25 L457.04,251.45 L461.75,256.72 L466.46,262.08 L471.17,267.52 L475.88,273.03 L480.60,278.61
		L485.31,284.23 L490.02,289.90 L494.73,295.60 L499.44,301.33 L504.15,307.06 L508.86,312.80 L513.57,318.54 L518.29,324.27
		L523.00,329.99 L527.71,335.69 L532.42,341.37 L537.13,347.02 L541.84,352.65 L546.55,358.24 L551.26,363.81 L555.98,369.36
		L560.69,374.89 L565.40,380.41 L570.11,385.92 L574.82,391.43  '/></g>
	</g>
	<g id="gnuplot_plot_5" ><title>gnuplot_plot_5</title>
<g fill="none" color="black" stroke="currentColor" stroke-width="1.00" stroke-linecap="butt" stroke-linejoin="miter">
	<path stroke='rgb(  0, 200, 230)'  d='M108.41,58.98 L113.12,59.50 L117.83,60.02 L122.54,60.54 L127.25,61.07 L131.96,61.59 L136.68,62.12 L141.39,62.66
		L146.10,63.20 L150.81,63.74 L155.52,64.30 L160.23,64.89 L164.94,65.52 L169.65,66.18 L174.37,66.90 L179.08,67.68
		L183.79,68.53 L188.50,69.45 L193.21,70.45 L197.92,71.53 L202.63,72.70 L207.34,73.96 L212.06,75.31 L216.77,76.76
		L221.48,78.31 L226.19,79.95 L230.90,81.66 L235.61,83.42 L240.32,85.22 L245.03,87.05 L249.74,88.90 L254.46,90.74
		L259.17,92.59 L263.88,94.48 L268.59,96.43 L273.30,98.48 L278.01,100.64 L282.72,102.95 L287.43,105.45 L292.15,108.14
		L296.86,111.01 L301.57,114.03 L306.28,117.17 L310.99,120.39 L315.70,123.68 L320.41,126.99 L325.12,130.30 L329.84,133.60
		L334.55,136.91 L339.26,140.25 L343.97,143.65 L348.68,147.15 L353.39,150.75 L358.10,154.50 L362.81,158.41 L367.53,162.48
		L372.24,166.68 L376.95,171.00 L381.66,175.42 L386.37,179.90 L391.08,184.43 L395.79,188.98 L400.50,193.55 L405.22,198.12
		L409.93,202.72 L414.64,207.36 L419.35,212.03 L424.06,216.75 L428.77,221.52 L433.48,226.36 L438.19,231.26 L442.91,236.24
		L447.62,241.30 L452.33,246.43 L457.04,251.63 L461.75,256.92 L466.46,262.29 L471.17,267.75 L475.88,273.27 L480.60,278.86
		L485.31,284.49 L490.02,290.16 L494.73,295.85 L499.44,301.54 L504.15,307.23 L508.86,312.90 L513.57,318.56 L518.29,324.20
		L523.00,329.83 L527.71,335.45 L532.42,341.05 L537.13,346.65 L541.84,352.24 L546.55,357.82 L551.26,363.40 L555.98,368.97
		L560.69,374.54 L565.40,380.10 L570.11,385.66 L574.82,391.23  '/></g>
	</g>
	<g id="gnuplot_plot_6" ><title>gnuplot_plot_6</title>
<g fill="none" color="black" stroke="currentColor" stroke-width="1.00" stroke-linecap="butt" stroke-linejoin="miter">
	<path stroke='rgb(  0, 230, 140)'  d='M108.41,58.99 L113.12,59.51 L117.83,60.03 L122.54,60.56 L127.25,61.08 L131.96,61.61 L136.68,62.14 L141.39,62.67
		L146.10,63.21 L150.81,63.76 L155.52,64.32 L160.23,64.91 L164.94,65.53 L169.65,66.20 L174.37,66.92 L179.08,67.70
		L183.79,68.55 L188.50,69.47 L193.21,70.48 L197.92,71.56 L202.63,72.73 L207.34,73.99 L212.06,75.34 L216.77,76.79
		L221.48,78.33 L226.19,79.95 L230.90,81.64 L235.61,83.39 L240.32,85.18 L245.03,87.00 L249.74,88.83 L254.46,90.67
		L259.17,92.52 L263.88,94.41 L268.59,96.37 L273.30,98.42 L278.01,100.60 L282.72,102.93 L287.43,105.45 L292.15,108.17
		L296.86,111.07 L301.57,114.12 L306.28,117.29 L310.99,120.55 L315.70,123.85 L320.41,127.17 L325.12,130.47 L329.84,133.75
		L334.55,137.03 L339.26,140.34 L343.97,143.70 L348.68,147.15 L353.39,150.72 L358.10,154.43 L362.81,158.31 L367.53,162.36
		L372.24,166.55 L376.95,170.86 L381.66,175.27 L386.37,179.76 L391.08,184.30 L395.79,188.86 L400.50,193.44 L405.22,198.04
		L409.93,202.66 L414.64,207.31 L419.35,212.00 L424.06,216.73 L428.77,221.52 L433.48,226.37 L438.19,231.28 L442.91,236.26
		L447.62,241.31 L452.33,246.43 L457.04,251.63 L461.75,256.90 L466.46,262.26 L471.17,267.69 L475.88,273.20 L480.60,278.77
		L485.31,284.39 L490.02,290.05 L494.73,295.74 L499.44,301.45 L504.15,307.18 L508.86,312.90 L513.57,318.62 L518.29,324.33
		L523.00,330.03 L527.71,335.72 L532.42,341.39 L537.13,347.03 L541.84,352.65 L546.55,358.25 L551.26,363.82 L555.98,369.37
		L560.69,374.91 L565.40,380.44 L570.11,385.96 L574.82,391.47  '/></g>
	</g>
	<g id="gnuplot_plot_7" ><title>gnuplot_plot_7</title>
<g fill="none" color="black" stroke="currentColor" stroke-width="1.00" stroke-linecap="butt" stroke-linejoin="miter">
	<path stroke='rgb(  0, 230,  20)'  d='M108.41,58.99 L113.12,59.51 L117.83,60.04 L122.54,60.57 L127.25,61.10 L131.96,61.63 L136.68,62.16 L141.39,62.70
		L146.10,63.24 L150.81,63.79 L155.52,64.35 L160.23,64.94 L164.94,65.56 L169.65,66.23 L174.37,66.94 L179.08,67.72
		L183.79,68.56 L188.50,69.47 L193.21,70.46 L197.92,71.53 L202.63,72.70 L207.34,73.95 L212.06,75.31 L216.77,76.76
		L221.48,78.32 L226.19,79.97 L230.90,81.69 L235.61,83.47 L240.32,85.29 L245.03,87.14 L249.74,88.99 L254.46,90.85
		L259.17,92.71 L263.88,94.60 L268.59,96.56 L273.30,98.61 L278.01,100.78 L282.72,103.11 L287.43,105.62 L292.15,108.33
		L296.86,111.22 L301.57,114.26 L306.28,117.42 L310.99,120.66 L315.70,123.95 L320.41,127.25 L325.12,130.54 L329.84,133.79
		L334.55,137.05 L339.26,140.34 L343.97,143.70 L348.68,147.15 L353.39,150.73 L358.10,154.48 L362.81,158.43 L367.53,162.55
		L372.24,166.84 L376.95,171.24 L381.66,175.74 L386.37,180.30 L391.08,184.88 L395.79,189.47 L400.50,194.03 L405.22,198.58
		L409.93,203.14 L414.64,207.71 L419.35,212.32 L424.06,216.99 L428.77,221.72 L433.48,226.54 L438.19,231.46 L442.91,236.46
		L447.62,241.55 L452.33,246.72 L457.04,251.97 L461.75,257.30 L466.46,262.70 L471.17,268.17 L475.88,273.71 L480.60,279.29
		L485.31,284.93 L490.02,290.61 L494.73,296.32 L499.44,302.05 L504.15,307.81 L508.86,313.57 L513.57,319.34 L518.29,325.11
		L523.00,330.87 L527.71,336.62 L532.42,342.35 L537.13,348.06 L541.84,353.73 L546.55,359.37 L551.26,364.98 L555.98,370.57
		L560.69,376.14 L565.40,381.70 L570.11,387.25 L574.82,392.79  '/></g>
	</g>
	<g id="gnuplot_plot_8" ><title>gnuplot_plot_8</title>
<g fill="none" color="black" stroke="currentColor" stroke-width="1.00" stroke-linecap="butt" stroke-linejoin="miter">
	<path stroke='rgb(100, 230,   0)'  d='M108.41,58.98 L113.12,59.50 L117.83,60.02 L122.54,60.54 L127.25,61.07 L131.96,61.59 L136.68,62.12 L141.39,62.66
		L146.10,63.20 L150.81,63.75 L155.52,64.32 L160.23,64.91 L164.94,65.54 L169.65,66.21 L174.37,66.94 L179.08,67.72
		L183.79,68.57 L188.50,69.50 L193.21,70.50 L197.92,71.59 L202.63,72.76 L207.34,74.02 L212.06,75.38 L216.77,76.83
		L221.48,78.39 L226.19,80.02 L230.90,81.73 L235.61,83.50 L240.32,85.31 L245.03,87.14 L249.74,88.99 L254.46,90.84
		L259.17,92.70 L263.88,94.60 L268.59,96.56 L273.30,98.62 L278.01,100.80 L282.72,103.14 L287.43,105.66 L292.15,108.38
		L296.86,111.29 L301.57,114.34 L306.28,117.51 L310.99,120.76 L315.70,124.05 L320.41,127.36 L325.12,130.65 L329.84,133.91
		L334.55,137.16 L339.26,140.44 L343.97,143.78 L348.68,147.22 L353.39,150.79 L358.10,154.51 L362.81,158.42 L367.53,162.52
		L372.24,166.76 L376.95,171.13 L381.66,175.60 L386.37,180.13 L391.08,184.70 L395.79,189.28 L400.50,193.85 L405.22,198.42
		L409.93,203.00 L414.64,207.61 L419.35,212.26 L424.06,216.96 L428.77,221.73 L433.48,226.58 L438.19,231.52 L442.91,236.54
		L447.62,241.65 L452.33,246.84 L457.04,252.11 L461.75,257.46 L466.46,262.89 L471.17,268.39 L475.88,273.96 L480.60,279.58
		L485.31,285.25 L490.02,290.95 L494.73,296.67 L499.44,302.41 L504.15,308.15 L508.86,313.88 L513.57,319.61 L518.29,325.34
		L523.00,331.05 L527.71,336.75 L532.42,342.44 L537.13,348.11 L541.84,353.77 L546.55,359.41 L551.26,365.04 L555.98,370.66
		L560.69,376.27 L565.40,381.88 L570.11,387.48 L574.82,393.08  '/></g>
	</g>
	<g id="gnuplot_plot_9" ><title>gnuplot_plot_9</title>
<g fill="none" color="black" stroke="currentColor" stroke-width="1.00" stroke-linecap="butt" stroke-linejoin="miter">
	<path stroke='rgb(220, 230,   0)'  d='M108.41,59.22 L113.12,59.75 L117.83,60.28 L122.54,60.81 L127.25,61.35 L131.96,61.89 L136.68,62.43 L141.39,62.99
		L146.10,63.54 L150.81,64.11 L155.52,64.70 L160.23,65.31 L164.94,65.97 L169.65,66.67 L174.37,67.42 L179.08,68.23
		L183.79,69.12 L188.50,70.09 L193.21,71.13 L197.92,72.26 L202.63,73.48 L207.34,74.79 L212.06,76.20 L216.77,77.71
		L221.48,79.32 L226.19,81.01 L230.90,82.78 L235.61,84.61 L240.32,86.49 L245.03,88.41 L249.74,90.34 L254.46,92.28
		L259.17,94.24 L263.88,96.24 L268.59,98.31 L273.30,100.48 L278.01,102.77 L282.72,105.22 L287.43,107.84 L292.15,110.65
		L296.86,113.65 L301.57,116.78 L306.28,120.02 L310.99,123.34 L315.70,126.70 L320.41,130.06 L325.12,133.40 L329.84,136.70
		L334.55,139.99 L339.26,143.30 L343.97,146.67 L348.68,150.12 L353.39,153.68 L358.10,157.39 L362.81,161.28 L367.53,165.33
		L372.24,169.53 L376.95,173.83 L381.66,178.21 L386.37,182.65 L391.08,187.12 L395.79,191.58 L400.50,196.03 L405.22,200.46
		L409.93,204.89 L414.64,209.35 L419.35,213.84 L424.06,218.38 L428.77,222.99 L433.48,227.68 L438.19,232.46 L442.91,237.34
		L447.62,242.30 L452.33,247.36 L457.04,252.51 L461.75,257.75 L466.46,263.08 L471.17,268.50 L475.88,274.00 L480.60,279.57
		L485.31,285.19 L490.02,290.85 L494.73,296.53 L499.44,302.22 L504.15,307.91 L508.86,313.59 L513.57,319.26 L518.29,324.91
		L523.00,330.56 L527.71,336.20 L532.42,341.84 L537.13,347.47 L541.84,353.09 L546.55,358.71 L551.26,364.33 L555.98,369.95
		L560.69,375.57 L565.40,381.18 L570.11,386.80 L574.82,392.41  '/></g>
	</g>
	<g id="gnuplot_plot_10" ><title>gnuplot_plot_10</title>
<g fill="none" color="black" stroke="currentColor" stroke-width="1.00" stroke-linecap="butt" stroke-linejoin="miter">
	<path stroke='rgb(230, 120,   0)'  d='M108.41,58.92 L113.12,59.46 L117.83,60.01 L122.54,60.56 L127.25,61.10 L131.96,61.65 L136.68,62.21 L141.39,62.76
		L146.10,63.32 L150.81,63.88 L155.52,64.47 L160.23,65.08 L164.94,65.74 L169.65,66.45 L174.37,67.22 L179.08,68.06
		L183.79,68.99 L188.50,70.01 L193.21,71.12 L197.92,72.32 L202.63,73.62 L207.34,75.01 L212.06,76.50 L216.77,78.08
		L221.48,79.76 L226.19,81.51 L230.90,83.33 L235.61,85.19 L240.32,87.06 L245.03,88.95 L249.74,90.82 L254.46,92.66
		L259.17,94.48 L263.88,96.31 L268.59,98.20 L273.30,100.18 L278.01,102.28 L282.72,104.55 L287.43,107.02 L292.15,109.71
		L296.86,112.60 L301.57,115.65 L306.28,118.81 L310.99,122.05 L315.70,125.31 L320.41,128.55 L325.12,131.73 L329.84,134.84
		L334.55,137.91 L339.26,140.99 L343.97,144.11 L348.68,147.31 L353.39,150.64 L358.10,154.14 L362.81,157.83 L367.53,161.72
		L372.24,165.77 L376.95,169.96 L381.66,174.23 L386.37,178.57 L391.08,182.94 L395.79,187.31 L400.50,191.65 L405.22,195.97
		L409.93,200.30 L414.64,204.65 L419.35,209.04 L424.06,213.49 L428.77,218.02 L433.48,222.64 L438.19,227.36 L442.91,232.19
		L447.62,237.14 L452.33,242.21 L457.04,247.39 L461.75,252.70 L466.46,258.14 L471.17,263.70 L475.88,269.38 L480.60,275.16
		L485.31,281.00 L490.02,286.89 L494.73,292.80 L499.44,298.72 L504.15,304.61 L508.86,310.48 L513.57,316.31 L518.29,322.11
		L523.00,327.88 L527.71,333.64 L532.42,339.37 L537.13,345.09 L541.84,350.79 L546.55,356.48 L551.26,362.16 L555.98,367.84
		L560.69,373.51 L565.40,379.17 L570.11,384.83 L574.82,390.49  '/></g>
	</g>
	<g id="gnuplot_plot_11" ><title>gnuplot_plot_11</title>
<g fill="none" color="black" stroke="currentColor" stroke-width="1.00" stroke-linecap="butt" stroke-linejoin="miter">
	<path stroke='rgb(230,   0,   0)'  d='M108.41,59.17 L113.12,59.66 L117.83,60.15 L122.54,60.64 L127.25,61.14 L131.96,61.64 L136.68,62.16 L141.39,62.68
		L146.10,63.21 L150.81,63.75 L155.52,64.31 L160.23,64.91 L164.94,65.54 L169.65,66.22 L174.37,66.95 L179.08,67.74
		L183.79,68.59 L188.50,69.53 L193.21,70.53 L197.92,71.62 L202.63,72.79 L207.34,74.05 L212.06,75.40 L216.77,76.84
		L221.48,78.37 L226.19,79.98 L230.90,81.65 L235.61,83.37 L240.32,85.11 L245.03,86.86 L249.74,88.60 L254.46,90.32
		L259.17,92.03 L263.88,93.77 L268.59,95.55 L273.30,97.43 L278.01,99.44 L282.72,101.60 L287.43,103.96 L292.15,106.54
		L296.86,109.31 L301.57,112.23 L306.28,115.27 L310.99,118.38 L315.70,121.52 L320.41,124.64 L325.12,127.72 L329.84,130.73
		L334.55,133.72 L339.26,136.71 L343.97,139.74 L348.68,142.87 L353.39,146.11 L358.10,149.52 L362.81,153.12 L367.53,156.91
		L372.24,160.86 L376.95,164.95 L381.66,169.15 L386.37,173.42 L391.08,177.74 L395.79,182.08 L400.50,186.42 L405.22,190.77
		L409.93,195.14 L414.64,199.54 L419.35,203.99 L424.06,208.48 L428.77,213.05 L433.48,217.69 L438.19,222.42 L442.91,227.25
		L447.62,232.20 L452.33,237.28 L457.04,242.51 L461.75,247.89 L466.46,253.44 L471.17,259.16 L475.88,265.05 L480.60,271.05
		L485.31,277.15 L490.02,283.29 L494.73,289.46 L499.44,295.62 L504.15,301.73 L508.86,307.78 L513.57,313.77 L518.29,319.72
		L523.00,325.63 L527.71,331.53 L532.42,337.42 L537.13,343.32 L541.84,349.24 L546.55,355.18 L551.26,361.13 L555.98,367.11
		L560.69,373.10 L565.40,379.09 L570.11,385.10 L574.82,391.10  '/></g>
	</g>
	<g id="gnuplot_plot_12" ><title>-speed 0</title>
<g fill="none" color="black" stroke="currentColor" stroke-width="1.00" stroke-linecap="butt" stroke-linejoin="miter">
	<g transform="translate(156.43,228.30)" stroke="none" fill="black" font-family="Arial" font-size="12.00"  text-anchor="end">
		<text><tspan font-family="Arial" >-speed 0</tspan></text>
	</g>
</g>
<g fill="none" color="black" stroke="currentColor" stroke-width="1.00" stroke-linecap="butt" stroke-linejoin="miter">
	<use xlink:href='#gpPt11' transform='translate(467.19,254.02) scale(4.50)' color='rgb(230,   0, 180)'/>
	<use xlink:href='#gpPt11' transform='translate(503.06,296.43) scale(4.50)' color='rgb(230,   0, 180)'/>
	<use xlink:href='#gpPt11' transform='translate(538.94,340.39) scale(4.50)' color='rgb(230,   0, 180)'/>
	<use xlink:href='#gpPt11' transform='translate(574.82,383.22) scale(4.50)' color='rgb(230,   0, 180)'/>
	<use xlink:href='#gpPt11' transform='translate(186.10,224.40) scale(4.50)' color='rgb(230,   0, 180)'/>
</g>
	</g>
	<g id="gnuplot_plot_13" ><title>-speed 1</title>
<g fill="none" color="black" stroke="currentColor" stroke-width="1.00" stroke-linecap="butt" stroke-linejoin="miter">
	<g transform="translate(156.43,246.30)" stroke="none" fill="black" font-family="Arial" font-size="12.00"  text-anchor="end">
		<text><tspan font-family="Arial" >-speed 1</tspan></text>
	</g>
</g>
<g fill="none" color="black" stroke="currentColor" stroke-width="1.00" stroke-linecap="butt" stroke-linejoin="miter">
	<use xlink:href='#gpPt12' transform='translate(108.41,58.53) scale(4.50)' color='rgb(160,   0, 230)'/>
	<use xlink:href='#gpPt12' transform='translate(144.29,62.32) scale(4.50)' color='rgb(160,   0, 230)'/>
	<use xlink:href='#gpPt12' transform='translate(180.16,67.00) scale(4.50)' color='rgb(160,   0, 230)'/>
	<use xlink:href='#gpPt12' transform='translate(216.04,75.41) scale(4.50)' color='rgb(160,   0, 230)'/>
	<use xlink:href='#gpPt12' transform='translate(251.92,88.06) scale(4.50)' color='rgb(160,   0, 230)'/>
	<use xlink:href='#gpPt12' transform='translate(287.80,103.68) scale(4.50)' color='rgb(160,   0, 230)'/>
	<use xlink:href='#gpPt12' transform='translate(323.68,126.87) scale(4.50)' color='rgb(160,   0, 230)'/>
	<use xlink:href='#gpPt12' transform='translate(359.55,152.12) scale(4.50)' color='rgb(160,   0, 230)'/>
	<use xlink:href='#gpPt12' transform='translate(395.43,183.84) scale(4.50)' color='rgb(160,   0, 230)'/>
	<use xlink:href='#gpPt12' transform='translate(431.31,218.57) scale(4.50)' color='rgb(160,   0, 230)'/>
	<use xlink:href='#gpPt12' transform='translate(467.19,257.51) scale(4.50)' color='rgb(160,   0, 230)'/>
	<use xlink:href='#gpPt12' transform='translate(503.06,300.18) scale(4.50)' color='rgb(160,   0, 230)'/>
	<use xlink:href='#gpPt12' transform='translate(538.94,344.88) scale(4.50)' color='rgb(160,   0, 230)'/>
	<use xlink:href='#gpPt12' transform='translate(574.82,387.97) scale(4.50)' color='rgb(160,   0, 230)'/>
	<use xlink:href='#gpPt12' transform='translate(186.10,242.40) scale(4.50)' color='rgb(160,   0, 230)'/>
</g>
	</g>
	<g id="gnuplot_plot_14" ><title>-speed 2</title>
<g fill="none" color="black" stroke="currentColor" stroke-width="1.00" stroke-linecap="butt" stroke-linejoin="miter">
	<g transform="translate(156.43,264.30)" stroke="none" fill="black" font-family="Arial" font-size="12.00"  text-anchor="end">
		<text><tspan font-family="Arial" >-speed 2</tspan></text>
	</g>
</g>
<g fill="none" color="black" stroke="currentColor" stroke-width="1.00" stroke-linecap="butt" stroke-linejoin="miter">
	<use xlink:href='#gpPt13' transform='translate(108.41,58.82) scale(4.50)' color='rgb( 40,   0, 230)'/>
	<use xlink:href='#gpPt13' transform='translate(144.29,62.72) scale(4.50)' color='rgb( 40,   0, 230)'/>
	<use xlink:href='#gpPt13' transform='translate(180.16,67.55) scale(4.50)' color='rgb( 40,   0, 230)'/>
	<use xlink:href='#gpPt13' transform='translate(216.04,76.23) scale(4.50)' color='rgb( 40,   0, 230)'/>
	<use xlink:href='#gpPt13' transform='translate(251.92,89.24) scale(4.50)' color='rgb( 40,   0, 230)'/>
	<use xlink:href='#gpPt13' transform='translate(287.80,105.19) scale(4.50)' color='rgb( 40,   0, 230)'/>
	<use xlink:href='#gpPt13' transform='translate(323.68,128.75) scale(4.50)' color='rgb( 40,   0, 230)'/>
	<use xlink:href='#gpPt13' transform='translate(359.55,155.04) scale(4.50)' color='rgb( 40,   0, 230)'/>
	<use xlink:href='#gpPt13' transform='translate(395.43,188.02) scale(4.50)' color='rgb( 40,   0, 230)'/>
	<use xlink:href='#gpPt13' transform='translate(431.31,223.48) scale(4.50)' color='rgb( 40,   0, 230)'/>
	<use xlink:href='#gpPt13' transform='translate(467.19,262.78) scale(4.50)' color='rgb( 40,   0, 230)'/>
	<use xlink:href='#gpPt13' transform='translate(503.06,305.58) scale(4.50)' color='rgb( 40,   0, 230)'/>
	<use xlink:href='#gpPt13' transform='translate(538.94,348.61) scale(4.50)' color='rgb( 40,   0, 230)'/>
	<use xlink:href='#gpPt13' transform='translate(574.82,391.67) scale(4.50)' color='rgb( 40,   0, 230)'/>
	<use xlink:href='#gpPt13' transform='translate(186.10,260.40) scale(4.50)' color='rgb( 40,   0, 230)'/>
</g>
	</g>
	<g id="gnuplot_plot_15" ><title>-speed 3</title>
<g fill="none" color="black" stroke="currentColor" stroke-width="1.00" stroke-linecap="butt" stroke-linejoin="miter">
	<g transform="translate(156.43,282.30)" stroke="none" fill="black" font-family="Arial" font-size="12.00"  text-anchor="end">
		<text><tspan font-family="Arial" >-speed 3</tspan></text>
	</g>
</g>
<g fill="none" color="black" stroke="currentColor" stroke-width="1.00" stroke-linecap="butt" stroke-linejoin="miter">
	<use xlink:href='#gpPt14' transform='translate(108.41,58.90) scale(4.50)' color='rgb(  0,  80, 230)'/>
	<use xlink:href='#gpPt14' transform='translate(144.29,62.86) scale(4.50)' color='rgb(  0,  80, 230)'/>
	<use xlink:href='#gpPt14' transform='translate(180.16,67.76) scale(4.50)' color='rgb(  0,  80, 230)'/>
	<use xlink:href='#gpPt14' transform='translate(216.04,76.32) scale(4.50)' color='rgb(  0,  80, 230)'/>
	<use xlink:href='#gpPt14' transform='translate(251.92,89.53) scale(4.50)' color='rgb(  0,  80, 230)'/>
	<use xlink:href='#gpPt14' transform='translate(287.80,105.37) scale(4.50)' color='rgb(  0,  80, 230)'/>
	<use xlink:href='#gpPt14' transform='translate(323.68,129.09) scale(4.50)' color='rgb(  0,  80, 230)'/>
	<use xlink:href='#gpPt14' transform='translate(359.55,155.30) scale(4.50)' color='rgb(  0,  80, 230)'/>
	<use xlink:href='#gpPt14' transform='translate(395.43,188.28) scale(4.50)' color='rgb(  0,  80, 230)'/>
	<use xlink:href='#gpPt14' transform='translate(431.31,223.92) scale(4.50)' color='rgb(  0,  80, 230)'/>
	<use xlink:href='#gpPt14' transform='translate(467.19,262.91) scale(4.50)' color='rgb(  0,  80, 230)'/>
	<use xlink:href='#gpPt14' transform='translate(503.06,305.74) scale(4.50)' color='rgb(  0,  80, 230)'/>
	<use xlink:href='#gpPt14' transform='translate(538.94,349.19) scale(4.50)' color='rgb(  0,  80, 230)'/>
	<use xlink:href='#gpPt14' transform='translate(574.82,391.43) scale(4.50)' color='rgb(  0,  80, 230)'/>
	<use xlink:href='#gpPt14' transform='translate(186.10,278.40) scale(4.50)' color='rgb(  0,  80, 230)'/>
</g>
	</g>
	<g id="gnuplot_plot_16" ><title>-speed 4</title>
<g fill="none" color="black" stroke="currentColor" stroke-width="1.00" stroke-linecap="butt" stroke-linejoin="miter">
	<g transform="translate(156.43,300.30)" stroke="none" fill="black" font-family="Arial" font-size="12.00"  text-anchor="end">
		<text><tspan font-family="Arial" >-speed 4</tspan></text>
	</g>
</g>
<g fill="none" color="black" stroke="currentColor" stroke-width="1.00" stroke-linecap="butt" stroke-linejoin="miter">
	<use xlink:href='#gpPt0' transform='translate(108.41,58.98) scale(4.50)' color='rgb(  0, 200, 230)'/>
	<use xlink:href='#gpPt0' transform='translate(144.29,62.99) scale(4.50)' color='rgb(  0, 200, 230)'/>
	<use xlink:href='#gpPt0' transform='translate(180.16,67.87) scale(4.50)' color='rgb(  0, 200, 230)'/>
	<use xlink:href='#gpPt0' transform='translate(216.04,76.53) scale(4.50)' color='rgb(  0, 200, 230)'/>
	<use xlink:href='#gpPt0' transform='translate(251.92,89.75) scale(4.50)' color='rgb(  0, 200, 230)'/>
	<use xlink:href='#gpPt0' transform='translate(287.80,105.65) scale(4.50)' color='rgb(  0, 200, 230)'/>
	<use xlink:href='#gpPt0' transform='translate(323.68,129.29) scale(4.50)' color='rgb(  0, 200, 230)'/>
	<use xlink:href='#gpPt0' transform='translate(359.55,155.69) scale(4.50)' color='rgb(  0, 200, 230)'/>
	<use xlink:href='#gpPt0' transform='translate(395.43,188.63) scale(4.50)' color='rgb(  0, 200, 230)'/>
	<use xlink:href='#gpPt0' transform='translate(431.31,224.12) scale(4.50)' color='rgb(  0, 200, 230)'/>
	<use xlink:href='#gpPt0' transform='translate(467.19,263.13) scale(4.50)' color='rgb(  0, 200, 230)'/>
	<use xlink:href='#gpPt0' transform='translate(503.06,305.92) scale(4.50)' color='rgb(  0, 200, 230)'/>
	<use xlink:href='#gpPt0' transform='translate(538.94,348.80) scale(4.50)' color='rgb(  0, 200, 230)'/>
	<use xlink:href='#gpPt0' transform='translate(574.82,391.23) scale(4.50)' color='rgb(  0, 200, 230)'/>
	<use xlink:href='#gpPt0' transform='translate(186.10,296.40) scale(4.50)' color='rgb(  0, 200, 230)'/>
</g>
	</g>
	<g id="gnuplot_plot_17" ><title>-speed 5</title>
<g fill="none" color="black" stroke="currentColor" stroke-width="1.00" stroke-linecap="butt" stroke-linejoin="miter">
	<g transform="translate(156.43,318.30)" stroke="none" fill="black" font-family="Arial" font-size="12.00"  text-anchor="end">
		<text><tspan font-family="Arial" >-speed 5</tspan></text>
	</g>
</g>
<g fill="none" color="black" stroke="currentColor" stroke-width="1.00" stroke-linecap="butt" stroke-linejoin="miter">
	<use xlink:href='#gpPt1' transform='translate(108.41,58.99) scale(4.50)' color='rgb(  0, 230, 140)'/>
	<use xlink:href='#gpPt1' transform='translate(144.29,63.00) scale(4.50)' color='rgb(  0, 230, 140)'/>
	<use xlink:href='#gpPt1' transform='translate(180.16,67.89) scale(4.50)' color='rgb(  0, 230, 140)'/>
	<use xlink:href='#gpPt1' transform='translate(216.04,76.56) scale(4.50)' color='rgb(  0, 230, 140)'/>
	<use xlink:href='#gpPt1' transform='translate(251.92,89.68) scale(4.50)' color='rgb(  0, 230, 140)'/>
	<use xlink:href='#gpPt1' transform='translate(287.80,105.65) scale(4.50)' color='rgb(  0, 230, 140)'/>
	<use xlink:href='#gpPt1' transform='translate(323.68,129.46) scale(4.50)' color='rgb(  0, 230, 140)'/>
	<use xlink:href='#gpPt1' transform='translate(359.55,155.60) scale(4.50)' color='rgb(  0, 230, 140)'/>
	<use xlink:href='#gpPt1' transform='translate(395.43,188.51) scale(4.50)' color='rgb(  0, 230, 140)'/>
	<use xlink:href='#gpPt1' transform='translate(431.31,224.12) scale(4.50)' color='rgb(  0, 230, 140)'/>
	<use xlink:href='#gpPt1' transform='translate(467.19,263.09) scale(4.50)' color='rgb(  0, 230, 140)'/>
	<use xlink:href='#gpPt1' transform='translate(503.06,305.86) scale(4.50)' color='rgb(  0, 230, 140)'/>
	<use xlink:href='#gpPt1' transform='translate(538.94,349.20) scale(4.50)' color='rgb(  0, 230, 140)'/>
	<use xlink:href='#gpPt1' transform='translate(574.82,391.47) scale(4.50)' color='rgb(  0, 230, 140)'/>
	<use xlink:href='#gpPt1' transform='translate(186.10,314.40) scale(4.50)' color='rgb(  0, 230, 140)'/>
</g>
	</g>
	<g id="gnuplot_plot_18" ><title>-speed 6</title>
<g fill="none" color="black" stroke="currentColor" stroke-width="1.00" stroke-linecap="butt" stroke-linejoin="miter">
	<g transform="translate(156.43,336.30)" stroke="none" fill="black" font-family="Arial" font-size="12.00"  text-anchor="end">
		<text><tspan font-family="Arial" >-speed 6</tspan></text>
	</g>
</g>
<g fill="none" color="black" stroke="currentColor" stroke-width="1.00" stroke-linecap="butt" stroke-linejoin="miter">
	<use xlink:href='#gpPt2' transform='translate(108.41,58.99) scale(4.50)' color='rgb(  0, 230,  20)'/>
	<use xlink:href='#gpPt2' transform='translate(144.29,63.03) scale(4.50)' color='rgb(  0, 230,  20)'/>
	<use xlink:href='#gpPt2' transform='translate(180.16,67.90) scale(4.50)' color='rgb(  0, 230,  20)'/>
	<use xlink:href='#gpPt2' transform='translate(216.04,76.53) scale(4.50)' color='rgb(  0, 230,  20)'/>
	<use xlink:href='#gpPt2' transform='translate(251.92,89.85) scale(4.50)' color='rgb(  0, 230,  20)'/>
	<use xlink:href='#gpPt2' transform='translate(287.80,105.82) scale(4.50)' color='rgb(  0, 230,  20)'/>
	<use xlink:href='#gpPt2' transform='translate(323.68,129.53) scale(4.50)' color='rgb(  0, 230,  20)'/>
	<use xlink:href='#gpPt2' transform='translate(359.55,155.68) scale(4.50)' color='rgb(  0, 230,  20)'/>
	<use xlink:href='#gpPt2' transform='translate(395.43,189.12) scale(4.50)' color='rgb(  0, 230,  20)'/>
	<use xlink:href='#gpPt2' transform='translate(431.31,224.31) scale(4.50)' color='rgb(  0, 230,  20)'/>
	<use xlink:href='#gpPt2' transform='translate(467.19,263.54) scale(4.50)' color='rgb(  0, 230,  20)'/>
	<use xlink:href='#gpPt2' transform='translate(503.06,306.48) scale(4.50)' color='rgb(  0, 230,  20)'/>
	<use xlink:href='#gpPt2' transform='translate(538.94,350.24) scale(4.50)' color='rgb(  0, 230,  20)'/>
	<use xlink:href='#gpPt2' transform='translate(574.82,392.79) scale(4.50)' color='rgb(  0, 230,  20)'/>
	<use xlink:href='#gpPt2' transform='translate(186.10,332.40) scale(4.50)' color='rgb(  0, 230,  20)'/>
</g>
	</g>
	<g id="gnuplot_plot_19" ><title>-speed 7</title>
<g fill="none" color="black" stroke="currentColor" stroke-width="1.00" stroke-linecap="butt" stroke-linejoin="miter">
	<g transform="translate(156.43,354.30)" stroke="none" fill="black" font-family="Arial" font-size="12.00"  text-anchor="end">
		<text><tspan font-family="Arial" >-speed 7</tspan></text>
	</g>
</g>
<g fill="none" color="black" stroke="currentColor" stroke-width="1.00" stroke-linecap="butt" stroke-linejoin="miter">
	<use xlink:href='#gpPt3' transform='translate(108.41,58.98) scale(4.50)' color='rgb(100, 230,   0)'/>
	<use xlink:href='#gpPt3' transform='translate(144.29,62.99) scale(4.50)' color='rgb(100, 230,   0)'/>
	<use xlink:href='#gpPt3' transform='translate(180.16,67.91) scale(4.50)' color='rgb(100, 230,   0)'/>
	<use xlink:href='#gpPt3' transform='translate(216.04,76.60) scale(4.50)' color='rgb(100, 230,   0)'/>
	<use xlink:href='#gpPt3' transform='translate(251.92,89.85) scale(4.50)' color='rgb(100, 230,   0)'/>
	<use xlink:href='#gpPt3' transform='translate(287.80,105.86) scale(4.50)' color='rgb(100, 230,   0)'/>
	<use xlink:href='#gpPt3' transform='translate(323.68,129.64) scale(4.50)' color='rgb(100, 230,   0)'/>
	<use xlink:href='#gpPt3' transform='translate(359.55,155.69) scale(4.50)' color='rgb(100, 230,   0)'/>
	<use xlink:href='#gpPt3' transform='translate(395.43,188.93) scale(4.50)' color='rgb(100, 230,   0)'/>
	<use xlink:href='#gpPt3' transform='translate(431.31,224.33) scale(4.50)' color='rgb(100, 230,   0)'/>
	<use xlink:href='#gpPt3' transform='translate(467.19,263.73) scale(4.50)' color='rgb(100, 230,   0)'/>
	<use xlink:href='#gpPt3' transform='translate(503.06,306.82) scale(4.50)' color='rgb(100, 230,   0)'/>
	<use xlink:href='#gpPt3' transform='translate(538.94,350.29) scale(4.50)' color='rgb(100, 230,   0)'/>
	<use xlink:href='#gpPt3' transform='translate(574.82,393.08) scale(4.50)' color='rgb(100, 230,   0)'/>
	<use xlink:href='#gpPt3' transform='translate(186.10,350.40) scale(4.50)' color='rgb(100, 230,   0)'/>
</g>
	</g>
	<g id="gnuplot_plot_20" ><title>-speed 8</title>
<g fill="none" color="black" stroke="currentColor" stroke-width="1.00" stroke-linecap="butt" stroke-linejoin="miter">
	<g transform="translate(156.43,372.30)" stroke="none" fill="black" font-family="Arial" font-size="12.00"  text-anchor="end">
		<text><tspan font-family="Arial" >-speed 8</tspan></text>
	</g>
</g>
<g fill="none" color="black" stroke="currentColor" stroke-width="1.00" stroke-linecap="butt" stroke-linejoin="miter">
	<use xlink:href='#gpPt4' transform='translate(108.41,59.22) scale(4.50)' color='rgb(220, 230,   0)'/>
	<use xlink:href='#gpPt4' transform='translate(144.29,63.33) scale(4.50)' color='rgb(220, 230,   0)'/>
	<use xlink:href='#gpPt4' transform='translate(180.16,68.43) scale(4.50)' color='rgb(220, 230,   0)'/>
	<use xlink:href='#gpPt4' transform='translate(216.04,77.47) scale(4.50)' color='rgb(220, 230,   0)'/>
	<use xlink:href='#gpPt4' transform='translate(251.92,91.24) scale(4.50)' color='rgb(220, 230,   0)'/>
	<use xlink:href='#gpPt4' transform='translate(287.80,108.05) scale(4.50)' color='rgb(220, 230,   0)'/>
	<use xlink:href='#gpPt4' transform='translate(323.68,132.38) scale(4.50)' color='rgb(220, 230,   0)'/>
	<use xlink:href='#gpPt4' transform='translate(359.55,158.57) scale(4.50)' color='rgb(220, 230,   0)'/>
	<use xlink:href='#gpPt4' transform='translate(395.43,191.24) scale(4.50)' color='rgb(220, 230,   0)'/>
	<use xlink:href='#gpPt4' transform='translate(431.31,225.50) scale(4.50)' color='rgb(220, 230,   0)'/>
	<use xlink:href='#gpPt4' transform='translate(467.19,263.91) scale(4.50)' color='rgb(220, 230,   0)'/>
	<use xlink:href='#gpPt4' transform='translate(503.06,306.60) scale(4.50)' color='rgb(220, 230,   0)'/>
	<use xlink:href='#gpPt4' transform='translate(538.94,349.63) scale(4.50)' color='rgb(220, 230,   0)'/>
	<use xlink:href='#gpPt4' transform='translate(574.82,392.41) scale(4.50)' color='rgb(220, 230,   0)'/>
	<use xlink:href='#gpPt4' transform='translate(186.10,368.40) scale(4.50)' color='rgb(220, 230,   0)'/>
</g>
	</g>
	<g id="gnuplot_plot_21" ><title>-speed 9</title>
<g fill="none" color="black" stroke="currentColor" stroke-width="1.00" stroke-linecap="butt" stroke-linejoin="miter">
	<g transform="translate(156.43,390.30)" stroke="none" fill="black" font-family="Arial" font-size="12.00"  text-anchor="end">
		<text><tspan font-family="Arial" >-speed 9</tspan></text>
	</g>
</g>
<g fill="none" color="black" stroke="currentColor" stroke-width="1.00" stroke-linecap="butt" stroke-linejoin="miter">
	<use xlink:href='#gpPt5' transform='translate(108.41,58.92) scale(4.50)' color='rgb(230, 120,   0)'/>
	<use xlink:href='#gpPt5' transform='translate(144.29,63.10) scale(4.50)' color='rgb(230, 120,   0)'/>
	<use xlink:href='#gpPt5' transform='translate(180.16,68.27) scale(4.50)' color='rgb(230, 120,   0)'/>
	<use xlink:href='#gpPt5' transform='translate(216.04,77.83) scale(4.50)' color='rgb(230, 120,   0)'/>
	<use xlink:href='#gpPt5' transform='translate(251.92,91.67) scale(4.50)' color='rgb(230, 120,   0)'/>
	<use xlink:href='#gpPt5' transform='translate(287.80,107.22) scale(4.50)' color='rgb(230, 120,   0)'/>
	<use xlink:href='#gpPt5' transform='translate(323.68,130.76) scale(4.50)' color='rgb(230, 120,   0)'/>
	<use xlink:href='#gpPt5' transform='translate(359.55,155.25) scale(4.50)' color='rgb(230, 120,   0)'/>
	<use xlink:href='#gpPt5' transform='translate(395.43,186.97) scale(4.50)' color='rgb(230, 120,   0)'/>
	<use xlink:href='#gpPt5' transform='translate(431.31,220.49) scale(4.50)' color='rgb(230, 120,   0)'/>
	<use xlink:href='#gpPt5' transform='translate(467.19,258.99) scale(4.50)' color='rgb(230, 120,   0)'/>
	<use xlink:href='#gpPt5' transform='translate(503.06,303.26) scale(4.50)' color='rgb(230, 120,   0)'/>
	<use xlink:href='#gpPt5' transform='translate(538.94,347.28) scale(4.50)' color='rgb(230, 120,   0)'/>
	<use xlink:href='#gpPt5' transform='translate(574.82,390.49) scale(4.50)' color='rgb(230, 120,   0)'/>
	<use xlink:href='#gpPt5' transform='translate(186.10,386.40) scale(4.50)' color='rgb(230, 120,   0)'/>
</g>
	</g>
	<g id="gnuplot_plot_22" ><title>-speed 10</title>
<g fill="none" color="black" stroke="currentColor" stroke-width="1.00" stroke-linecap="butt" stroke-linejoin="miter">
	<g transform="translate(156.43,408.30)" stroke="none" fill="black" font-family="Arial" font-size="12.00"  text-anchor="end">
		<text><tspan font-family="Arial" >-speed 10</tspan></text>
	</g>
</g>
<g fill="none" color="black" stroke="currentColor" stroke-width="1.00" stroke-linecap="butt" stroke-linejoin="miter">
	<use xlink:href='#gpPt6' transform='translate(108.41,59.17) scale(4.50)' color='rgb(230,   0,   0)'/>
	<use xlink:href='#gpPt6' transform='translate(144.29,63.00) scale(4.50)' color='rgb(230,   0,   0)'/>
	<use xlink:href='#gpPt6' transform='translate(180.16,67.93) scale(4.50)' color='rgb(230,   0,   0)'/>
	<use xlink:href='#gpPt6' transform='translate(216.04,76.61) scale(4.50)' color='rgb(230,   0,   0)'/>
	<use xlink:href='#gpPt6' transform='translate(251.92,89.40) scale(4.50)' color='rgb(230,   0,   0)'/>
	<use xlink:href='#gpPt6' transform='translate(287.80,104.15) scale(4.50)' color='rgb(230,   0,   0)'/>
	<use xlink:href='#gpPt6' transform='translate(323.68,126.78) scale(4.50)' color='rgb(230,   0,   0)'/>
	<use xlink:href='#gpPt6' transform='translate(359.55,150.60) scale(4.50)' color='rgb(230,   0,   0)'/>
	<use xlink:href='#gpPt6' transform='translate(395.43,181.75) scale(4.50)' color='rgb(230,   0,   0)'/>
	<use xlink:href='#gpPt6' transform='translate(431.31,215.53) scale(4.50)' color='rgb(230,   0,   0)'/>
	<use xlink:href='#gpPt6' transform='translate(467.19,254.31) scale(4.50)' color='rgb(230,   0,   0)'/>
	<use xlink:href='#gpPt6' transform='translate(503.06,300.33) scale(4.50)' color='rgb(230,   0,   0)'/>
	<use xlink:href='#gpPt6' transform='translate(538.94,345.59) scale(4.50)' color='rgb(230,   0,   0)'/>
	<use xlink:href='#gpPt6' transform='translate(574.82,391.10) scale(4.50)' color='rgb(230,   0,   0)'/>
	<use xlink:href='#gpPt6' transform='translate(186.10,404.40) scale(4.50)' color='rgb(230,   0,   0)'/>
</g>
	</g>
<g fill="none" color="white" stroke="rgb(230,   0,   0)" stroke-width="2.00" stroke-linecap="butt" stroke-linejoin="miter">
</g>
<g fill="none" color="black" stroke="currentColor" stroke-width="2.00" stroke-linecap="butt" stroke-linejoin="miter">
</g>
<g fill="none" color="black" stroke="black" stroke-width="1.00" stroke-linecap="butt" stroke-linejoin="miter">
</g>
<g fill="none" color="black" stroke="currentColor" stroke-width="1.00" stroke-linecap="butt" stroke-linejoin="miter">
	<path stroke='black'  d='M72.53,54.01 L72.53,422.40 L574.82,422.40 L574.82,54.01 L72.53,54.01 Z  '/></g>
<g fill="none" color="black" stroke="currentColor" stroke-width="1.00" stroke-linecap="butt" stroke-linejoin="miter">
	<g transform="translate(323.67,30.91)" stroke="none" fill="black" font-family="Arial" font-size="12.00"  text-anchor="middle">
		<text>crowd_run - rav1e qp x VMAF</text>
	</g>
</g>
<g fill="none" color="black" stroke="currentColor" stroke-width="1.00" stroke-linecap="butt" stroke-linejoin="miter">
</g>
</g>
</svg>

