"-qp 70"
rav1e/speed-1-qp-70.mkv;Matroska;AV1;Main;42585471;41738020;99.26462;95.024337;1920;1080;50.000;500;4:2:0;8;53231839;Lavc58.136.101 librav1e;1;1;70;1
rav1e/speed-2-qp-70.mkv;Matroska;AV1;Main;43072383;42215243;99.217192;94.904042;1920;1080;50.000;500;4:2:0;8;53840479;Lavc58.136.101 librav1e;2;2;70;1
rav1e/speed-3-qp-70.mkv;Matroska;AV1;Main;43330028;42467760;99.203055;94.907391;1920;1080;50.000;500;4:2:0;8;54162535;Lavc58.136.101 librav1e;3;3;70;1
rav1e/speed-4-qp-70.mkv;Matroska;AV1;Main;43720323;42850289;99.19021;94.907391;1920;1080;50.000;500;4:2:0;8;54650404;Lavc58.136.101 librav1e;4;4;70;1
rav1e/speed-5-qp-70.mkv;Matroska;AV1;Main;43727537;42857359;99.188782;94.909168;1920;1080;50.000;500;4:2:0;8;54659421;Lavc58.136.101 librav1e;5;5;70;1
rav1e/speed-6-qp-70.mkv;Matroska;AV1;Main;44088503;43211142;99.189221;94.818124;1920;1080;50.000;500;4:2:0;8;55110629;Lavc58.136.101 librav1e;6;6;70;1
rav1e/speed-7-qp-70.mkv;Matroska;AV1;Main;44091875;43214447;99.190016;94.741216;1920;1080;50.000;500;4:2:0;8;55114844;Lavc58.136.101 librav1e;7;7;70;1
rav1e/speed-8-qp-70.mkv;Matroska;AV1;Main;44074751;43197663;99.152065;94.736232;1920;1080;50.000;500;4:2:0;8;55093439;Lavc58.136.101 librav1e;8;8;70;1
rav1e/speed-9-qp-70.mkv;Matroska;AV1;Main;62505936;61262068;99.200829;94.554646;1920;1080;50.000;500;4:2:0;8;78132420;Lavc58.136.101 librav1e;9;9;70;1
rav1e/speed-10-qp-70.mkv;Matroska;AV1;Main;64104252;62828577;99.160368;94.399244;1920;1080;50.000;500;4:2:0;8;80130315;Lavc58.136.101 librav1e;10;10;70;1


"-qp 80"
rav1e/speed-1-qp-80.mkv;Matroska;AV1;Main;36099051;35380680;98.647203;94.690337;1920;1080;50.000;500;4:2:0;8;45123814;Lavc58.136.101 librav1e;1;1;80;2
rav1e/speed-2-qp-80.mkv;Matroska;AV1;Main;36413208;35688585;98.580757;94.551378;1920;1080;50.000;500;4:2:0;8;45516510;Lavc58.136.101 librav1e;2;2;80;2
rav1e/speed-3-qp-80.mkv;Matroska;AV1;Main;36612746;35884152;98.558056;94.574894;1920;1080;50.000;500;4:2:0;8;45765933;Lavc58.136.101 librav1e;3;3;80;2
rav1e/speed-4-qp-80.mkv;Matroska;AV1;Main;36961252;36225723;98.537803;94.574894;1920;1080;50.000;500;4:2:0;8;46201565;Lavc58.136.101 librav1e;4;4;80;2
rav1e/speed-5-qp-80.mkv;Matroska;AV1;Main;36947058;36211812;98.535357;94.576662;1920;1080;50.000;500;4:2:0;8;46183823;Lavc58.136.101 librav1e;5;5;80;2
rav1e/speed-6-qp-80.mkv;Matroska;AV1;Main;37290759;36548673;98.531018;94.413266;1920;1080;50.000;500;4:2:0;8;46613449;Lavc58.136.101 librav1e;6;6;80;2
rav1e/speed-7-qp-80.mkv;Matroska;AV1;Main;37303422;36561084;98.53747;94.401735;1920;1080;50.000;500;4:2:0;8;46629277;Lavc58.136.101 librav1e;7;7;80;2
rav1e/speed-8-qp-80.mkv;Matroska;AV1;Main;37293500;36551359;98.482496;94.369285;1920;1080;50.000;500;4:2:0;8;46616875;Lavc58.136.101 librav1e;8;8;80;2
rav1e/speed-9-qp-80.mkv;Matroska;AV1;Main;53814686;52743774;98.518828;94.070686;1920;1080;50.000;500;4:2:0;8;67268357;Lavc58.136.101 librav1e;9;9;80;2
rav1e/speed-10-qp-80.mkv;Matroska;AV1;Main;55029922;53934827;98.535697;93.89727;1920;1080;50.000;500;4:2:0;8;68787403;Lavc58.136.101 librav1e;10;10;80;2


"-qp 90"
rav1e/speed-1-qp-90.mkv;Matroska;AV1;Main;31227665;30606234;97.885023;93.543044;1920;1080;50.000;500;4:2:0;8;39034581;Lavc58.136.101 librav1e;1;1;90;3
rav1e/speed-2-qp-90.mkv;Matroska;AV1;Main;31459822;30833772;97.794429;93.387362;1920;1080;50.000;500;4:2:0;8;39324777;Lavc58.136.101 librav1e;2;2;90;3
rav1e/speed-3-qp-90.mkv;Matroska;AV1;Main;31611593;30982522;97.760163;93.277232;1920;1080;50.000;500;4:2:0;8;39514491;Lavc58.136.101 librav1e;3;3;90;3
rav1e/speed-4-qp-90.mkv;Matroska;AV1;Main;31922894;31287628;97.743103;93.114337;1920;1080;50.000;500;4:2:0;8;39903617;Lavc58.136.101 librav1e;4;4;90;3
rav1e/speed-5-qp-90.mkv;Matroska;AV1;Main;31911917;31276870;97.73969;93.166844;1920;1080;50.000;500;4:2:0;8;39889896;Lavc58.136.101 librav1e;5;5;90;3
rav1e/speed-6-qp-90.mkv;Matroska;AV1;Main;32236011;31594514;97.737224;93.197152;1920;1080;50.000;500;4:2:0;8;40295014;Lavc58.136.101 librav1e;6;6;90;3
rav1e/speed-7-qp-90.mkv;Matroska;AV1;Main;32239601;31598033;97.735882;93.225048;1920;1080;50.000;500;4:2:0;8;40299501;Lavc58.136.101 librav1e;7;7;90;3
rav1e/speed-8-qp-90.mkv;Matroska;AV1;Main;32252776;31610946;97.650924;93.066438;1920;1080;50.000;500;4:2:0;8;40315970;Lavc58.136.101 librav1e;8;8;90;3
rav1e/speed-9-qp-90.mkv;Matroska;AV1;Main;47182460;46243529;97.677585;93.070113;1920;1080;50.000;500;4:2:0;8;58978075;Lavc58.136.101 librav1e;9;9;90;3
rav1e/speed-10-qp-90.mkv;Matroska;AV1;Main;48095723;47138618;97.733163;92.761141;1920;1080;50.000;500;4:2:0;8;60119654;Lavc58.136.101 librav1e;10;10;90;3


"-qp 100"
rav1e/speed-1-qp-100.mkv;Matroska;AV1;Main;25980381;25463371;96.515361;91.575588;1920;1080;50.000;500;4:2:0;8;32475476;Lavc58.136.101 librav1e;1;1;100;4
rav1e/speed-2-qp-100.mkv;Matroska;AV1;Main;26212836;25691201;96.38163;91.212934;1920;1080;50.000;500;4:2:0;8;32766045;Lavc58.136.101 librav1e;2;2;100;4
rav1e/speed-3-qp-100.mkv;Matroska;AV1;Main;26335480;25811404;96.365716;91.187669;1920;1080;50.000;500;4:2:0;8;32919350;Lavc58.136.101 librav1e;3;3;100;4
rav1e/speed-4-qp-100.mkv;Matroska;AV1;Main;26591631;26062458;96.331507;90.969079;1920;1080;50.000;500;4:2:0;8;33239539;Lavc58.136.101 librav1e;4;4;100;4
rav1e/speed-5-qp-100.mkv;Matroska;AV1;Main;26580783;26051825;96.327813;90.978885;1920;1080;50.000;500;4:2:0;8;33225979;Lavc58.136.101 librav1e;5;5;100;4
rav1e/speed-6-qp-100.mkv;Matroska;AV1;Main;26860238;26325719;96.332105;91.22145;1920;1080;50.000;500;4:2:0;8;33575297;Lavc58.136.101 librav1e;6;6;100;4
rav1e/speed-7-qp-100.mkv;Matroska;AV1;Main;26857808;26323338;96.320275;91.064322;1920;1080;50.000;500;4:2:0;8;33572260;Lavc58.136.101 librav1e;7;7;100;4
rav1e/speed-8-qp-100.mkv;Matroska;AV1;Main;26923398;26387622;96.17886;90.883715;1920;1080;50.000;500;4:2:0;8;33654248;Lavc58.136.101 librav1e;8;8;100;4
rav1e/speed-9-qp-100.mkv;Matroska;AV1;Main;39228246;38447604;96.120526;90.685891;1920;1080;50.000;500;4:2:0;8;49035307;Lavc58.136.101 librav1e;9;9;100;4
rav1e/speed-10-qp-100.mkv;Matroska;AV1;Main;40054385;39257303;96.31929;90.542432;1920;1080;50.000;500;4:2:0;8;50067981;Lavc58.136.101 librav1e;10;10;100;4


"-qp 110"
rav1e/speed-1-qp-110.mkv;Matroska;AV1;Main;21374585;20949231;94.454753;88.57292;1920;1080;50.000;500;4:2:0;8;26718231;Lavc58.136.101 librav1e;1;1;110;5
rav1e/speed-2-qp-110.mkv;Matroska;AV1;Main;21654061;21223145;94.262644;87.99485;1920;1080;50.000;500;4:2:0;8;27067576;Lavc58.136.101 librav1e;2;2;110;5
rav1e/speed-3-qp-110.mkv;Matroska;AV1;Main;21747898;21315115;94.214121;88.14954;1920;1080;50.000;500;4:2:0;8;27184873;Lavc58.136.101 librav1e;3;3;110;5
rav1e/speed-4-qp-110.mkv;Matroska;AV1;Main;21949970;21513166;94.178912;87.933767;1920;1080;50.000;500;4:2:0;8;27437462;Lavc58.136.101 librav1e;4;4;110;5
rav1e/speed-5-qp-110.mkv;Matroska;AV1;Main;21952258;21515408;94.190132;87.936671;1920;1080;50.000;500;4:2:0;8;27440322;Lavc58.136.101 librav1e;5;5;110;5
rav1e/speed-6-qp-110.mkv;Matroska;AV1;Main;22173107;21731862;94.162546;88.041508;1920;1080;50.000;500;4:2:0;8;27716384;Lavc58.136.101 librav1e;6;6;110;5
rav1e/speed-7-qp-110.mkv;Matroska;AV1;Main;22175961;21734659;94.163366;88.078288;1920;1080;50.000;500;4:2:0;8;27719951;Lavc58.136.101 librav1e;7;7;110;5
rav1e/speed-8-qp-110.mkv;Matroska;AV1;Main;22283583;21840140;93.937011;87.412254;1920;1080;50.000;500;4:2:0;8;27854479;Lavc58.136.101 librav1e;8;8;110;5
rav1e/speed-9-qp-110.mkv;Matroska;AV1;Main;32202907;31562069;93.86597;87.817198;1920;1080;50.000;500;4:2:0;8;40253634;Lavc58.136.101 librav1e;9;9;110;5
rav1e/speed-10-qp-110.mkv;Matroska;AV1;Main;32921705;32266563;94.23585;87.706094;1920;1080;50.000;500;4:2:0;8;41152131;Lavc58.136.101 librav1e;10;10;110;5


"-qp 120"
rav1e/speed-1-qp-120.mkv;Matroska;AV1;Main;17696491;17344331;91.909654;84.964847;1920;1080;50.000;500;4:2:0;8;22120614;Lavc58.136.101 librav1e;1;1;120;6
rav1e/speed-2-qp-120.mkv;Matroska;AV1;Main;18056109;17696792;91.664113;84.570809;1920;1080;50.000;500;4:2:0;8;22570136;Lavc58.136.101 librav1e;2;2;120;6
rav1e/speed-3-qp-120.mkv;Matroska;AV1;Main;18098000;17737850;91.634147;84.603608;1920;1080;50.000;500;4:2:0;8;22622500;Lavc58.136.101 librav1e;3;3;120;6
rav1e/speed-4-qp-120.mkv;Matroska;AV1;Main;18276332;17912633;91.590154;84.405908;1920;1080;50.000;500;4:2:0;8;22845415;Lavc58.136.101 librav1e;4;4;120;6
rav1e/speed-5-qp-120.mkv;Matroska;AV1;Main;18277990;17914258;91.589073;84.431208;1920;1080;50.000;500;4:2:0;8;22847488;Lavc58.136.101 librav1e;5;5;120;6
rav1e/speed-6-qp-120.mkv;Matroska;AV1;Main;18447610;18080503;91.562047;84.324992;1920;1080;50.000;500;4:2:0;8;23059512;Lavc58.136.101 librav1e;6;6;120;6
rav1e/speed-7-qp-120.mkv;Matroska;AV1;Main;18451956;18084762;91.555266;84.443862;1920;1080;50.000;500;4:2:0;8;23064945;Lavc58.136.101 librav1e;7;7;120;6
rav1e/speed-8-qp-120.mkv;Matroska;AV1;Main;18576671;18206995;91.199164;83.931929;1920;1080;50.000;500;4:2:0;8;23220839;Lavc58.136.101 librav1e;8;8;120;6
rav1e/speed-9-qp-120.mkv;Matroska;AV1;Main;26740728;26208588;91.334343;84.694238;1920;1080;50.000;500;4:2:0;8;33425910;Lavc58.136.101 librav1e;9;9;120;6
rav1e/speed-10-qp-120.mkv;Matroska;AV1;Main;27298105;26754873;91.833703;84.923534;1920;1080;50.000;500;4:2:0;8;34122631;Lavc58.136.101 librav1e;10;10;120;6


"-qp 130"
rav1e/speed-1-qp-130.mkv;Matroska;AV1;Main;14009634;13730842;88.133389;80.005915;1920;1080;50.000;500;4:2:0;8;17512042;Lavc58.136.101 librav1e;1;1;130;7
rav1e/speed-2-qp-130.mkv;Matroska;AV1;Main;14426831;14139737;87.826923;79.469609;1920;1080;50.000;500;4:2:0;8;18033539;Lavc58.136.101 librav1e;2;2;130;7
rav1e/speed-3-qp-130.mkv;Matroska;AV1;Main;14475266;14187208;87.772189;79.647783;1920;1080;50.000;500;4:2:0;8;18094083;Lavc58.136.101 librav1e;3;3;130;7
rav1e/speed-4-qp-130.mkv;Matroska;AV1;Main;14602746;14312151;87.739599;79.368327;1920;1080;50.000;500;4:2:0;8;18253433;Lavc58.136.101 librav1e;4;4;130;7
rav1e/speed-5-qp-130.mkv;Matroska;AV1;Main;14602747;14312152;87.711407;79.643612;1920;1080;50.000;500;4:2:0;8;18253434;Lavc58.136.101 librav1e;5;5;130;7
rav1e/speed-6-qp-130.mkv;Matroska;AV1;Main;14708126;14415434;87.699703;79.569664;1920;1080;50.000;500;4:2:0;8;18385157;Lavc58.136.101 librav1e;6;6;130;7
rav1e/speed-7-qp-130.mkv;Matroska;AV1;Main;14707379;14414702;87.681745;79.501567;1920;1080;50.000;500;4:2:0;8;18384224;Lavc58.136.101 librav1e;7;7;130;7
rav1e/speed-8-qp-130.mkv;Matroska;AV1;Main;14850169;14554651;87.235954;79.05919;1920;1080;50.000;500;4:2:0;8;18562711;Lavc58.136.101 librav1e;8;8;130;7
rav1e/speed-9-qp-130.mkv;Matroska;AV1;Main;20901430;20485492;87.499555;80.10504;1920;1080;50.000;500;4:2:0;8;26126787;Lavc58.136.101 librav1e;9;9;130;7
rav1e/speed-10-qp-130.mkv;Matroska;AV1;Main;21348495;20923660;88.147817;80.72911;1920;1080;50.000;500;4:2:0;8;26685619;Lavc58.136.101 librav1e;10;10;130;7


"-qp 140"
rav1e/speed-1-qp-140.mkv;Matroska;AV1;Main;11376264;11149876;84.020357;74.920291;1920;1080;50.000;500;4:2:0;8;14220330;Lavc58.136.101 librav1e;1;1;140;8
rav1e/speed-2-qp-140.mkv;Matroska;AV1;Main;11851603;11615756;83.54474;74.539848;1920;1080;50.000;500;4:2:0;8;14814504;Lavc58.136.101 librav1e;2;2;140;8
rav1e/speed-3-qp-140.mkv;Matroska;AV1;Main;11878262;11641885;83.503138;74.396037;1920;1080;50.000;500;4:2:0;8;14847827;Lavc58.136.101 librav1e;3;3;140;8
rav1e/speed-4-qp-140.mkv;Matroska;AV1;Main;11983922;11745442;83.440025;74.395962;1920;1080;50.000;500;4:2:0;8;14979902;Lavc58.136.101 librav1e;4;4;140;8
rav1e/speed-5-qp-140.mkv;Matroska;AV1;Main;11970944;11732722;83.453679;74.531148;1920;1080;50.000;500;4:2:0;8;14963680;Lavc58.136.101 librav1e;5;5;140;8
rav1e/speed-6-qp-140.mkv;Matroska;AV1;Main;12044081;11804404;83.441566;74.386311;1920;1080;50.000;500;4:2:0;8;15055101;Lavc58.136.101 librav1e;6;6;140;8
rav1e/speed-7-qp-140.mkv;Matroska;AV1;Main;12046829;11807097;83.438536;74.434032;1920;1080;50.000;500;4:2:0;8;15058536;Lavc58.136.101 librav1e;7;7;140;8
rav1e/speed-8-qp-140.mkv;Matroska;AV1;Main;12189662;11947088;82.970137;73.820113;1920;1080;50.000;500;4:2:0;8;15237078;Lavc58.136.101 librav1e;8;8;140;8
rav1e/speed-9-qp-140.mkv;Matroska;AV1;Main;16807051;16472591;83.510645;75.020163;1920;1080;50.000;500;4:2:0;8;21008814;Lavc58.136.101 librav1e;9;9;140;8
rav1e/speed-10-qp-140.mkv;Matroska;AV1;Main;17208551;16866101;84.267753;75.563232;1920;1080;50.000;500;4:2:0;8;21510689;Lavc58.136.101 librav1e;10;10;140;8


"-qp 150"
rav1e/speed-1-qp-150.mkv;Matroska;AV1;Main;8981413;8802683;78.854103;68.979098;1920;1080;50.000;500;4:2:0;8;11226766;Lavc58.136.101 librav1e;1;1;150;9
rav1e/speed-2-qp-150.mkv;Matroska;AV1;Main;9425498;9237931;78.173218;68.119739;1920;1080;50.000;500;4:2:0;8;11781873;Lavc58.136.101 librav1e;2;2;150;9
rav1e/speed-3-qp-150.mkv;Matroska;AV1;Main;9440480;9252614;78.131431;68.353217;1920;1080;50.000;500;4:2:0;8;11800600;Lavc58.136.101 librav1e;3;3;150;9
rav1e/speed-4-qp-150.mkv;Matroska;AV1;Main;9515542;9326183;78.074334;68.246767;1920;1080;50.000;500;4:2:0;8;11894427;Lavc58.136.101 librav1e;4;4;150;9
rav1e/speed-5-qp-150.mkv;Matroska;AV1;Main;9522512;9333014;78.093657;68.15868;1920;1080;50.000;500;4:2:0;8;11903140;Lavc58.136.101 librav1e;5;5;150;9
rav1e/speed-6-qp-150.mkv;Matroska;AV1;Main;9536917;9347132;77.995025;68.370005;1920;1080;50.000;500;4:2:0;8;11921146;Lavc58.136.101 librav1e;6;6;150;9
rav1e/speed-7-qp-150.mkv;Matroska;AV1;Main;9537782;9347980;78.025912;68.339031;1920;1080;50.000;500;4:2:0;8;11922227;Lavc58.136.101 librav1e;7;7;150;9
rav1e/speed-8-qp-150.mkv;Matroska;AV1;Main;9699621;9506599;77.648919;68.058001;1920;1080;50.000;500;4:2:0;8;12124526;Lavc58.136.101 librav1e;8;8;150;9
rav1e/speed-9-qp-150.mkv;Matroska;AV1;Main;12947917;12690253;78.344392;68.266992;1920;1080;50.000;500;4:2:0;8;16184896;Lavc58.136.101 librav1e;9;9;150;9
rav1e/speed-10-qp-150.mkv;Matroska;AV1;Main;13284103;13019749;79.195443;69.014268;1920;1080;50.000;500;4:2:0;8;16605129;Lavc58.136.101 librav1e;10;10;150;9


"-qp 160"
rav1e/speed-1-qp-160.mkv;Matroska;AV1;Main;7130947;6989041;73.197752;62.814783;1920;1080;50.000;500;4:2:0;8;8913684;Lavc58.136.101 librav1e;1;1;160;10
rav1e/speed-2-qp-160.mkv;Matroska;AV1;Main;7484077;7335144;72.397754;61.893418;1920;1080;50.000;500;4:2:0;8;9355096;Lavc58.136.101 librav1e;2;2;160;10
rav1e/speed-3-qp-160.mkv;Matroska;AV1;Main;7489999;7340948;72.326551;61.589142;1920;1080;50.000;500;4:2:0;8;9362499;Lavc58.136.101 librav1e;3;3;160;10
rav1e/speed-4-qp-160.mkv;Matroska;AV1;Main;7558726;7408307;72.29472;61.830612;1920;1080;50.000;500;4:2:0;8;9448407;Lavc58.136.101 librav1e;4;4;160;10
rav1e/speed-5-qp-160.mkv;Matroska;AV1;Main;7552195;7401906;72.29401;62.001143;1920;1080;50.000;500;4:2:0;8;9440244;Lavc58.136.101 librav1e;5;5;160;10
rav1e/speed-6-qp-160.mkv;Matroska;AV1;Main;7560835;7410374;72.263764;62.054091;1920;1080;50.000;500;4:2:0;8;9451044;Lavc58.136.101 librav1e;6;6;160;10
rav1e/speed-7-qp-160.mkv;Matroska;AV1;Main;7559624;7409187;72.260319;61.524814;1920;1080;50.000;500;4:2:0;8;9449530;Lavc58.136.101 librav1e;7;7;160;10
rav1e/speed-8-qp-160.mkv;Matroska;AV1;Main;7725613;7571873;72.069041;61.642655;1920;1080;50.000;500;4:2:0;8;9657016;Lavc58.136.101 librav1e;8;8;160;10
rav1e/speed-9-qp-160.mkv;Matroska;AV1;Main;10095287;9894391;72.885152;62.093565;1920;1080;50.000;500;4:2:0;8;12619109;Lavc58.136.101 librav1e;9;9;160;10
rav1e/speed-10-qp-160.mkv;Matroska;AV1;Main;10355808;10149727;73.692478;62.654385;1920;1080;50.000;500;4:2:0;8;12944760;Lavc58.136.101 librav1e;10;10;160;10


"-qp 170"
rav1e/speed-0-qp-170.mkv;Matroska;AV1;Main;5310621;5204940;67.424911;57.392582;1920;1080;50.000;500;4:2:0;8;6638276;Lavc58.136.101 librav1e;0;0;170;11
rav1e/speed-1-qp-170.mkv;Matroska;AV1;Main;5593059;5481757;66.856383;56.065724;1920;1080;50.000;500;4:2:0;8;6991324;Lavc58.136.101 librav1e;1;1;170;11
rav1e/speed-2-qp-170.mkv;Matroska;AV1;Main;5839039;5722842;65.997763;55.312525;1920;1080;50.000;500;4:2:0;8;7298799;Lavc58.136.101 librav1e;2;2;170;11
rav1e/speed-3-qp-170.mkv;Matroska;AV1;Main;5851593;5735146;65.975686;55.146133;1920;1080;50.000;500;4:2:0;8;7314491;Lavc58.136.101 librav1e;3;3;170;11
rav1e/speed-4-qp-170.mkv;Matroska;AV1;Main;5896557;5779216;65.94101;54.835392;1920;1080;50.000;500;4:2:0;8;7370696;Lavc58.136.101 librav1e;4;4;170;11
rav1e/speed-5-qp-170.mkv;Matroska;AV1;Main;5894048;5776756;65.947234;55.062694;1920;1080;50.000;500;4:2:0;8;7367560;Lavc58.136.101 librav1e;5;5;170;11
rav1e/speed-6-qp-170.mkv;Matroska;AV1;Main;5897027;5779676;65.873782;55.675395;1920;1080;50.000;500;4:2:0;8;7371284;Lavc58.136.101 librav1e;6;6;170;11
rav1e/speed-7-qp-170.mkv;Matroska;AV1;Main;5895857;5778529;65.842343;55.025522;1920;1080;50.000;500;4:2:0;8;7369821;Lavc58.136.101 librav1e;7;7;170;11
rav1e/speed-8-qp-170.mkv;Matroska;AV1;Main;6047459;5927115;65.813745;55.136289;1920;1080;50.000;500;4:2:0;8;7559324;Lavc58.136.101 librav1e;8;8;170;11
rav1e/speed-9-qp-170.mkv;Matroska;AV1;Main;7726319;7572565;66.615518;54.728347;1920;1080;50.000;500;4:2:0;8;9657899;Lavc58.136.101 librav1e;9;9;170;11
rav1e/speed-10-qp-170.mkv;Matroska;AV1;Main;7917916;7760349;67.377489;55.524386;1920;1080;50.000;500;4:2:0;8;9897395;Lavc58.136.101 librav1e;10;10;170;11


"-qp 180"
rav1e/speed-0-qp-180.mkv;Matroska;AV1;Main;4096733;4015208;60.51722;50.379483;1920;1080;50.000;500;4:2:0;8;5120916;Lavc58.136.101 librav1e;0;0;180;12
rav1e/speed-1-qp-180.mkv;Matroska;AV1;Main;4296262;4210766;59.906679;49.568735;1920;1080;50.000;500;4:2:0;8;5370327;Lavc58.136.101 librav1e;1;1;180;12
rav1e/speed-2-qp-180.mkv;Matroska;AV1;Main;4437502;4349196;59.025796;48.494464;1920;1080;50.000;500;4:2:0;8;5546878;Lavc58.136.101 librav1e;2;2;180;12
rav1e/speed-3-qp-180.mkv;Matroska;AV1;Main;4442858;4354445;59.000642;48.690007;1920;1080;50.000;500;4:2:0;8;5553572;Lavc58.136.101 librav1e;3;3;180;12
rav1e/speed-4-qp-180.mkv;Matroska;AV1;Main;4473971;4384939;58.971221;48.274807;1920;1080;50.000;500;4:2:0;8;5592464;Lavc58.136.101 librav1e;4;4;180;12
rav1e/speed-5-qp-180.mkv;Matroska;AV1;Main;4471082;4382107;58.981596;48.445472;1920;1080;50.000;500;4:2:0;8;5588852;Lavc58.136.101 librav1e;5;5;180;12
rav1e/speed-6-qp-180.mkv;Matroska;AV1;Main;4484350;4395111;58.88065;48.611019;1920;1080;50.000;500;4:2:0;8;5605438;Lavc58.136.101 librav1e;6;6;180;12
rav1e/speed-7-qp-180.mkv;Matroska;AV1;Main;4481326;4392148;58.823975;48.39378;1920;1080;50.000;500;4:2:0;8;5601657;Lavc58.136.101 librav1e;7;7;180;12
rav1e/speed-8-qp-180.mkv;Matroska;AV1;Main;4589278;4497951;58.860616;48.705167;1920;1080;50.000;500;4:2:0;8;5736597;Lavc58.136.101 librav1e;8;8;180;12
rav1e/speed-9-qp-180.mkv;Matroska;AV1;Main;5683322;5570224;59.405236;47.811219;1920;1080;50.000;500;4:2:0;8;7104152;Lavc58.136.101 librav1e;9;9;180;12
rav1e/speed-10-qp-180.mkv;Matroska;AV1;Main;5814793;5699079;59.881693;48.303878;1920;1080;50.000;500;4:2:0;8;7268491;Lavc58.136.101 librav1e;10;10;180;12


"-qp 190"
rav1e/speed-0-qp-190.mkv;Matroska;AV1;Main;3178938;3115677;53.357069;44.015785;1920;1080;50.000;500;4:2:0;8;3973672;Lavc58.136.101 librav1e;0;0;190;13
rav1e/speed-1-qp-190.mkv;Matroska;AV1;Main;3318461;3252424;52.625565;42.561071;1920;1080;50.000;500;4:2:0;8;4148076;Lavc58.136.101 librav1e;1;1;190;13
rav1e/speed-2-qp-190.mkv;Matroska;AV1;Main;3396540;3328949;52.018013;42.052969;1920;1080;50.000;500;4:2:0;8;4245675;Lavc58.136.101 librav1e;2;2;190;13
rav1e/speed-3-qp-190.mkv;Matroska;AV1;Main;3402019;3334319;51.923783;42.034284;1920;1080;50.000;500;4:2:0;8;4252524;Lavc58.136.101 librav1e;3;3;190;13
rav1e/speed-4-qp-190.mkv;Matroska;AV1;Main;3426107;3357927;51.98743;42.358899;1920;1080;50.000;500;4:2:0;8;4282634;Lavc58.136.101 librav1e;4;4;190;13
rav1e/speed-5-qp-190.mkv;Matroska;AV1;Main;3427144;3358944;51.922609;42.4451;1920;1080;50.000;500;4:2:0;8;4283930;Lavc58.136.101 librav1e;5;5;190;13
rav1e/speed-6-qp-190.mkv;Matroska;AV1;Main;3438641;3370212;51.752619;42.182868;1920;1080;50.000;500;4:2:0;8;4298301;Lavc58.136.101 librav1e;6;6;190;13
rav1e/speed-7-qp-190.mkv;Matroska;AV1;Main;3438846;3370413;51.744912;42.29642;1920;1080;50.000;500;4:2:0;8;4298558;Lavc58.136.101 librav1e;7;7;190;13
rav1e/speed-8-qp-190.mkv;Matroska;AV1;Main;3512322;3442427;51.852014;42.287843;1920;1080;50.000;500;4:2:0;8;4390403;Lavc58.136.101 librav1e;8;8;190;13
rav1e/speed-9-qp-190.mkv;Matroska;AV1;Main;4235806;4151513;52.234692;41.579679;1920;1080;50.000;500;4:2:0;8;5294757;Lavc58.136.101 librav1e;9;9;190;13
rav1e/speed-10-qp-190.mkv;Matroska;AV1;Main;4321707;4235705;52.509562;41.633248;1920;1080;50.000;500;4:2:0;8;5402134;Lavc58.136.101 librav1e;10;10;190;13


"-qp 200"
rav1e/speed-0-qp-200.mkv;Matroska;AV1;Main;2451135;2402357;46.381429;37.615768;1920;1080;50.000;500;4:2:0;8;3063919;Lavc58.136.101 librav1e;0;0;200;14
rav1e/speed-1-qp-200.mkv;Matroska;AV1;Main;2549950;2499206;45.608209;37.011541;1920;1080;50.000;500;4:2:0;8;3187438;Lavc58.136.101 librav1e;1;1;200;14
rav1e/speed-2-qp-200.mkv;Matroska;AV1;Main;2595883;2544225;45.00466;36.333983;1920;1080;50.000;500;4:2:0;8;3244854;Lavc58.136.101 librav1e;2;2;200;14
rav1e/speed-3-qp-200.mkv;Matroska;AV1;Main;2602921;2551123;45.044846;36.123876;1920;1080;50.000;500;4:2:0;8;3253651;Lavc58.136.101 librav1e;3;3;200;14
rav1e/speed-4-qp-200.mkv;Matroska;AV1;Main;2621045;2568886;45.077318;36.37153;1920;1080;50.000;500;4:2:0;8;3276306;Lavc58.136.101 librav1e;4;4;200;14
rav1e/speed-5-qp-200.mkv;Matroska;AV1;Main;2620676;2568525;45.036859;36.087337;1920;1080;50.000;500;4:2:0;8;3275845;Lavc58.136.101 librav1e;5;5;200;14
rav1e/speed-6-qp-200.mkv;Matroska;AV1;Main;2631822;2579449;44.82227;35.964657;1920;1080;50.000;500;4:2:0;8;3289778;Lavc58.136.101 librav1e;6;6;200;14
rav1e/speed-7-qp-200.mkv;Matroska;AV1;Main;2629960;2577624;44.775404;35.918936;1920;1080;50.000;500;4:2:0;8;3287450;Lavc58.136.101 librav1e;7;7;200;14
rav1e/speed-8-qp-200.mkv;Matroska;AV1;Main;2684670;2631245;44.884176;36.773298;1920;1080;50.000;500;4:2:0;8;3355837;Lavc58.136.101 librav1e;8;8;200;14
rav1e/speed-9-qp-200.mkv;Matroska;AV1;Main;3147633;3084995;45.196699;35.228491;1920;1080;50.000;500;4:2:0;8;3934541;Lavc58.136.101 librav1e;9;9;200;14
rav1e/speed-10-qp-200.mkv;Matroska;AV1;Main;3201478;3137769;45.097522;35.660878;1920;1080;50.000;500;4:2:0;8;4001847;Lavc58.136.101 librav1e;10;10;200;14


"default"
rav1e/default.mkv;Matroska;AV1;Main;26860238;26325719;96.332105;91.22145;1920;1080;50.000;500;4:2:0;8;33575297;Lavc58.136.101 librav1e
